<svg xmlns="http://www.w3.org/2000/svg" width="21.981" height="21.981" viewBox="0 0 21.981 21.981">
  <g id="Logout" transform="translate(39.981 -18) rotate(90)">
    <g id="Group_27824" data-name="Group 27824" transform="translate(18 18)">
      <path id="Path_69718" data-name="Path 69718" d="M10.991,21.981A10.991,10.991,0,1,1,21.981,10.991,10.991,10.991,0,0,1,10.991,21.981ZM11.581,5.9l4.005,4.056a.686.686,0,1,1-.969.971l-2.7-2.708c-.132-.133-.241-.087-.241.1V15.8a.686.686,0,1,1-1.371,0V8.327c0-.189-.108-.236-.241-.1l-2.7,2.708A.686.686,0,1,1,6.4,9.961l3.979-4.052A.843.843,0,0,1,11.581,5.9Zm-.59,14.7a9.617,9.617,0,1,0-9.617-9.617A9.617,9.617,0,0,0,10.991,20.608Z" transform="translate(21.981) rotate(90)" fill="#484848" fill-rule="evenodd"/>
    </g>
  </g>
</svg>
