<svg xmlns="http://www.w3.org/2000/svg" width="233.61" height="250.891" viewBox="0 0 233.61 250.891">
  <g id="physical_date" transform="translate(0 0)">
    <ellipse id="Ellipse_93" data-name="Ellipse 93" cx="116.255" cy="116.255" rx="116.255" ry="116.255" transform="translate(0 3.349)" fill="#b2d3d5"/>
    <g id="Group_1180" data-name="Group 1180" transform="translate(10.016 0)">
      <g id="Group_1174" data-name="Group 1174" transform="translate(34.315 49.08)">
        <g id="Group_997" data-name="Group 997" transform="translate(4.069 135.217)">
          <path id="Path_3149" data-name="Path 3149" d="M620.837,2360.656a23.038,23.038,0,0,0-.773,9.5,86.564,86.564,0,0,0,3.521,18.645,46.5,46.5,0,0,0,6.051,13.225,24.093,24.093,0,0,0,11.2,9.027,122.3,122.3,0,0,1-2.99-33.191c.148-3.068.4-6.207-.453-9.165a3.13,3.13,0,0,0-.687-1.359,3.507,3.507,0,0,0-1.14-.671,107.962,107.962,0,0,0-13-4.536c-.944-.265-2.061-.672-2.271-1.632" transform="translate(-619.918 -2360.5)" fill="#ffb683"/>
        </g>
        <g id="Group_998" data-name="Group 998" transform="translate(90.639 41.931)">
          <path id="Path_3150" data-name="Path 3150" d="M1730.056,1225.218c-.024-7.246-1.148-14.444-1.32-21.682s.679-14.772,4.231-20.948,10.314-10.657,17.045-9.556c1.038-4.263,5.379-6.73,9.493-7.222,8.081-.968,16.021,3.748,21.377,10.26s8.573,14.654,11.65,22.665,6.176,16.186,11.36,22.861c5.1,6.566,12.11,11.539,15.889,19.05,4.138,8.221,3.614,18.707-.758,26.795a31.9,31.9,0,0,1-20.862,15.662,15.686,15.686,0,0,1-8.409-.023c-3.17-1.062-5.708-3.623-7.808-6.371a46.708,46.708,0,0,1-8.885-33.861,34.294,34.294,0,0,0,.625-7.5c-.234-2.506-1.405-5.1-3.561-6.129a7.325,7.325,0,0,0-3.521-.547c-5.349.219-10.33,2.74-15.4,4.575s-10.821,2.943-15.631.453-7.511-9.892-3.951-14.139" transform="translate(-1728.714 -1165.683)" fill="#2a3238"/>
        </g>
        <g id="Group_999" data-name="Group 999" transform="translate(138.334 131.165)">
          <path id="Path_3151" data-name="Path 3151" d="M2352.909,2362.143a104.01,104.01,0,0,0,3.264-50.515c-.227-1.226-.656-2.663-1.757-2.967a2.817,2.817,0,0,0-1.717.266q-5.094,1.943-10.2,3.9a4.2,4.2,0,0,0-1.991,1.241,4.827,4.827,0,0,0-.711,2.506c-1.46,16.638,5.114,33.175,14.351,46.572" transform="translate(-2339.597 -2308.607)" fill="#95cece"/>
        </g>
        <g id="Group_1000" data-name="Group 1000" transform="translate(84.361 112.365)">
          <path id="Path_3152" data-name="Path 3152" d="M1656.555,2076.513a40.152,40.152,0,0,0-8.206,26.023,3.126,3.126,0,0,0,.492,1.827,3.174,3.174,0,0,0,1.9.883q5.833,1.229,11.7,2.225a42.548,42.548,0,0,1,3.5,12.82c.96,8.854-.851,18.067,1.8,26.569a8.607,8.607,0,0,0,2.928,4.685,8.726,8.726,0,0,0,2.694,1.125c9.416,2.576,19.448.352,28.8-2.459a111.712,111.712,0,0,0,14.655-5.341,4.037,4.037,0,0,0,2.131-1.693c.625-1.358-.359-2.873-1.187-4.115-5.762-8.658-5.637-19.784-6.128-30.176-.437-9.212-1.523-18.387-2.607-27.545-.453-3.857-1.086-8.066-3.951-10.689-2.9-2.646-7.2-2.88-11.118-2.826a159.087,159.087,0,0,0-33.049,3.951c-2.366.539-5.356,2.163-4.622,4.474" transform="translate(-1648.31 -2067.817)" fill="#95cece"/>
        </g>
        <g id="Group_1002" data-name="Group 1002" transform="translate(115.458 95.882)">
          <g id="Group_1001" data-name="Group 1001">
            <path id="Path_3153" data-name="Path 3153" d="M2046.6,1856.7" transform="translate(-2046.6 -1856.7)" fill="none" stroke="#ffefe3" stroke-miterlimit="10" stroke-width="1"/>
          </g>
        </g>
        <g id="Group_1003" data-name="Group 1003" transform="translate(35.252 22.187)">
          <path id="Path_3154" data-name="Path 3154" d="M1055.245,912.8a5.208,5.208,0,0,1,2.233,1.866,4.708,4.708,0,0,1,.047,3.256c-.976,4.294-3.74,12.625-4.716,16.919,2.4-3.677,8.815-3.661,11.759-.265s2.131,8.908-1.3,11.742-8.791,3.006-12.859.937q-2.213,13.726-4.419,27.459c-.437,2.694-.969,5.575-2.99,7.48-2.171,2.038-5.512,2.42-8.588,2.327-7.121-.211-14.6-.109-15.085-8.37a71.867,71.867,0,0,1,.5-8.971,47.192,47.192,0,0,0,.289-9.564" transform="translate(-1019.308 -912.8)" fill="#feb683"/>
        </g>
        <g id="Group_1004" data-name="Group 1004" transform="translate(99.804 98.975)">
          <path id="Path_3155" data-name="Path 3155" d="M1856.827,1900.869a19.068,19.068,0,0,0,6.238.773c10.837.141,22.189.156,31.769-5.043a1.284,1.284,0,0,1,1.14-.219,1.239,1.239,0,0,1,.523.827c1.1,4.052-1.007,8.316-3.67,11.516-5.473,6.59-13.39,10.673-21.587,12.664s-16.724,2.046-25.141,1.64a30.648,30.648,0,0,1,3.341-7.487q3.935-7.027,7.87-14.046" transform="translate(-1846.1 -1896.31)" fill="#ffb683"/>
        </g>
        <g id="Group_1005" data-name="Group 1005" transform="translate(137.476 116.071)">
          <path id="Path_3156" data-name="Path 3156" d="M2329.809,2146.96c3.771-2.718,8.775-1.156,12.929-2.936a6.28,6.28,0,0,0,2.514-1.843,8.306,8.306,0,0,0,1.406-5.661,25.252,25.252,0,0,0-1.375-5.832q-1.345-4.146-2.686-8.291c-.757-2.343-1.646-4.865-3.5-6.106a7.3,7.3,0,0,0-3.732-.992,4.861,4.861,0,0,0-3.491.765c-1.4,1.164-1.67,3.443-1.8,5.458q-.727,10.822-1.445,21.643c-.07,1.07-.023,2.4.8,2.857" transform="translate(-2328.607 -2115.274)" fill="#95cece"/>
        </g>
        <g id="Group_1007" data-name="Group 1007" transform="translate(139.839 51.975)">
          <g id="Group_1006" data-name="Group 1006" transform="translate(0 0)">
            <path id="Path_3157" data-name="Path 3157" d="M2381.707,1361.937c0-.242,1.46-.32,3.989-.812a26.638,26.638,0,0,0,9.87-4.005,19.259,19.259,0,0,0,5.09-5.043,17.956,17.956,0,0,0,2.92-7.558,15.045,15.045,0,0,0-1.211-8.635,19.322,19.322,0,0,0-6.4-7.1c-5.575-3.911-12.273-5.871-17.731-9.314A44.644,44.644,0,0,1,2366,1307.893a57.747,57.747,0,0,1-5.731-9.666c-1.1-2.405-1.546-3.81-1.359-3.9.2-.1,1,1.125,2.413,3.318a92.326,92.326,0,0,0,6.4,8.909,46.31,46.31,0,0,0,11.977,10.486,88.417,88.417,0,0,0,8.6,4.161,54.358,54.358,0,0,1,9.447,5.067,21.825,21.825,0,0,1,7.347,8.315,17.56,17.56,0,0,1,1.3,10.361,19.973,19.973,0,0,1-3.646,8.6,20.689,20.689,0,0,1-6,5.4,24.032,24.032,0,0,1-10.891,3.365C2383.151,1362.452,2381.691,1362.116,2381.707,1361.937Z" transform="translate(-2358.867 -1294.325)" fill="#2a3238"/>
          </g>
        </g>
        <g id="Group_1009" data-name="Group 1009" transform="translate(157.205 91.52)">
          <g id="Group_1008" data-name="Group 1008">
            <path id="Path_3158" data-name="Path 3158" d="M2605.438,1848.447c-.071-.235.756-.578,1.888-1.53a10.393,10.393,0,0,0,3.17-5.161,12.6,12.6,0,0,0-1.038-8.776,33.592,33.592,0,0,0-6.934-9.244c-2.975-2.975-6.113-5.59-8.939-8.066a83.9,83.9,0,0,1-7.261-6.956,33.744,33.744,0,0,1-4.083-5.489c-.774-1.429-1.069-2.28-.9-2.389.188-.117.828.515,1.866,1.678,1.086,1.14,2.6,2.788,4.661,4.661,2.046,1.882,4.622,3.982,7.542,6.317a112.391,112.391,0,0,1,9.3,8.064,32.631,32.631,0,0,1,7.356,10.291,16.629,16.629,0,0,1,1.287,5.59,12.438,12.438,0,0,1-.789,5,10.209,10.209,0,0,1-4.575,5.481C2606.444,1848.681,2605.468,1848.619,2605.438,1848.447Z" transform="translate(-2581.296 -1800.823)" fill="#2a3238"/>
          </g>
        </g>
        <g id="Group_1011" data-name="Group 1011" transform="translate(110.983 86.875)">
          <g id="Group_1010" data-name="Group 1010">
            <path id="Path_3159" data-name="Path 3159" d="M2031.83,1741.523c.156.164-.336.875-1.148,2.155s-1.889,3.169-3.146,5.621a42.116,42.116,0,0,1-5.278,8.456,17.7,17.7,0,0,1-4.786,3.966,12.733,12.733,0,0,1-3.2,1.234,12.6,12.6,0,0,1-3.56.258,14.937,14.937,0,0,1-6.434-2.187,25.97,25.97,0,0,1-4.747-3.771,52.608,52.608,0,0,1-6.2-7.753c-3.1-4.7-4.334-7.964-3.99-8.151.4-.227,2.3,2.631,5.739,6.854a72.036,72.036,0,0,0,6.41,6.988c2.561,2.311,5.8,4.646,9.455,4.935,3.654.344,6.878-1.8,9.2-4.279a53.059,53.059,0,0,0,5.5-7.652,30.32,30.32,0,0,1,4.091-5.277C2030.9,1741.813,2031.689,1741.375,2031.83,1741.523Z" transform="translate(-1989.286 -1741.339)" fill="#2a3238"/>
          </g>
        </g>
        <g id="Group_1013" data-name="Group 1013" transform="translate(84.517 65.636)">
          <g id="Group_1012" data-name="Group 1012">
            <path id="Path_3160" data-name="Path 3160" d="M1664.712,1496.882c-.023.211-.57.352-1.538.406a17.406,17.406,0,0,1-4.146-.3,13.933,13.933,0,0,1-2.865-.875,10.709,10.709,0,0,1-3.013-1.952,9.171,9.171,0,0,1-2.35-3.388,7.556,7.556,0,0,1-.257-4.6,13.36,13.36,0,0,1,1.788-3.826c.695-1.069,1.381-2.007,1.936-2.88a24.016,24.016,0,0,0,2.421-5.028c1.053-3.052,1.256-5.146,1.717-5.146.383-.023.984,2.147.39,5.693a19.321,19.321,0,0,1-2.085,5.925c-1.125,2.085-2.67,4.021-3.193,6.028a4.875,4.875,0,0,0,.1,2.8,6.813,6.813,0,0,0,1.507,2.405,11.457,11.457,0,0,0,4.466,2.756c1.5.554,2.819.89,3.724,1.21C1664.244,1496.414,1664.735,1496.671,1664.712,1496.882Z" transform="translate(-1650.299 -1469.297)" fill="#2a3238"/>
          </g>
        </g>
        <g id="Group_1015" data-name="Group 1015" transform="translate(116.143 45.747)">
          <g id="Group_1014" data-name="Group 1014">
            <path id="Path_3161" data-name="Path 3161" d="M2104.87,1325.239a7.13,7.13,0,0,1,1.367-.492,10.864,10.864,0,0,0,3.466-2.045,13.052,13.052,0,0,0,3.553-5.13,14.871,14.871,0,0,0,.618-8.128,28.9,28.9,0,0,0-3.765-9.384c-1.874-3.186-4.309-6.371-6.644-9.939a47.109,47.109,0,0,1-5.73-12.1,113.8,113.8,0,0,1-3.194-13.866c-.875-4.763-1.655-9.409-2.841-13.773a55.257,55.257,0,0,0-4.7-12.094c-1.959-3.669-4.083-7.089-6.113-10.2a38.884,38.884,0,0,0-6.574-7.878,19.3,19.3,0,0,0-7.308-4.138,16.2,16.2,0,0,0-6.371-.617,12.259,12.259,0,0,0-3.928,1.078,6.261,6.261,0,0,1-1.326.586c-.032-.039.335-.4,1.156-.9a11.158,11.158,0,0,1,4-1.445,16.21,16.21,0,0,1,6.753.352,20.013,20.013,0,0,1,7.878,4.154,39.071,39.071,0,0,1,6.988,8.01c2.124,3.139,4.286,6.511,6.339,10.259a55.529,55.529,0,0,1,4.935,12.406c1.233,4.458,2.03,9.143,2.9,13.9a116.392,116.392,0,0,0,3.108,13.671,46.516,46.516,0,0,0,5.449,11.742c2.249,3.521,4.661,6.769,6.542,10.087a29.376,29.376,0,0,1,3.724,9.908,15.663,15.663,0,0,1-.944,8.7,13.4,13.4,0,0,1-4.044,5.293,10.058,10.058,0,0,1-3.819,1.866A3.331,3.331,0,0,1,2104.87,1325.239Z" transform="translate(-2055.376 -1214.564)" fill="#445763"/>
          </g>
        </g>
        <g id="Group_1017" data-name="Group 1017" transform="translate(94.449 52.079)">
          <g id="Group_1016" data-name="Group 1016">
            <path id="Path_3162" data-name="Path 3162" d="M1778.335,1339.234c-.226.016-.741-2.865-.82-7.589a77.11,77.11,0,0,1,2.014-18.332,32.682,32.682,0,0,1,3.74-9.6,18.2,18.2,0,0,1,5.949-6.066,12.853,12.853,0,0,1,5.379-1.929c1.351-.133,2.092.031,2.084.141,0,.148-.727.234-1.952.57a15.116,15.116,0,0,0-4.794,2.311,18.39,18.39,0,0,0-5.208,5.848,33.92,33.92,0,0,0-3.4,9.158C1778.078,1327.547,1778.913,1339.234,1778.335,1339.234Z" transform="translate(-1777.508 -1295.665)" fill="#445763"/>
          </g>
        </g>
        <g id="Group_1019" data-name="Group 1019" transform="translate(105.988 53.426)">
          <g id="Group_1018" data-name="Group 1018" transform="translate(0)">
            <path id="Path_3163" data-name="Path 3163" d="M1939.346,1362.6c-.038.1-.843-.063-2.131-.781a15.275,15.275,0,0,1-4.567-4.17,26.489,26.489,0,0,1-3.966-8.245c-.984-3.295-1.8-6.886-2.545-10.743a40.232,40.232,0,0,1-.7-11.133,22.3,22.3,0,0,1,2.663-8.792,15.719,15.719,0,0,1,3.989-4.732c1.171-.882,1.937-1.163,1.991-1.077.211.25-2.655,1.921-4.818,6.41a23.041,23.041,0,0,0-2.131,8.323,42.293,42.293,0,0,0,.82,10.657c.734,3.763,1.5,7.417,2.358,10.595a27.945,27.945,0,0,0,3.4,7.972C1936.442,1361.075,1939.518,1362.332,1939.346,1362.6Z" transform="translate(-1925.301 -1312.911)" fill="#445763"/>
          </g>
        </g>
        <g id="Group_1021" data-name="Group 1021" transform="translate(147.623 79.694)">
          <g id="Group_1020" data-name="Group 1020">
            <path id="Path_3164" data-name="Path 3164" d="M2458.694,1649.36c.242-.07.8.953,1.483,2.694a32.067,32.067,0,0,1,1.85,7.12,17.765,17.765,0,0,1-.437,7.48,4.474,4.474,0,0,1-1.28,2.038c-.461.367-.8.421-.859.32-.141-.219.655-.976.874-2.686a27.965,27.965,0,0,0-.133-6.925c-.358-2.717-.936-5.185-1.271-7C2458.569,1650.6,2458.452,1649.438,2458.694,1649.36Z" transform="translate(-2458.566 -1649.356)" fill="#445763"/>
          </g>
        </g>
        <g id="Group_1023" data-name="Group 1023" transform="translate(143.068 87.531)">
          <g id="Group_1022" data-name="Group 1022">
            <path id="Path_3165" data-name="Path 3165" d="M2400.283,1749.778c.336-.367,2.858,1.569,4.435,5.059a8.692,8.692,0,0,1,.953,4.848c-.218,1.351-.906,1.96-1.1,1.827-.242-.125-.071-.828-.2-1.873a14.265,14.265,0,0,0-1.328-4.044C2401.626,1752.456,2399.909,1750.144,2400.283,1749.778Z" transform="translate(-2400.231 -1749.734)" fill="#445763"/>
          </g>
        </g>
        <g id="Group_1025" data-name="Group 1025" transform="translate(117.496 51.572)">
          <g id="Group_1024" data-name="Group 1024">
            <path id="Path_3166" data-name="Path 3166" d="M2087.338,1340.259c-.038.086-.905-.164-2.085-1.234a11.421,11.421,0,0,1-3.2-5.793,21.4,21.4,0,0,1,.335-9.767c.812-3.561,2.016-7.277,2.6-11.29a27.436,27.436,0,0,0-.3-11.2,16.985,16.985,0,0,0-4.529-7.769,13.824,13.824,0,0,0-5.223-3.2c-1.405-.445-2.248-.523-2.24-.679a4.263,4.263,0,0,1,2.412-.023,12.73,12.73,0,0,1,5.925,2.927,17.37,17.37,0,0,1,5.294,8.277,27.436,27.436,0,0,1,.484,11.946,107.975,107.975,0,0,1-2.771,11.407,21.6,21.6,0,0,0-.719,9.1,11.99,11.99,0,0,0,2.445,5.574C2086.707,1339.666,2087.424,1340.127,2087.338,1340.259Z" transform="translate(-2072.7 -1289.172)" fill="#445763"/>
          </g>
        </g>
        <g id="Group_1027" data-name="Group 1027" transform="translate(149.84 106.201)">
          <g id="Group_1026" data-name="Group 1026">
            <path id="Path_3167" data-name="Path 3167" d="M2494.379,1996.572c-.484.218-1.789-1.734-3.755-3.732-1.944-2.022-3.865-3.374-3.639-3.85.187-.453,2.748.273,4.958,2.562C2494.175,1993.823,2494.839,1996.4,2494.379,1996.572Z" transform="translate(-2486.967 -1988.862)" fill="#445763"/>
          </g>
        </g>
        <g id="Group_1028" data-name="Group 1028" transform="translate(0 84.585)">
          <path id="Path_3168" data-name="Path 3168" d="M661.773,1721.258a89.384,89.384,0,0,0-18.645-7.042,8.228,8.228,0,0,0-3.31-1.858,15.8,15.8,0,0,0-5.59-.2l-5.114.422q-11.7,0-23.376.8c-1.32-.039-2.647-.062-3.967-.077a1.635,1.635,0,0,0-.281,0c-1.062-.016-2.116-.032-3.178-.032-5.044-.008-10.423.227-14.561,3.115-3.412,2.381-5.465,6.238-7.16,10.04a107.154,107.154,0,0,0-8.705,32.222,4.051,4.051,0,0,0,2.678,5.115c5.77,3.029,12.086,6.121,18.41,6.5a370.016,370.016,0,0,0,2.943,43.7,11.936,11.936,0,0,0,1.312,4.748,10.661,10.661,0,0,0,3.693,3.271c16.068,9.923,37.859,9.642,53.669-.68a18.037,18.037,0,0,0,6.223-6.027c3.381-6.067.484-13.522-1.647-20.135-4.044-12.578-5.021-25.741-5.567-39.007q10.353-.784,20.706-1.561a7.274,7.274,0,0,0,4.286-1.288c1.406-1.14,2.217-3.115,2.951-4.989q3.771-9.626,7.534-19.253C677.154,1727.013,669.183,1724.974,661.773,1721.258Z" transform="translate(-567.802 -1712.007)" fill="#f95c32"/>
        </g>
        <g id="Group_1030" data-name="Group 1030" transform="translate(57.12 5.315)">
          <g id="Group_1029" data-name="Group 1029">
            <path id="Path_3169" data-name="Path 3169" d="M1299.4,696.7" transform="translate(-1299.4 -696.7)" fill="none" stroke="#fcd8b8" stroke-miterlimit="10" stroke-width="1"/>
          </g>
        </g>
        <g id="Group_1032" data-name="Group 1032" transform="translate(57.12 5.315)">
          <g id="Group_1031" data-name="Group 1031">
            <path id="Path_3170" data-name="Path 3170" d="M1299.4,696.7" transform="translate(-1299.4 -696.7)" fill="none" stroke="#fcd8b8" stroke-miterlimit="10" stroke-width="1"/>
          </g>
        </g>
        <g id="Group_1033" data-name="Group 1033" transform="translate(19.444)">
          <path id="Path_3171" data-name="Path 3171" d="M845.269,703.019c-7.066-2.85-14.593-6.074-18.629-12.539-1.874-3.006-2.827-6.473-3.755-9.892q-2.167-7.963-4.333-15.935c-1.023-3.755-2.053-7.62-1.608-11.477a20.659,20.659,0,0,1,1.983-6.457,32.432,32.432,0,0,1,29.231-18.082c2.943.055,6.074.617,8.2,2.655,1.6,1.538,2.428,3.716,3.912,5.372,4.185,4.653,12.484,4.052,16.013,9.213,2.678,3.919,1.273,9.213-.234,13.718q-2.389,7.179-4.786,14.351c-2.335,7-4.724,14.124-8.979,20.159a24.833,24.833,0,0,1-6.473,6.551,18.648,18.648,0,0,1-16.872,1.71" transform="translate(-816.837 -628.631)" fill="#f69136"/>
        </g>
        <g id="Group_1035" data-name="Group 1035" transform="translate(39.496 74.297)">
          <g id="Group_1034" data-name="Group 1034">
            <path id="Path_3172" data-name="Path 3172" d="M1093.069,1582.514c.079.406-.952,1.015-2.763,1.468a22.618,22.618,0,0,1-14.21-1.46c-1.679-.812-2.561-1.617-2.405-2,.352-.812,4.529.313,9.713.812C1088.565,1581.9,1092.89,1581.648,1093.069,1582.514Z" transform="translate(-1073.673 -1580.238)" fill="#f69136"/>
          </g>
        </g>
        <g id="Group_1037" data-name="Group 1037" transform="translate(18.521 88.007)">
          <g id="Group_1036" data-name="Group 1036">
            <path id="Path_3173" data-name="Path 3173" d="M864.635,1755.915c.172.328-2.717,2.35-7.987,4.419-.664.25-1.359.508-2.085.781-.726.258-1.507.468-2.3.719-1.585.515-3.326.881-5.153,1.312a66.789,66.789,0,0,1-24.282.476c-1.842-.351-3.6-.648-5.208-1.1-.8-.211-1.585-.391-2.327-.625s-1.437-.469-2.108-.7c-5.356-1.859-8.323-3.755-8.159-4.092.2-.437,3.435.726,8.768,2,.672.156,1.366.312,2.092.484s1.5.281,2.288.429c1.569.336,3.279.531,5.059.789a82.476,82.476,0,0,0,23.36-.461c1.772-.336,3.467-.594,5.028-.991.781-.187,1.546-.336,2.264-.523s1.413-.383,2.069-.57C861.23,1756.782,864.424,1755.486,864.635,1755.915Z" transform="translate(-805.017 -1755.832)" fill="#e24b2d"/>
          </g>
        </g>
        <g id="Group_1039" data-name="Group 1039" transform="translate(10.229 93.097)">
          <g id="Group_1038" data-name="Group 1038">
            <path id="Path_3174" data-name="Path 3174" d="M779.416,1821.046c.141.141-.585,1.14-2.147,2.74a37.01,37.01,0,0,1-7.667,5.559,53.978,53.978,0,0,1-13.148,4.974,87.311,87.311,0,0,1-16.974,2.3,102.074,102.074,0,0,1-17.091-.578,47.807,47.807,0,0,1-13.609-3.622,26.36,26.36,0,0,1-7.9-5.325,12.186,12.186,0,0,1-1.663-1.983c-.336-.492-.461-.781-.383-.851.39-.4,3.568,3.5,10.774,6.153a52.47,52.47,0,0,0,13.109,2.818,121.6,121.6,0,0,0,16.63.321,99.08,99.08,0,0,0,16.466-1.984,60.829,60.829,0,0,0,12.8-4.146,53.923,53.923,0,0,0,7.886-4.544C778.245,1821.592,779.26,1820.89,779.416,1821.046Z" transform="translate(-698.812 -1821.024)" fill="#e24b2d"/>
          </g>
        </g>
        <g id="Group_1041" data-name="Group 1041" transform="translate(4.64 110.527)">
          <g id="Group_1040" data-name="Group 1040">
            <path id="Path_3175" data-name="Path 3175" d="M643.245,2052.166c-.273.8-4.333.095-8.838-2.083s-7.581-4.912-7.129-5.622c.461-.733,4.13.758,8.471,2.842C640.075,2049.4,643.534,2051.355,643.245,2052.166Z" transform="translate(-627.234 -2044.271)" fill="#e24b2d"/>
          </g>
        </g>
        <g id="Group_1043" data-name="Group 1043" transform="translate(1.526 122.75)">
          <g id="Group_1042" data-name="Group 1042">
            <path id="Path_3176" data-name="Path 3176" d="M607.366,2210.562c-.4.758-5.09-.906-10.587-3.521s-9.752-5.215-9.408-6c.336-.772,5.184.569,10.736,3.216S607.756,2209.813,607.366,2210.562Z" transform="translate(-587.351 -2200.821)" fill="#e24b2d"/>
          </g>
        </g>
        <g id="Group_1045" data-name="Group 1045" transform="translate(21.258 112.986)">
          <g id="Group_1044" data-name="Group 1044">
            <path id="Path_3177" data-name="Path 3177" d="M896.782,2075.823c.211.329-2.241,2.592-6.84,5.527a39.951,39.951,0,0,1-8.729,4.146,45.376,45.376,0,0,1-11.657,2.155,78.81,78.81,0,0,1-21.119-2.015c-5.262-1.186-8.432-2.241-8.354-2.646.078-.429,3.412-.133,8.713.492,5.293.57,12.609,1.53,20.573,1.086a47.723,47.723,0,0,0,19.511-5.13C893.6,2077.08,896.532,2075.433,896.782,2075.823Z" transform="translate(-840.082 -2075.766)" fill="#e24b2d"/>
          </g>
        </g>
        <g id="Group_1047" data-name="Group 1047" transform="translate(79.765 97.75)">
          <g id="Group_1046" data-name="Group 1046">
            <path id="Path_3178" data-name="Path 3178" d="M1610.442,1880.664c.687.446-2.506,6.3-8.518,11.766-5.98,5.5-12.062,8.19-12.453,7.472-.453-.765,4.685-4.505,10.376-9.744C1605.57,1884.958,1609.724,1880.156,1610.442,1880.664Z" transform="translate(-1589.443 -1880.627)" fill="#e24b2d"/>
          </g>
        </g>
        <g id="Group_1049" data-name="Group 1049" transform="translate(91.652 100.654)">
          <g id="Group_1048" data-name="Group 1048">
            <path id="Path_3179" data-name="Path 3179" d="M1761.75,1917.825c.383.1.3,2.068-.632,5.082a36.918,36.918,0,0,1-14.67,19.222c-2.662,1.687-4.537,2.288-4.74,1.944-.469-.781,5.8-4.95,11.243-12.188C1758.487,1924.718,1760.875,1917.575,1761.75,1917.825Z" transform="translate(-1741.683 -1917.818)" fill="#e24b2d"/>
          </g>
        </g>
        <g id="Group_1051" data-name="Group 1051" transform="translate(19.752 130.132)">
          <g id="Group_1050" data-name="Group 1050">
            <path id="Path_3180" data-name="Path 3180" d="M883.124,2295.435c.187.335-2.694,2.559-7.98,5.191a51.1,51.1,0,0,1-9.751,3.646,59.932,59.932,0,0,1-12.625,1.874,101.813,101.813,0,0,1-22.845-1.952c-5.731-1.108-9.2-2.108-9.135-2.515.07-.429,3.677-.2,9.447.359a166.171,166.171,0,0,0,22.4,1.031,70.09,70.09,0,0,0,12.086-1.554,67.591,67.591,0,0,0,9.556-2.889C879.633,2296.583,882.9,2295.028,883.124,2295.435Z" transform="translate(-820.787 -2295.37)" fill="#e24b2d"/>
          </g>
        </g>
        <g id="Group_1053" data-name="Group 1053" transform="translate(21.02 144.73)">
          <g id="Group_1052" data-name="Group 1052">
            <path id="Path_3181" data-name="Path 3181" d="M898.81,2482.429c.164.39-3.006,2.124-8.268,4.607-2.639,1.242-5.77,2.67-9.315,4.208a39.837,39.837,0,0,1-5.879,2.085,29.588,29.588,0,0,1-6.746.835,93.553,93.553,0,0,1-12.641-1.062,85.387,85.387,0,0,1-10.15-1.881c-5.746-1.477-8.948-3.373-8.783-3.725.179-.43,3.576.7,9.229,1.585,2.826.459,6.222.843,10.025,1.186,3.81.312,8.019.851,12.273.8a28.586,28.586,0,0,0,6.075-.687,43.348,43.348,0,0,0,5.528-1.779c3.56-1.375,6.808-2.615,9.541-3.592C895.18,2483.062,898.646,2482.038,898.81,2482.429Z" transform="translate(-837.023 -2482.347)" fill="#e24b2d"/>
          </g>
        </g>
        <g id="Group_1055" data-name="Group 1055" transform="translate(22.279 159.24)">
          <g id="Group_1054" data-name="Group 1054">
            <path id="Path_3182" data-name="Path 3182" d="M916.412,2668.243c.211.289-2.585,2.842-7.933,5.754-.679.352-1.382.718-2.116,1.1s-1.546.694-2.358,1.062c-1.624.757-3.435,1.375-5.333,2.054a66.677,66.677,0,0,1-25.882,3.208c-2.006-.195-3.911-.352-5.676-.687-.882-.157-1.741-.274-2.545-.453-.8-.2-1.577-.375-2.319-.554-5.895-1.524-9.229-3.311-9.1-3.647.164-.46,3.716.576,9.533,1.514.726.11,1.491.227,2.28.344s1.632.172,2.483.266c1.71.219,3.56.274,5.489.391a86.892,86.892,0,0,0,12.57-.555,88.086,88.086,0,0,0,12.32-2.537c1.851-.578,3.623-1.085,5.231-1.718.8-.305,1.609-.555,2.343-.867s1.452-.608,2.131-.89C912.945,2669.711,916.146,2667.837,916.412,2668.243Z" transform="translate(-853.151 -2668.188)" fill="#e24b2d"/>
          </g>
        </g>
        <g id="Group_1057" data-name="Group 1057" transform="translate(23.903 172.802)">
          <g id="Group_1056" data-name="Group 1056">
            <path id="Path_3183" data-name="Path 3183" d="M939.142,2841.915c.164.1-.164,1.093-1.366,2.49a23.73,23.73,0,0,1-6.051,4.631,64.725,64.725,0,0,1-48.235,7.12c-6.191-1.6-9.666-3.505-9.533-3.841.164-.46,3.88.7,9.978,1.708a76.8,76.8,0,0,0,46.752-6.9,34.216,34.216,0,0,0,6.269-3.583C938.3,2842.508,938.947,2841.782,939.142,2841.915Z" transform="translate(-873.953 -2841.899)" fill="#e24b2d"/>
          </g>
        </g>
        <g id="Group_1060" data-name="Group 1060" transform="translate(23.408 134.897)">
          <g id="Group_1058" data-name="Group 1058" transform="translate(0 11.087)">
            <path id="Path_3184" data-name="Path 3184" d="M891.481,2513.247a40.348,40.348,0,0,0-2.319-11.665c-.117-.32-.3-.687-.617-.7-.336-.023-.562.359-.7.678q-1,2.273-2,4.545-4.7-3.28-9.385-6.565a5.2,5.2,0,0,0-2.4-1.125,1.846,1.846,0,0,0-2.022,1.4c-.187,1.3,1.257,2.108,2.381,2.693a11.9,11.9,0,0,1,3.638,2.944.88.88,0,0,1,.219.39c.109.671-.953.594-1.5.234a15.428,15.428,0,0,0-8.065-2.537,1.125,1.125,0,0,0-.906.257,1.2,1.2,0,0,0,.062,1.352c1.531,2.678,5.317,2.631,7.55,4.684.375.344.312,1.3-.1,1.023-1.8-.655-3.615-1.312-5.418-1.968-.539-.194-1.234-.358-1.616.086-.578.672.234,1.656.96,2.14,1.71,1.132,3.412,2.264,5.122,3.4a10.167,10.167,0,0,1-5.208,0,1.474,1.474,0,0,0,.289,1.765,4.03,4.03,0,0,0,1.647.858,56.189,56.189,0,0,1,9.869,4.5c1.609.929,3.264,1.967,5.1,2.015,2.678.07,5.106-2.155,5.9-4.849a10.791,10.791,0,0,0-1.2-8.12" transform="translate(-867.615 -2498.406)" fill="#ffb683"/>
          </g>
          <g id="Group_1059" data-name="Group 1059" transform="translate(16.293)">
            <path id="Path_3185" data-name="Path 3185" d="M1083.2,2379.62c.14,2.178,1.882,3.857,3.669,4.966,7.87,4.9,18.5,3.076,25.617-2.967s10.985-15.592,12.016-25.156a66.216,66.216,0,0,0,17-.062c-.445,10.321-1.148,21.4-7.261,29.481a33.766,33.766,0,0,1-8.964,7.894,46.445,46.445,0,0,1-24,7.644,35.422,35.422,0,0,1-23.579-8.268,3.551,3.551,0,0,1-1.366-1.937,3.792,3.792,0,0,1,.758-2.5q2.354-3.946,5.067-7.627" transform="translate(-1076.302 -2356.4)" fill="#ffb683"/>
          </g>
        </g>
        <g id="Group_1062" data-name="Group 1062" transform="translate(18.379 116.023)">
          <g id="Group_1061" data-name="Group 1061">
            <path id="Path_3186" data-name="Path 3186" d="M806.03,2148.361c-.8.156-2.842-7.338-2.834-16.841-.031-9.509,1.991-17,2.8-16.849.867.149.25,7.645.289,16.849C806.264,2140.718,806.9,2148.221,806.03,2148.361Z" transform="translate(-803.195 -2114.669)" fill="#bf3d28"/>
          </g>
        </g>
        <g id="Group_1064" data-name="Group 1064" transform="translate(77.986 112.695)">
          <g id="Group_1063" data-name="Group 1063">
            <path id="Path_3187" data-name="Path 3187" d="M1571.885,2087.819c-.773.328-2.865-2.889-4.169-7.347-1.32-4.459-1.312-8.284-.484-8.433s2.17,3.287,3.435,7.558S1572.682,2087.484,1571.885,2087.819Z" transform="translate(-1566.659 -2072.034)" fill="#bf3d28"/>
          </g>
        </g>
        <g id="Group_1066" data-name="Group 1066" transform="translate(35.882 84.482)">
          <g id="Group_1065" data-name="Group 1065">
            <path id="Path_3188" data-name="Path 3188" d="M1052.775,1710.942c.141.382-1.093,1.3-3.388,2.069a32.624,32.624,0,0,1-9.182,1.428c-1.8.055-3.482.032-5.028-.024a28.128,28.128,0,0,1-4.177-.437c-2.413-.469-3.74-1.343-3.607-1.733.133-.422,1.554-.335,3.787-.445,2.21-.094,5.419-.366,8.924-.445,3.49-.1,6.582-.273,8.831-.484C1051.182,1710.692,1052.619,1710.527,1052.775,1710.942Z" transform="translate(-1027.384 -1710.682)" fill="#bf3d28"/>
          </g>
        </g>
        <g id="Group_1068" data-name="Group 1068" transform="translate(26.072 4.698)">
          <g id="Group_1067" data-name="Group 1067">
            <path id="Path_3189" data-name="Path 3189" d="M914.518,754.858c-.039.047-.313-.125-.789-.492a16.415,16.415,0,0,1-1.967-1.772,30.447,30.447,0,0,1-5.575-7.987c-3.748-7.37-5.856-19.152-3.4-31.582a35.211,35.211,0,0,1,7.363-16.154,23.245,23.245,0,0,1,12.4-7.55,20.1,20.1,0,0,1,5.614-.484,16.258,16.258,0,0,1,4.161.8c2.2.773,3.209,1.608,3.162,1.679-.078.156-1.194-.453-3.365-.984a17.725,17.725,0,0,0-4.005-.461,20.583,20.583,0,0,0-5.262.718,22.57,22.57,0,0,0-11.415,7.386,34.729,34.729,0,0,0-6.847,15.42,57.127,57.127,0,0,0-.75,17.13,46.355,46.355,0,0,0,1.359,7.37,39.079,39.079,0,0,0,2.163,6.16,35.531,35.531,0,0,0,4.927,8.065c.687.9,1.3,1.522,1.687,1.975S914.557,754.811,914.518,754.858Z" transform="translate(-901.732 -688.806)" fill="#e28234"/>
          </g>
        </g>
        <g id="Group_1070" data-name="Group 1070" transform="translate(36.032 8.487)">
          <g id="Group_1069" data-name="Group 1069">
            <path id="Path_3190" data-name="Path 3190" d="M1032.688,799.108a9.3,9.3,0,0,1-.983-2.873,74.78,74.78,0,0,1-1.562-8.1,92.264,92.264,0,0,1-.843-12.227,95.277,95.277,0,0,1,1.187-14.975c.835-5.239,2-10.33,4.333-14.5a19.622,19.622,0,0,1,4.192-5.286,15.88,15.88,0,0,1,5.107-2.952,12.806,12.806,0,0,1,8.377-.289c1.9.672,2.7,1.491,2.647,1.561-.086.141-1.008-.445-2.834-.866a12.952,12.952,0,0,0-7.721.82,15.235,15.235,0,0,0-4.544,2.873,18.919,18.919,0,0,0-3.717,4.958c-2.085,3.911-3.177,8.807-4.005,13.976a107.774,107.774,0,0,0-.866,26.764C1032.079,794.845,1032.977,799.046,1032.688,799.108Z" transform="translate(-1029.3 -737.337)" fill="#e28234"/>
          </g>
        </g>
        <g id="Group_1072" data-name="Group 1072" transform="translate(50.929 11.607)">
          <g id="Group_1071" data-name="Group 1071">
            <path id="Path_3191" data-name="Path 3191" d="M1230.716,777.3c.211-.039.906,3.459.219,9.08-.61,5.637-2.826,13.054-4.661,21.3-1.882,8.26-3.272,15.81-4.24,21.283s-1.546,8.877-1.812,8.846c-.242-.024-.125-3.483.515-9.034a205.19,205.19,0,0,1,3.732-21.5c1.866-8.338,4.263-15.654,5.176-21.08C1230.63,780.763,1230.419,777.32,1230.716,777.3Z" transform="translate(-1220.105 -777.296)" fill="#e28234"/>
          </g>
        </g>
        <g id="Group_1074" data-name="Group 1074" transform="translate(63.864 12.263)">
          <g id="Group_1073" data-name="Group 1073">
            <path id="Path_3192" data-name="Path 3192" d="M1392.715,821.993c-.242-.07.2-2.444,1.109-6.23.453-1.889,1.03-4.138,1.694-6.621.617-2.5,1.608-5.192,1.7-7.94a14.266,14.266,0,0,0-1.889-7.519,16.225,16.225,0,0,0-4.2-4.911c-2.967-2.3-5.442-2.67-5.356-2.99.016-.109.64-.141,1.741.063a12.686,12.686,0,0,1,4.372,1.866,15.908,15.908,0,0,1,4.919,5.114,15.093,15.093,0,0,1,2.264,8.448,18.629,18.629,0,0,1-.757,4.458c-.383,1.374-.781,2.654-1.156,3.888-.758,2.46-1.46,4.661-2.077,6.511C1393.847,819.815,1392.964,822.064,1392.715,821.993Z" transform="translate(-1385.772 -785.696)" fill="#e28234"/>
          </g>
        </g>
        <g id="Group_1076" data-name="Group 1076" transform="translate(84.767 137.551)">
          <g id="Group_1075" data-name="Group 1075">
            <path id="Path_3193" data-name="Path 3193" d="M1653.5,2390.4" transform="translate(-1653.5 -2390.4)" fill="none" stroke="#eff6f6" stroke-miterlimit="10" stroke-width="1"/>
          </g>
        </g>
        <g id="Group_1077" data-name="Group 1077" transform="translate(60.782 133.374)">
          <path id="Path_3194" data-name="Path 3194" d="M1346.3,2369.246s21.752-9.478,25.655-31.792l20.355-.555s3.349,44.612-44.339,46.01Z" transform="translate(-1346.3 -2336.9)" fill="#95cece"/>
        </g>
        <g id="Group_1079" data-name="Group 1079" transform="translate(145.969 149.004)">
          <g id="Group_1078" data-name="Group 1078">
            <path id="Path_3195" data-name="Path 3195" d="M2439.114,2537.092c.874.1.672,6.847,1.687,14.983.477,4.09,1.209,7.69,1.609,10.477.382,2.8.132,4.607-.29,4.631s-.928-1.569-1.834-4.13a48.931,48.931,0,0,1-2.545-10.6,44.05,44.05,0,0,1-.023-10.954C2438.1,2538.708,2438.7,2537.053,2439.114,2537.092Z" transform="translate(-2437.388 -2537.091)" fill="#91bcbc"/>
          </g>
        </g>
        <g id="Group_1081" data-name="Group 1081" transform="translate(59.34 165.447)">
          <g id="Group_1080" data-name="Group 1080">
            <path id="Path_3196" data-name="Path 3196" d="M1330.891,2762.474c-.82.188-2.241-2.982-2.811-7.144s-.07-7.6.773-7.636c.859-.047,1.726,3.2,2.28,7.214S1331.727,2762.286,1330.891,2762.474Z" transform="translate(-1327.833 -2747.693)" fill="#91bcbc"/>
          </g>
        </g>
        <g id="Group_1083" data-name="Group 1083" transform="translate(111.825 151.75)">
          <g id="Group_1082" data-name="Group 1082">
            <path id="Path_3197" data-name="Path 3197" d="M2002.241,2572.268c.313.149-.093,1.647-.6,3.459s-.967,3.295-1.312,3.256-.422-1.679.125-3.591C2000.992,2573.462,2001.938,2572.119,2002.241,2572.268Z" transform="translate(-2000.06 -2572.256)" fill="#8cb5b5"/>
          </g>
        </g>
        <g id="Group_1085" data-name="Group 1085" transform="translate(119.565 149.263)">
          <g id="Group_1084" data-name="Group 1084" transform="translate(0)">
            <path id="Path_3198" data-name="Path 3198" d="M2099.817,2540.4c.344,0,.617,1,.617,2.232s-.273,2.234-.617,2.234-.617-1-.617-2.234S2099.473,2540.4,2099.817,2540.4Z" transform="translate(-2099.2 -2540.4)" fill="#8cb5b5"/>
          </g>
        </g>
        <g id="Group_1087" data-name="Group 1087" transform="translate(126.244 145.901)">
          <g id="Group_1086" data-name="Group 1086" transform="translate(0)">
            <path id="Path_3199" data-name="Path 3199" d="M2185.925,2497.35c.32.133.212,1.116.078,2.272s-.266,2.139-.608,2.194-.773-.992-.61-2.334S2185.62,2497.216,2185.925,2497.35Z" transform="translate(-2184.75 -2497.337)" fill="#8cb5b5"/>
          </g>
        </g>
        <g id="Group_1089" data-name="Group 1089" transform="translate(134.48 146.744)">
          <g id="Group_1088" data-name="Group 1088">
            <path id="Path_3200" data-name="Path 3200" d="M2291.851,2508.166c.289.188.023,1.1-.273,2.17-.312,1.069-.555,1.983-.906,1.991-.335.015-.64-1.054-.28-2.327S2291.578,2507.978,2291.851,2508.166Z" transform="translate(-2290.229 -2508.137)" fill="#8cb5b5"/>
          </g>
        </g>
        <g id="Group_1091" data-name="Group 1091" transform="translate(141.594 146.727)">
          <g id="Group_1090" data-name="Group 1090" transform="translate(0)">
            <path id="Path_3201" data-name="Path 3201" d="M2383.577,2507.925c.32.108.125,1.577-.453,3.287s-1.3,3.006-1.616,2.9-.117-1.577.453-3.287S2383.257,2507.815,2383.577,2507.925Z" transform="translate(-2381.357 -2507.918)" fill="#8cb5b5"/>
          </g>
        </g>
        <g id="Group_1093" data-name="Group 1093" transform="translate(138.212 156.792)">
          <g id="Group_1092" data-name="Group 1092" transform="translate(0)">
            <path id="Path_3202" data-name="Path 3202" d="M2339.257,2636.837c.336.1.18,1.522.04,3.232-.156,1.71-.25,3.13-.593,3.177s-.8-1.421-.633-3.287C2338.22,2638.1,2338.946,2636.735,2339.257,2636.837Z" transform="translate(-2338.035 -2636.832)" fill="#8cb5b5"/>
          </g>
        </g>
        <g id="Group_1095" data-name="Group 1095" transform="translate(130.217 156.776)">
          <g id="Group_1094" data-name="Group 1094" transform="translate(0)">
            <path id="Path_3203" data-name="Path 3203" d="M2236.967,2636.642c.337.1.157,1.654-.046,3.529-.218,1.881-.391,3.435-.734,3.451s-.718-1.593-.492-3.591S2236.656,2636.54,2236.967,2636.642Z" transform="translate(-2235.627 -2636.637)" fill="#8cb5b5"/>
          </g>
        </g>
        <g id="Group_1097" data-name="Group 1097" transform="translate(122.305 161.528)">
          <g id="Group_1096" data-name="Group 1096">
            <path id="Path_3204" data-name="Path 3204" d="M2134.73,2697.495c.344-.022.679.96.859,2.17s.14,2.241-.188,2.327-.843-.867-1.03-2.147S2134.394,2697.518,2134.73,2697.495Z" transform="translate(-2134.301 -2697.494)" fill="#8cb5b5"/>
          </g>
        </g>
        <g id="Group_1099" data-name="Group 1099" transform="translate(114.973 165.15)">
          <g id="Group_1098" data-name="Group 1098" transform="translate(0)">
            <path id="Path_3205" data-name="Path 3205" d="M2040.583,2743.893c.32-.117.977.913,1.3,2.334s.2,2.64-.132,2.678-.749-1.047-1.07-2.4S2040.256,2744.01,2040.583,2743.893Z" transform="translate(-2040.387 -2743.884)" fill="#8cb5b5"/>
          </g>
        </g>
        <g id="Group_1101" data-name="Group 1101" transform="translate(107.911 167.342)">
          <g id="Group_1100" data-name="Group 1100" transform="translate(0)">
            <path id="Path_3206" data-name="Path 3206" d="M1950.1,2771.962c.329-.085,1.031,1.555,1.562,3.654s.7,3.873.367,3.952-1.031-1.555-1.561-3.654S1949.778,2772.049,1950.1,2771.962Z" transform="translate(-1949.936 -2771.958)" fill="#8cb5b5"/>
          </g>
        </g>
        <g id="Group_1103" data-name="Group 1103" transform="translate(110.316 185.812)">
          <g id="Group_1102" data-name="Group 1102">
            <path id="Path_3207" data-name="Path 3207" d="M1982.051,3008.531c.327.1.21,1.413,0,2.975-.227,1.562-.469,2.849-.82,2.857-.335.008-.64-1.358-.406-3.028S1981.73,3008.43,1982.051,3008.531Z" transform="translate(-1980.742 -3008.525)" fill="#8cb5b5"/>
          </g>
        </g>
        <g id="Group_1105" data-name="Group 1105" transform="translate(118.961 181.054)">
          <g id="Group_1104" data-name="Group 1104" transform="translate(0)">
            <path id="Path_3208" data-name="Path 3208" d="M2092.406,2947.582c.329-.046.742,1.039.509,2.4s-.992,2.241-1.281,2.085c-.312-.157-.125-1.141.07-2.3S2092.055,2947.621,2092.406,2947.582Z" transform="translate(-2091.467 -2947.581)" fill="#8cb5b5"/>
          </g>
        </g>
        <g id="Group_1107" data-name="Group 1107" transform="translate(124.489 171.023)">
          <g id="Group_1106" data-name="Group 1106">
            <path id="Path_3209" data-name="Path 3209" d="M2162.381,2819.122c.3-.155,1.163.922,1.788,2.468s.773,2.912.452,3.013-.983-1.062-1.593-2.544C2162.428,2820.56,2162.076,2819.279,2162.381,2819.122Z" transform="translate(-2162.269 -2819.107)" fill="#8cb5b5"/>
          </g>
        </g>
        <g id="Group_1109" data-name="Group 1109" transform="translate(133.39 168.49)">
          <g id="Group_1108" data-name="Group 1108" transform="translate(0)">
            <path id="Path_3210" data-name="Path 3210" d="M2276.5,2786.671c.335-.071.913,1.374,1.289,3.223s.414,3.4.085,3.475-.913-1.374-1.287-3.225S2276.167,2786.741,2276.5,2786.671Z" transform="translate(-2276.274 -2786.668)" fill="#8cb5b5"/>
          </g>
        </g>
        <g id="Group_1111" data-name="Group 1111" transform="translate(142.239 170.759)">
          <g id="Group_1110" data-name="Group 1110">
            <path id="Path_3211" data-name="Path 3211" d="M2391.347,2815.73c.328.1.25,1.295-.179,2.669s-1.03,2.4-1.359,2.312-.25-1.3.18-2.671S2391.028,2815.636,2391.347,2815.73Z" transform="translate(-2389.607 -2815.724)" fill="#8cb5b5"/>
          </g>
        </g>
        <g id="Group_1113" data-name="Group 1113" transform="translate(133.21 181.581)">
          <g id="Group_1112" data-name="Group 1112">
            <path id="Path_3212" data-name="Path 3212" d="M2274.13,2954.342c.33-.094.985,1.179,1.617,2.788s1,3,.695,3.146-1.194-1.03-1.842-2.7S2273.811,2954.435,2274.13,2954.342Z" transform="translate(-2273.964 -2954.337)" fill="#8cb5b5"/>
          </g>
        </g>
        <g id="Group_1115" data-name="Group 1115" transform="translate(127.318 186.871)">
          <g id="Group_1114" data-name="Group 1114" transform="translate(0)">
            <path id="Path_3213" data-name="Path 3213" d="M2198.671,3022.107c.313-.141.961.639,1.459,1.732s.641,2.1.335,2.242-.96-.64-1.459-1.734S2198.359,3022.247,2198.671,3022.107Z" transform="translate(-2198.508 -3022.091)" fill="#8cb5b5"/>
          </g>
        </g>
        <g id="Group_1117" data-name="Group 1117" transform="translate(142.02 183.025)">
          <g id="Group_1116" data-name="Group 1116">
            <path id="Path_3214" data-name="Path 3214" d="M2389.3,2972.838c.328.086.219,1.5-.469,3.069s-1.639,2.607-1.929,2.436.157-1.444.8-2.927S2388.963,2972.745,2389.3,2972.838Z" transform="translate(-2386.808 -2972.833)" fill="#8cb5b5"/>
          </g>
        </g>
        <g id="Group_1119" data-name="Group 1119" transform="translate(151.097 158.481)">
          <g id="Group_1118" data-name="Group 1118" transform="translate(0)">
            <path id="Path_3215" data-name="Path 3215" d="M2504.556,2658.477c.32.125.164,1.257-.125,2.584s-.632,2.412-.976,2.4-.546-1.226-.226-2.663S2504.244,2658.351,2504.556,2658.477Z" transform="translate(-2503.071 -2658.466)" fill="#8cb5b5"/>
          </g>
        </g>
        <g id="Group_1121" data-name="Group 1121" transform="translate(151.587 147.323)">
          <g id="Group_1120" data-name="Group 1120" transform="translate(0)">
            <path id="Path_3216" data-name="Path 3216" d="M2510.629,2515.559c.335.07.382,1.178.1,2.482s-.766,2.3-1.1,2.225-.383-1.178-.1-2.482S2510.294,2515.489,2510.629,2515.559Z" transform="translate(-2509.344 -2515.555)" fill="#8cb5b5"/>
          </g>
        </g>
        <g id="Group_1123" data-name="Group 1123" transform="translate(144.087 137.8)">
          <g id="Group_1122" data-name="Group 1122" transform="translate(0)">
            <path id="Path_3217" data-name="Path 3217" d="M2413.409,2393.593c.329-.118.984.914,1.968,1.975.96,1.078,1.928,1.827,1.78,2.147-.125.3-1.538-.04-2.685-1.32C2413.3,2395.124,2413.089,2393.686,2413.409,2393.593Z" transform="translate(-2413.274 -2393.583)" fill="#8cb5b5"/>
          </g>
        </g>
        <g id="Group_1125" data-name="Group 1125" transform="translate(149.023 133.645)">
          <g id="Group_1124" data-name="Group 1124">
            <path id="Path_3218" data-name="Path 3218" d="M2476.639,2340.385c.3-.164,1.124.8,1.553,2.257s.258,2.717-.078,2.741-.711-1.07-1.109-2.39S2476.326,2340.55,2476.639,2340.385Z" transform="translate(-2476.506 -2340.367)" fill="#8cb5b5"/>
          </g>
        </g>
        <g id="Group_1127" data-name="Group 1127" transform="translate(142.413 127.791)">
          <g id="Group_1126" data-name="Group 1126">
            <path id="Path_3219" data-name="Path 3219" d="M2392.49,2265.4c.337.079.532.483.594.914s-.031.882-.335,1.039-.8-.212-.889-.875S2392.162,2265.324,2392.49,2265.4Z" transform="translate(-2391.846 -2265.394)" fill="#8cb5b5"/>
          </g>
        </g>
        <g id="Group_1129" data-name="Group 1129" transform="translate(135.092 135.326)">
          <g id="Group_1128" data-name="Group 1128" transform="translate(0)">
            <path id="Path_3220" data-name="Path 3220" d="M2298.5,2361.893c.336-.032.719,1.2.844,2.741s-.047,2.818-.382,2.841-.72-1.2-.844-2.74S2298.165,2361.917,2298.5,2361.893Z" transform="translate(-2298.078 -2361.893)" fill="#8cb5b5"/>
          </g>
        </g>
        <g id="Group_1131" data-name="Group 1131" transform="translate(125.94 134.487)">
          <g id="Group_1130" data-name="Group 1130">
            <path id="Path_3221" data-name="Path 3221" d="M2181.213,2351.158c.335-.063.75.7.929,1.694s.055,1.851-.28,1.913-.75-.7-.93-1.694S2180.877,2351.221,2181.213,2351.158Z" transform="translate(-2180.849 -2351.154)" fill="#8cb5b5"/>
          </g>
        </g>
        <g id="Group_1133" data-name="Group 1133" transform="translate(117.614 135.838)">
          <g id="Group_1132" data-name="Group 1132">
            <path id="Path_3222" data-name="Path 3222" d="M2074.346,2368.463c.313-.133,1.055.89,1.648,2.278s.827,2.633.515,2.765-1.054-.89-1.647-2.279S2074.034,2368.6,2074.346,2368.463Z" transform="translate(-2074.206 -2368.452)" fill="#8cb5b5"/>
          </g>
        </g>
        <g id="Group_1135" data-name="Group 1135" transform="translate(109.667 142.562)">
          <g id="Group_1134" data-name="Group 1134">
            <path id="Path_3223" data-name="Path 3223" d="M1972.641,2454.588c.321-.109.9.733,1.3,1.889s.453,2.178.125,2.288-.9-.734-1.3-1.89S1972.321,2454.7,1972.641,2454.588Z" transform="translate(-1972.433 -2454.578)" fill="#8cb5b5"/>
          </g>
        </g>
        <g id="Group_1137" data-name="Group 1137" transform="translate(98.801 143.981)">
          <g id="Group_1136" data-name="Group 1136">
            <path id="Path_3224" data-name="Path 3224" d="M1834.918,2472.758c.328.085.273,1.444-.125,3.037s-.991,2.819-1.319,2.74-.274-1.444.125-3.036S1834.59,2472.68,1834.918,2472.758Z" transform="translate(-1833.259 -2472.755)" fill="#8cb5b5"/>
          </g>
        </g>
        <g id="Group_1139" data-name="Group 1139" transform="translate(93.247 137.821)">
          <g id="Group_1138" data-name="Group 1138">
            <path id="Path_3225" data-name="Path 3225" d="M1762.322,2393.856c.335-.078.89,1.093,1.428,2.545s.874,2.7.57,2.857-1.156-.9-1.725-2.436S1761.994,2393.927,1762.322,2393.856Z" transform="translate(-1762.112 -2393.852)" fill="#8cb5b5"/>
          </g>
        </g>
        <g id="Group_1141" data-name="Group 1141" transform="translate(97.303 135.032)">
          <g id="Group_1140" data-name="Group 1140">
            <path id="Path_3226" data-name="Path 3226" d="M1814.369,2358.133c.328-.078.8.663,1.038,1.662s.171,1.875-.165,1.954-.8-.665-1.039-1.664S1814.034,2358.218,1814.369,2358.133Z" transform="translate(-1814.062 -2358.128)" fill="#8cb5b5"/>
          </g>
        </g>
        <g id="Group_1143" data-name="Group 1143" transform="translate(105.451 131.141)">
          <g id="Group_1142" data-name="Group 1142" transform="translate(0)">
            <path id="Path_3227" data-name="Path 3227" d="M1919.732,2308.3c.336.016.539,1.234.211,2.679s-1.022,2.458-1.335,2.325-.164-1.264.133-2.6S1919.389,2308.273,1919.732,2308.3Z" transform="translate(-1918.431 -2308.295)" fill="#8cb5b5"/>
          </g>
        </g>
        <g id="Group_1145" data-name="Group 1145" transform="translate(118.276 127.242)">
          <g id="Group_1144" data-name="Group 1144">
            <path id="Path_3228" data-name="Path 3228" d="M2084.353,2258.372c.32.109.258,1.132-.148,2.287s-.984,1.992-1.312,1.882-.257-1.132.148-2.287S2084.032,2258.254,2084.353,2258.372Z" transform="translate(-2082.689 -2258.361)" fill="#8cb5b5"/>
          </g>
        </g>
        <g id="Group_1147" data-name="Group 1147" transform="translate(130.512 124.949)">
          <g id="Group_1146" data-name="Group 1146">
            <path id="Path_3229" data-name="Path 3229" d="M2241.908,2229.047c.242.249-.265,1.109-.851,2.115s-1.1,1.858-1.437,1.772-.32-1.225.375-2.4S2241.683,2228.8,2241.908,2229.047Z" transform="translate(-2239.411 -2228.992)" fill="#8cb5b5"/>
          </g>
        </g>
        <g id="Group_1149" data-name="Group 1149" transform="translate(137.735 123.889)">
          <g id="Group_1148" data-name="Group 1148" transform="translate(0)">
            <path id="Path_3230" data-name="Path 3230" d="M2334.181,2215.425c.32.116-.007,1.771-.562,3.747s-1.156,3.545-1.491,3.483-.273-1.8.3-3.818S2333.869,2215.306,2334.181,2215.425Z" transform="translate(-2331.927 -2215.418)" fill="#8cb5b5"/>
          </g>
        </g>
        <g id="Group_1151" data-name="Group 1151" transform="translate(146.254 121.908)">
          <g id="Group_1150" data-name="Group 1150" transform="translate(0)">
            <path id="Path_3231" data-name="Path 3231" d="M2441.229,2190.056c.32-.117.89.625,1.382,1.616s.733,1.9.445,2.077-1.031-.477-1.546-1.53C2440.98,2191.164,2440.909,2190.174,2441.229,2190.056Z" transform="translate(-2441.037 -2190.044)" fill="#8cb5b5"/>
          </g>
        </g>
        <g id="Group_1153" data-name="Group 1153" transform="translate(87.328 145.632)">
          <g id="Group_1152" data-name="Group 1152">
            <path id="Path_3232" data-name="Path 3232" d="M1686.722,2493.9c.344-.023.727,1.779.867,4.012s-.024,4.068-.367,4.091-.726-1.78-.866-4.013S1686.387,2493.912,1686.722,2493.9Z" transform="translate(-1686.31 -2493.897)" fill="#8cb5b5"/>
          </g>
        </g>
        <g id="Group_1155" data-name="Group 1155" transform="translate(92.376 150.387)">
          <g id="Group_1154" data-name="Group 1154">
            <path id="Path_3233" data-name="Path 3233" d="M1751.779,2554.8c.336.022.539,1.109.437,2.412s-.452,2.35-.788,2.319-.538-1.109-.437-2.413S1751.443,2554.772,1751.779,2554.8Z" transform="translate(-1750.964 -2554.795)" fill="#8cb5b5"/>
          </g>
        </g>
        <g id="Group_1157" data-name="Group 1157" transform="translate(91.621 158.224)">
          <g id="Group_1156" data-name="Group 1156">
            <path id="Path_3234" data-name="Path 3234" d="M1745.951,2655.214c.258.227-.569,1.569-1.842,3s-2.506,2.405-2.764,2.179.57-1.569,1.843-3S1745.694,2654.988,1745.951,2655.214Z" transform="translate(-1741.298 -2655.181)" fill="#8cb5b5"/>
          </g>
        </g>
        <g id="Group_1159" data-name="Group 1159" transform="translate(84.832 158.157)">
          <g id="Group_1158" data-name="Group 1158">
            <path id="Path_3235" data-name="Path 3235" d="M1656.414,2654.328c.328.094.258,1.3-.3,2.639s-1.366,2.242-1.663,2.078-.007-1.281.523-2.553S1656.085,2654.233,1656.414,2654.328Z" transform="translate(-1654.332 -2654.321)" fill="#8cb5b5"/>
          </g>
        </g>
        <g id="Group_1161" data-name="Group 1161" transform="translate(80.022 156.797)">
          <g id="Group_1160" data-name="Group 1160">
            <path id="Path_3236" data-name="Path 3236" d="M1593.491,2636.9c.344,0,.562,1.507.492,3.364s-.406,3.343-.742,3.319-.562-1.529-.492-3.365S1593.155,2636.9,1593.491,2636.9Z" transform="translate(-1592.736 -2636.9)" fill="#8cb5b5"/>
          </g>
        </g>
        <g id="Group_1163" data-name="Group 1163" transform="translate(71.105 168.074)">
          <g id="Group_1162" data-name="Group 1162">
            <path id="Path_3237" data-name="Path 3237" d="M1478.538,2781.458c.133-.3,1.421-.046,2.7.859s1.968,2.037,1.718,2.255c-.25.235-1.25-.429-2.428-1.249S1478.4,2781.779,1478.538,2781.458Z" transform="translate(-1478.524 -2781.336)" fill="#8cb5b5"/>
          </g>
        </g>
        <g id="Group_1165" data-name="Group 1165" transform="translate(70.834 162.581)">
          <g id="Group_1164" data-name="Group 1164">
            <path id="Path_3238" data-name="Path 3238" d="M1475.058,2711.268c.071-.335,1.179-.375,2.483-.1s2.3.773,2.226,1.1-1.179.375-2.483.1S1474.988,2711.6,1475.058,2711.268Z" transform="translate(-1475.055 -2710.986)" fill="#8cb5b5"/>
          </g>
        </g>
        <g id="Group_1167" data-name="Group 1167" transform="translate(76.734 170.982)">
          <g id="Group_1166" data-name="Group 1166">
            <path id="Path_3239" data-name="Path 3239" d="M1550.646,2820.687c-.227-.243.843-1.484,2.725-1.936,1.882-.469,3.4.125,3.318.444-.063.344-1.445.352-3.021.758C1552.09,2820.319,1550.872,2820.959,1550.646,2820.687Z" transform="translate(-1550.616 -2818.577)" fill="#8cb5b5"/>
          </g>
        </g>
        <g id="Group_1169" data-name="Group 1169" transform="translate(88.389 165.657)">
          <g id="Group_1168" data-name="Group 1168">
            <path id="Path_3240" data-name="Path 3240" d="M1699.892,2751.262c-.031-.335,1.008-.719,2.319-.844s2.4.047,2.436.383-1.008.719-2.319.844S1699.923,2751.6,1699.892,2751.262Z" transform="translate(-1699.891 -2750.377)" fill="#8cb5b5"/>
          </g>
        </g>
        <g id="Group_1171" data-name="Group 1171" transform="translate(88.432 131.984)">
          <g id="Group_1170" data-name="Group 1170">
            <path id="Path_3241" data-name="Path 3241" d="M1700.906,2319.089c.336-.032.687.687.781,1.607s-.11,1.694-.445,1.734-.687-.687-.781-1.609S1700.57,2319.119,1700.906,2319.089Z" transform="translate(-1700.441 -2319.088)" fill="#8cb5b5"/>
          </g>
        </g>
        <g id="Group_1173" data-name="Group 1173" transform="translate(105.102 151.319)">
          <g id="Group_1172" data-name="Group 1172">
            <path id="Path_3242" data-name="Path 3242" d="M1915.426,2566.747c.335.1.109,1.779-.141,3.818s-.453,3.724-.8,3.74-.7-1.733-.422-3.889S1915.114,2566.644,1915.426,2566.747Z" transform="translate(-1913.962 -2566.742)" fill="#8cb5b5"/>
          </g>
        </g>
      </g>
      <g id="Group_1175" data-name="Group 1175" transform="translate(0 97.501)">
        <path id="Path_3243" data-name="Path 3243" d="M137.692,1277.913c-4.747,1.195-9.955-3.4-9.354-8.261s6.769-8.057,11.079-5.746a10.4,10.4,0,0,1-.344-11.266c2.194-3.326,6.917-4.865,10.486-3.083s5.114,6.886,2.819,10.141a7.3,7.3,0,0,1,11.352,7.269,4.092,4.092,0,0,1,7.527,3.084,5.743,5.743,0,0,1,7.386,7.284c-13.093.172-29.185-1.772-42.13.18" transform="translate(-128.291 -1248.808)" fill="#fff"/>
      </g>
      <g id="Group_1176" data-name="Group 1176" transform="translate(140.478 61.944)">
        <path id="Path_3244" data-name="Path 3244" d="M1934.452,814.784a5.561,5.561,0,1,1,1.273-10.3,7.631,7.631,0,0,1-.25-8.276,6.271,6.271,0,0,1,7.706-2.272,5.332,5.332,0,0,1,2.077,7.456,5.357,5.357,0,0,1,8.339,5.34,3,3,0,0,1,5.527,2.264,4.218,4.218,0,0,1,5.426,5.348c-9.619.125-21.447-1.3-30.957.133" transform="translate(-1927.546 -793.391)" fill="#fff"/>
      </g>
      <g id="Group_1177" data-name="Group 1177" transform="translate(132.74 0)">
        <path id="Path_3245" data-name="Path 3245" d="M1836.267,26A41.8,41.8,0,0,1,1829.9,15.33c-1.351-3.42-2.124-7.331-.718-10.728s5.684-5.739,8.932-4.021c3.513,1.858,3.763,6.707,3.537,10.673,1.874-3.755,7.277-4.45,11.032-2.561,1.328.664,2.655,1.827,2.6,3.3a4.134,4.134,0,0,1-.687,1.9c-3.865,6.629-11.172,10.322-18.083,13.663" transform="translate(-1828.439 -0.004)" fill="#ff9578"/>
      </g>
      <g id="Group_1178" data-name="Group 1178" transform="translate(130.622 38.616)">
        <path id="Path_3246" data-name="Path 3246" d="M1813.094,511.805a30.786,30.786,0,0,1-7.721-4.833c-2.031-1.78-3.842-4.075-4.052-6.761s1.788-5.645,4.481-5.614c2.912.039,4.7,3.123,5.88,5.786-.032-3.076,3.263-5.333,6.34-5.364a2.946,2.946,0,0,1,2.8,1.288,3.115,3.115,0,0,1,.187,1.468c-.3,5.621-3.842,10.47-7.23,14.959" transform="translate(-1801.305 -494.597)" fill="#ff9578"/>
      </g>
      <g id="Group_1179" data-name="Group 1179" transform="translate(125.45 62.866)">
        <path id="Path_3247" data-name="Path 3247" d="M1738.669,815.71a16.817,16.817,0,0,1-2.834-4.17,5.9,5.9,0,0,1-.555-4.325c.493-1.405,2.163-2.459,3.513-1.843,1.468.664,1.687,2.623,1.695,4.232.672-1.569,2.842-1.975,4.4-1.3.555.234,1.117.671,1.132,1.273a1.653,1.653,0,0,1-.234.781c-1.406,2.78-4.271,4.45-6.989,5.973" transform="translate(-1735.067 -805.193)" fill="#ff9578"/>
      </g>
    </g>
  </g>
</svg>
