<svg xmlns="http://www.w3.org/2000/svg" width="57" height="56" viewBox="0 0 57 56">
  <g id="Group_31812" data-name="Group 31812" transform="translate(10819 -7818)">
    <g id="Group_31807" data-name="Group 31807" transform="translate(-22767 7624)">
      <g id="Rectangle_19329" data-name="Rectangle 19329" transform="translate(11948 194)" fill="#d1d1d1" stroke="#d1d1d1" stroke-width="1">
        <rect width="57" height="56" rx="10" stroke="none"/>
        <rect x="0.5" y="0.5" width="56" height="55" rx="9.5" fill="none"/>
      </g>
    </g>
    <g id="Group_31809" data-name="Group 31809" transform="translate(-12757 1503)">
      <g id="Group_31808" data-name="Group 31808" transform="translate(1951 6328)">
        <path id="Path_9793" data-name="Path 9793" d="M15.483.5A15.483,15.483,0,1,1,0,15.983,15.483,15.483,0,0,1,15.483.5Z" transform="translate(0 -0.5)" fill="none" fill-rule="evenodd"/>
        <path id="Path_9794" data-name="Path 9794" d="M15.483.5A15.483,15.483,0,1,1,0,15.983,15.483,15.483,0,0,1,15.483.5Z" transform="translate(0 -0.5)" fill="none" stroke="#fff" stroke-width="2.5"/>
      </g>
      <path id="Path_9795" data-name="Path 9795" d="M15.039,9.615H9.115v5.923a1.064,1.064,0,0,1-2.128,0V9.615H1.064a1.064,1.064,0,0,1,0-2.128H6.987V1.564a1.064,1.064,0,1,1,2.128,0V7.487h5.923a1.064,1.064,0,0,1,0,2.128Z" transform="translate(1958.432 6334.932)" fill="#fff" stroke="#fff" stroke-width="1" fill-rule="evenodd"/>
    </g>
  </g>
</svg>
