<svg xmlns="http://www.w3.org/2000/svg" width="25.088" height="22.395" viewBox="0 0 25.088 22.395">
  <g id="noun_friends_341289" transform="translate(-32 -64.025)">
    <g id="Group_40584" data-name="Group 40584" transform="translate(32 64.025)">
      <g id="Group_40581" data-name="Group 40581" transform="translate(0 3.267)">
        <path id="Path_109021" data-name="Path 109021" d="M44.085,343.937a7.132,7.132,0,0,1-7.028,0c-2.751.839-4.436,3.619-5.057,6.069H49.142C48.521,347.557,46.836,344.776,44.085,343.937Z" transform="translate(-32 -330.878)" fill="#e43122"/>
        <g id="Group_40580" data-name="Group 40580" transform="translate(2.395)">
          <path id="Path_109022" data-name="Path 109022" d="M79.243,120.035a6.174,6.174,0,1,0,6.176,6.174A6.175,6.175,0,0,0,79.243,120.035Zm0,10.877a4.771,4.771,0,0,1-4.316-2.947h8.631A4.771,4.771,0,0,1,79.243,130.912Z" transform="translate(-73.067 -120.035)" fill="#e43122"/>
        </g>
      </g>
      <g id="Group_40583" data-name="Group 40583" transform="translate(11.313 0)">
        <g id="Group_40582" data-name="Group 40582" transform="translate(1.114 13.059)">
          <path id="Path_109023" data-name="Path 109023" d="M266.381,293.531h9.18a7.632,7.632,0,0,0-5.057-5.6,7.137,7.137,0,0,1-5.974.489,8.183,8.183,0,0,1-1.632,2.036A7.919,7.919,0,0,1,266.381,293.531Z" transform="translate(-262.899 -287.928)" fill="#e43122"/>
        </g>
        <path id="Path_109024" data-name="Path 109024" d="M247.458,71.955h5.861A4.76,4.76,0,0,1,249,74.889a4.435,4.435,0,0,1-1.48-.263,7.488,7.488,0,0,1-.38,1.465,6.177,6.177,0,1,0-3.345-9.2A7.63,7.63,0,0,1,247.458,71.955Z" transform="translate(-243.798 -64.025)" fill="#e43122"/>
      </g>
    </g>
  </g>
</svg>
