<svg xmlns="http://www.w3.org/2000/svg" xmlns:xlink="http://www.w3.org/1999/xlink" width="78" height="78" viewBox="0 0 78 78">
  <defs>
    <filter id="Rectangle_23037" x="0" y="0" width="78" height="78" filterUnits="userSpaceOnUse">
      <feOffset dy="3" input="SourceAlpha"/>
      <feGaussianBlur stdDeviation="3" result="blur"/>
      <feFlood flood-opacity="0.161"/>
      <feComposite operator="in" in2="blur"/>
      <feComposite in="SourceGraphic"/>
    </filter>
  </defs>
  <g id="Group_56151" data-name="Group 56151" transform="translate(3893 4592)">
    <g transform="matrix(1, 0, 0, 1, -3893, -4592)" filter="url(#Rectangle_23037)">
      <rect id="Rectangle_23037-2" data-name="Rectangle 23037" width="60" height="60" rx="17" transform="translate(9 6)" fill="#999"/>
    </g>
    <g id="noun_Swipe_Up_2963803" data-name="noun_Swipe Up_2963803" transform="translate(-3845.682 -4564) rotate(90)">
      <path id="Path_110987" data-name="Path 110987" d="M47.218,40.877a.758.758,0,0,0,.538-.22.768.768,0,0,0,0-1.085l-7.009-7.1a.737.737,0,0,0-.538-.23.722.722,0,0,0-.548.22l-7.1,7.019a.768.768,0,0,0,1.08,1.091l6.554-6.477,6.477,6.559A.763.763,0,0,0,47.218,40.877Z" transform="translate(-32.351 -32.239)" fill="#fff"/>
      <path id="Path_110988" data-name="Path 110988" d="M47.138,55.881a.763.763,0,0,0,.538-1.306l-7.014-7.1a.763.763,0,0,0-1.085,0l-7.1,7.009a.768.768,0,1,0,1.075,1.091L40.113,49.1l6.477,6.559A.753.753,0,0,0,47.138,55.881Z" transform="translate(-32.199 -39.563)" fill="#fff" opacity="0.5"/>
    </g>
  </g>
</svg>
