<svg xmlns="http://www.w3.org/2000/svg" width="18.598" height="3.937" viewBox="0 0 18.598 3.937">
  <g id="Group_1522" data-name="Group 1522" transform="translate(-438.387 339.937) rotate(-90)">
    <ellipse id="Ellipse_63" data-name="Ellipse 63" cx="1.968" cy="1.968" rx="1.968" ry="1.968" transform="translate(336 438.388)" fill="#484848"/>
    <ellipse id="Ellipse_64" data-name="Ellipse 64" cx="1.968" cy="1.968" rx="1.968" ry="1.968" transform="translate(336 445.717)" fill="#484848"/>
    <ellipse id="Ellipse_65" data-name="Ellipse 65" cx="1.968" cy="1.968" rx="1.968" ry="1.968" transform="translate(336 453.047)" fill="#484848"/>
  </g>
</svg>
