<svg xmlns="http://www.w3.org/2000/svg" width="16" height="16" viewBox="0 0 16 16">
  <g id="Group_1521" data-name="Group 1521" transform="translate(-564 -313)">
    <g id="Group_1334" data-name="Group 1334" transform="translate(2)">
      <line id="Line_13" data-name="Line 13" x2="15" transform="translate(562.5 316.5)" fill="none" stroke="#484848" stroke-linecap="round" stroke-width="1"/>
      <g id="Ellipse_146" data-name="Ellipse 146" transform="translate(564 313)" fill="#f6f6f6" stroke="#484848" stroke-width="1">
        <circle cx="3.5" cy="3.5" r="3.5" stroke="none"/>
        <circle cx="3.5" cy="3.5" r="3" fill="none"/>
      </g>
    </g>
    <g id="Group_1335" data-name="Group 1335" transform="translate(2 -1)">
      <line id="Line_14" data-name="Line 14" x2="15" transform="translate(562.5 326.5)" fill="none" stroke="#484848" stroke-linecap="round" stroke-width="1"/>
      <g id="Ellipse_147" data-name="Ellipse 147" transform="translate(569 323)" fill="#f6f6f6" stroke="#484848" stroke-width="1">
        <circle cx="3.5" cy="3.5" r="3.5" stroke="none"/>
        <circle cx="3.5" cy="3.5" r="3" fill="none"/>
      </g>
    </g>
  </g>
</svg>
