<svg xmlns="http://www.w3.org/2000/svg" width="41.703" height="40" viewBox="0 0 41.703 40">
  <g id="Group_1446" data-name="Group 1446" transform="translate(-374 -324)">
    <g id="noun_Coins_2165718" transform="translate(374 324)">
      <g id="Group_8" data-name="Group 8" transform="translate(0 0)">
        <path id="Path_13" data-name="Path 13" d="M40.872,42.9a3.554,3.554,0,0,0,1.84,2.913c-6.085,1.776-15.212.071-15.212-3.055V40.7C30.189,42.9,35.99,43.684,40.872,42.9Z" transform="translate(-27.429 -12.492)" fill="#ffa602"/>
        <path id="Path_14" data-name="Path 14" d="M43.072,36.1a3.359,3.359,0,0,0,.283,1.208,2.894,2.894,0,0,0-.283,1.35v.782c-4.882.853-10.755-.071-12.736-2.132a1.865,1.865,0,0,1-.637-1.35V33.9a7.087,7.087,0,0,0,1.627.995C34.37,36.316,39.181,36.671,43.072,36.1Z" transform="translate(-29.629 -10.523)" fill="#ffa602"/>
        <path id="Path_15" data-name="Path 15" d="M43.072,29.145a3.359,3.359,0,0,0,.283,1.208,2.344,2.344,0,0,0-.283,1.208v.853a20.634,20.634,0,0,1-3.75.284c-2.618,0-7.146-.568-8.986-2.416a1.865,1.865,0,0,1-.637-1.35V26.8a7.088,7.088,0,0,0,1.627.995C34.37,29.429,39.181,29.784,43.072,29.145Z" transform="translate(-29.629 -8.468)" fill="#ffa602"/>
        <path id="Path_16" data-name="Path 16" d="M39.423,14.7a20.634,20.634,0,0,1,3.75.284v.782a2.894,2.894,0,0,0,.283,1.35,5.929,5.929,0,0,0-.283,2.7,4.348,4.348,0,0,0,.283,2.132,4.348,4.348,0,0,0-.283,2.132c-4.67.782-10.755-.071-12.736-2.132A1.865,1.865,0,0,1,29.8,20.6v-2.2C29.871,16.405,34.116,14.7,39.423,14.7Z" transform="translate(-29.8 -4.966)" fill="#ffa602"/>
        <path id="Path_17" data-name="Path 17" d="M1,40.7c2.335,1.847,6.509,2.487,9.552,2.487,3.75,0,7.5-.853,9.552-2.487v2.061c0,2.061-4.316,3.766-9.552,3.766C5.457,46.526,1,44.892,1,42.761Z" transform="translate(13.929 -12.492)" fill="#ffa602"/>
        <path id="Path_18" data-name="Path 18" d="M10.722,39.726c-3.042,0-7.288-.639-8.986-2.416a1.865,1.865,0,0,1-.637-1.35V33.9c3.821,3.2,14.929,3.411,19.1,0v2.132a1.865,1.865,0,0,1-.637,1.35C18.293,38.732,14.826,39.726,10.722,39.726Z" transform="translate(13.758 -10.523)" fill="#ffa602"/>
        <path id="Path_19" data-name="Path 19" d="M19.619,30.411c-3.113,3.268-14.929,3.126-17.9,0a1.865,1.865,0,0,1-.637-1.35V27c3.962,3.34,15,3.34,19.1,0v2.061a1.491,1.491,0,0,1-.566,1.35Z" transform="translate(13.777 -8.526)" fill="#ffa602"/>
        <path id="Path_20" data-name="Path 20" d="M19.523,23.611c-3.042,3.126-14.717,3.268-17.9,0a1.865,1.865,0,0,1-.637-1.35V20.2c3.891,3.2,14.929,3.411,19.174,0,0,2.2.142,2.629-.637,3.411Z" transform="translate(13.872 -6.558)" fill="#ffa602"/>
        <path id="Path_21" data-name="Path 21" d="M19.537,16.811a7.474,7.474,0,0,1-3.113,1.634h0c-5.024,1.563-12.453.711-14.788-1.634A1.865,1.865,0,0,1,1,15.461V13.4c4.1,3.268,15.071,3.268,19.174,0v2.132a1.845,1.845,0,0,1-.637,1.279Z" transform="translate(13.858 -4.589)" fill="#ffa602"/>
        <path id="Path_22" data-name="Path 22" d="M1.647,8.319C.869,7.537,1.01,7.182,1.01,4.766,1.01,2.705,5.255,1,10.562,1c5.307.071,9.622,1.705,9.622,3.766V7.04a1.865,1.865,0,0,1-.637,1.35C16.434,11.587,4.689,11.516,1.647,8.319Z" transform="translate(13.848 -1)" fill="#ffa602"/>
      </g>
    </g>
    <g id="Group_1444" data-name="Group 1444" transform="translate(398.681 346.979)">
      <circle id="Ellipse_174" data-name="Ellipse 174" cx="8.511" cy="8.511" r="8.511" fill="#e31b1b"/>
      <g id="cancel_3_" data-name="cancel (3)" transform="translate(8.468 4.255) rotate(45)">
        <g id="Group_1401" data-name="Group 1401" transform="translate(0 0)">
          <path id="Path_3367" data-name="Path 3367" d="M3.635,2.979,5.863.751a.326.326,0,0,0,0-.461l-.2-.2a.327.327,0,0,0-.461,0L2.979,2.323.751.1A.326.326,0,0,0,.291.1L.1.29A.326.326,0,0,0,.1.751L2.323,2.979.1,5.206a.327.327,0,0,0,0,.461l.2.2a.326.326,0,0,0,.461,0L2.979,3.635,5.207,5.862a.323.323,0,0,0,.23.1h0a.323.323,0,0,0,.23-.1l.2-.2a.327.327,0,0,0,0-.461Z" fill="#fff"/>
        </g>
      </g>
    </g>
  </g>
</svg>
