<svg xmlns="http://www.w3.org/2000/svg" xmlns:xlink="http://www.w3.org/1999/xlink" width="40.776" height="35.132" viewBox="0 0 40.776 35.132">
  <defs>
    <linearGradient id="linear-gradient" x1="0.5" x2="0.5" y2="1" gradientUnits="objectBoundingBox">
      <stop offset="0" stop-color="#f63f65"/>
      <stop offset="1" stop-color="#fa6350"/>
    </linearGradient>
  </defs>
  <path id="Path_69688" data-name="Path 69688" d="M44.554,34.159a1.412,1.412,0,0,0,.2-1.556L39.537,22.168a1.41,1.41,0,0,0-1.318-.777H33.444a1.411,1.411,0,0,0-1.318.777L27.564,31.3l-4.613-9.135a1.408,1.408,0,0,0-1.435-.76l-6.091.058a1.405,1.405,0,0,0-1.208.769L8.98,32.6a1.412,1.412,0,0,0,.191,1.558h-2.7v2.555H7.934v10.73h2.587V36.714h.559a1.8,1.8,0,0,0,.025.181l2.136,9.326a1.816,1.816,0,0,0,3.54-.811l-1.788-7.805,2.257-.891h2.667l2.258.891-1.788,7.805a1.816,1.816,0,1,0,3.54.811L26.063,36.9a1.76,1.76,0,0,0,.025-.181h3.271a2.56,2.56,0,0,0,.045.668v0c.1.5.348.825.617.825h1.634l.729,7.955a1.614,1.614,0,0,0,1.605,1.467c.049,0,.1,0,.149-.007a1.614,1.614,0,0,0,1.46-1.755l-.7-7.661h1.869l-.7,7.661a1.614,1.614,0,0,0,1.46,1.755c.05,0,.1.007.149.007a1.614,1.614,0,0,0,1.605-1.467l.73-7.955h1.634c.269,0,.512-.325.617-.825v0a2.557,2.557,0,0,0,.045-.668h.9v10.73h2.587V36.714h1.458V34.159Zm-30.719,0H11.308a1.406,1.406,0,0,0,.194-.285l2.368-4.689v4.759c0,.066.014.128.019.193Zm9.5,0-.054-.022c.006-.065.019-.127.019-.193V29.117l2.368,4.69a1.408,1.408,0,0,0,.254.352Zm6.854,0H29.24a1.41,1.41,0,0,0,.2-.293l3.011-6.027.148,1.411Zm11.288,0-2.411-4.909.148-1.411,3.011,6.027a1.41,1.41,0,0,0,.2.293Zm-9.013-16.5a3.369,3.369,0,1,1,3.369,3.369A3.369,3.369,0,0,1,32.462,17.655Zm4.554-3.925a.323.323,0,0,1,.415-.19,4.4,4.4,0,0,1,1.035.556l-.635-.812a.323.323,0,0,1,.154-.506l.807-.263a.323.323,0,0,1,.422.3l.01,1.163s0,0,0,.007l1.089-.04a.323.323,0,0,1,.323.408l-.226.818a.323.323,0,0,1-.5.177l-.544-.387a4.415,4.415,0,0,1,.462.734.322.322,0,0,1-.145.433.318.318,0,0,1-.143.034.322.322,0,0,1-.289-.179,3.737,3.737,0,0,0-2.046-1.843A.323.323,0,0,1,37.016,13.73Zm-21.8,3.925a3.369,3.369,0,1,1,3.369,3.369A3.369,3.369,0,0,1,15.215,17.655Z" transform="translate(-6.476 -12.5)" fill="url(#linear-gradient)"/>
</svg>
