<svg xmlns="http://www.w3.org/2000/svg" width="60.007" height="60" viewBox="0 0 60.007 60">
  <g id="Group_27058" data-name="Group 27058" transform="translate(-6324 -2914)">
    <g id="Group_27062" data-name="Group 27062">
      <rect id="Rectangle_158" data-name="Rectangle 158" width="60.007" height="60" rx="30" transform="translate(6324 2914)" fill="#c8cfe0"/>
      <path id="send_1_" data-name="send (1)" d="M0,22.921,26.741,11.46,0,0V8.914L19.1,11.46,0,14.007Z" transform="translate(6339.177 2939.511) rotate(-30)" fill="#fff"/>
    </g>
  </g>
</svg>
