<svg xmlns="http://www.w3.org/2000/svg" width="48.244" height="44.004" viewBox="0 0 48.244 44.004">
  <g id="photo" transform="translate(0 -22.497)">
    <g id="Group_27780" data-name="Group 27780" transform="translate(0.707 23.204)">
      <path id="Path_69692" data-name="Path 69692" d="M19.948,64.969,15.857,64.2a2.523,2.523,0,0,0-2.942,2.023L7.541,95.149A2.529,2.529,0,0,0,9.559,98.1l28.84,5.39a2.523,2.523,0,0,0,2.942-2.023l1.123-6.045Z" transform="translate(-7.498 -60.942)" fill="#bfd5dd"/>
      <path id="Path_69693" data-name="Path 69693" d="M174.009,32.522v29.43a2.524,2.524,0,0,1-2.524,2.524H142.153a2.524,2.524,0,0,1-2.524-2.524V32.522A2.524,2.524,0,0,1,142.153,30h29.332A2.524,2.524,0,0,1,174.009,32.522Z" transform="translate(-127.179 -29.998)" fill="#e5f5f9"/>
      <path id="Path_69694" data-name="Path 69694" d="M445.832,32.522v29.43a2.524,2.524,0,0,1-2.524,2.524h-3.579a2.524,2.524,0,0,0,2.524-2.524V32.522A2.524,2.524,0,0,0,439.729,30h3.579A2.524,2.524,0,0,1,445.832,32.522Z" transform="translate(-399.002 -29.998)" fill="#bfd5dd"/>
      <path id="Path_69695" data-name="Path 69695" d="M169.6,60.058H198.33V84.623H169.6Z" transform="translate(-154.325 -57.226)" fill="#5cd5ff"/>
      <path id="Path_69696" data-name="Path 69696" d="M439.729,60.058h3.278V84.623h-3.278Z" transform="translate(-399.002 -57.226)" fill="#5ab5ff"/>
      <path id="Path_69697" data-name="Path 69697" d="M198.33,183.908v4.218H169.6v-7.612h3.688l6.184-6.185,6.88,6.88,4.64-4.641,4.061,4.062Z" transform="translate(-154.325 -160.728)" fill="#91ff31"/>
      <path id="Path_69698" data-name="Path 69698" d="M443.007,244.487V248.7h-3.278v-7.5Z" transform="translate(-399.002 -221.307)" fill="#00ea80"/>
      <path id="Path_69699" data-name="Path 69699" d="M320.754,107.155a3.009,3.009,0,1,1-3.008-3.007A3.008,3.008,0,0,1,320.754,107.155Z" transform="translate(-285.789 -97.161)" fill="#ffeb31"/>
      <path id="Path_69700" data-name="Path 69700" d="M337.828,107.155a3.009,3.009,0,0,1-4.239,2.745,3.008,3.008,0,0,0,0-5.489,3.009,3.009,0,0,1,4.239,2.744Z" transform="translate(-302.863 -97.161)" fill="#ffce00"/>
    </g>
    <g id="Group_27781" data-name="Group 27781" transform="translate(0 22.497)">
      <path id="Path_69701" data-name="Path 69701" d="M45.013,22.5H15.681a3.235,3.235,0,0,0-3.231,3.231v.652L9.2,25.771A3.229,3.229,0,0,0,5.43,28.36L.055,57.282a3.24,3.24,0,0,0,2.583,3.774l28.839,5.389a3.256,3.256,0,0,0,.6.056,3.233,3.233,0,0,0,3.168-2.645l1.016-5.467h8.753a3.235,3.235,0,0,0,3.231-3.231V25.728A3.234,3.234,0,0,0,45.013,22.5Zm1.818,32.661a1.82,1.82,0,0,1-1.818,1.818H21.65a.707.707,0,0,0,0,1.413H34.822L33.854,63.6a1.816,1.816,0,0,1-2.117,1.458L2.9,59.666A1.824,1.824,0,0,1,1.445,57.54L6.819,28.618a1.816,1.816,0,0,1,2.117-1.458l3.514.657V55.158a3.235,3.235,0,0,0,3.231,3.231h2.708a.707.707,0,0,0,0-1.413H15.681a1.82,1.82,0,0,1-1.818-1.818V25.728a1.82,1.82,0,0,1,1.818-1.818H45.013a1.82,1.82,0,0,1,1.818,1.818Z" transform="translate(0 -22.497)"/>
      <path id="Path_69702" data-name="Path 69702" d="M191.54,52.56H162.809a.707.707,0,0,0-.707.707V77.831a.707.707,0,0,0,.707.707H191.54a.707.707,0,0,0,.707-.707V59.5a.707.707,0,1,0-1.413,0V71.907L184.7,65.774a.707.707,0,0,0-1,0l-4.14,4.14-6.38-6.38a.707.707,0,0,0-1,0L166.2,69.512h-2.688V53.973h27.318v2.255a.707.707,0,0,0,1.413,0V53.267A.707.707,0,0,0,191.54,52.56ZM166.5,70.925a.706.706,0,0,0,.5-.207l5.685-5.685,6.38,6.38a.707.707,0,0,0,1,0l4.14-4.14,6.633,6.633v3.218H163.515v-6.2Z" transform="translate(-146.828 -49.727)"/>
      <path id="Path_69703" data-name="Path 69703" d="M307.239,100.357a3.714,3.714,0,1,0,3.714-3.714,3.718,3.718,0,0,0-3.714,3.714Zm6.015,0a2.3,2.3,0,1,1-2.3-2.3A2.3,2.3,0,0,1,313.254,100.357Z" transform="translate(-278.289 -89.656)"/>
    </g>
  </g>
</svg>
