<svg xmlns="http://www.w3.org/2000/svg" width="597.888" height="320.258" viewBox="0 0 597.888 320.258">
  <g id="Unloack_Access" data-name="Unloack Access" transform="translate(239.444 -2219.101)">
    <path id="Path" d="M127.328,193.9a19.39,19.39,0,0,1,0-38.78H19.376a19.39,19.39,0,0,1,0-38.78H130.1a19.39,19.39,0,0,0,0-38.78H60.9a19.39,19.39,0,0,1,0-38.78h110.72a19.39,19.39,0,0,1,0-38.78H329.392a19.39,19.39,0,0,1,0,38.78H506.544a19.39,19.39,0,0,1,0,38.78h60.9a19.39,19.39,0,0,1,0,38.78H514.848a19.39,19.39,0,0,0,0,38.78h16.608a19.39,19.39,0,0,1,0,38.78Z" transform="translate(-239.444 2266.78)" fill="#2f2f2f"/>
    <ellipse id="Oval" cx="19.376" cy="19.39" rx="19.376" ry="19.39" transform="translate(319.692 2421.9)" fill="#2f2f2f"/>
    <path id="Line" d="M.5,0V13.314" transform="translate(-69.58 2482.101)" fill="none" stroke="#e23121" stroke-linecap="round" stroke-linejoin="round" stroke-miterlimit="10" stroke-width="8"/>
    <path id="Line-2" data-name="Line" d="M.5,0V13.314" transform="translate(-69.58 2522.044)" fill="none" stroke="#e23121" stroke-linecap="round" stroke-linejoin="round" stroke-miterlimit="10" stroke-width="8"/>
    <path id="Line-3" data-name="Line" d="M0,0V13.314" transform="translate(-95.709 2509.73) rotate(-90)" fill="none" stroke="#e23121" stroke-linecap="round" stroke-linejoin="round" stroke-miterlimit="10" stroke-width="8"/>
    <path id="Line-4" data-name="Line" d="M0,0V13.314" transform="translate(-55.765 2509.73) rotate(-90)" fill="none" stroke="#e23121" stroke-linecap="round" stroke-linejoin="round" stroke-miterlimit="10" stroke-width="8"/>
    <path id="Line-5" data-name="Line" d="M.5,0V13.314" transform="translate(202.42 2223.101)" fill="none" stroke="#e23121" stroke-linecap="round" stroke-linejoin="round" stroke-miterlimit="10" stroke-width="8"/>
    <path id="Line-6" data-name="Line" d="M.5,0V13.314" transform="translate(202.42 2263.044)" fill="none" stroke="#e23121" stroke-linecap="round" stroke-linejoin="round" stroke-miterlimit="10" stroke-width="8"/>
    <path id="Line-7" data-name="Line" d="M0,0V13.314" transform="translate(176.291 2249.73) rotate(-90)" fill="none" stroke="#e23121" stroke-linecap="round" stroke-linejoin="round" stroke-miterlimit="10" stroke-width="8"/>
    <path id="Line-8" data-name="Line" d="M0,0V13.314" transform="translate(216.235 2249.73) rotate(-90)" fill="none" stroke="#e23121" stroke-linecap="round" stroke-linejoin="round" stroke-miterlimit="10" stroke-width="8"/>
    <path id="Path_93" data-name="Path 93" d="M168.478,168.478a52.239,52.239,0,1,0-52.239-52.239A52.391,52.391,0,0,0,168.478,168.478Zm0,26.119C133.871,194.6,64,212.229,64,246.836v26.119H272.956V246.836C272.956,212.229,203.085,194.6,168.478,194.6Z" transform="translate(-101 2192.044)" fill="#343434" stroke="#e23121" stroke-width="4"/>
    <path id="Path_92" data-name="Path 92" d="M136.994,75.9v.022C153.929,86.7,170.119,95.493,190,99.622c-.209,33.414-2.479,53.784-9.688,66.748a43.069,43.069,0,0,1-2.606,4.032L103.052,95.747C115.366,90.65,126.855,83.448,136.994,75.9ZM91.2,100.045l78.776,78.775c-7.727,6.677-18.462,12.388-33.431,18.954-23.739-9.885-36.717-19.062-43.809-32.74-7-13.5-8.863-33.436-9.042-63.364C86.226,101.26,88.732,100.7,91.2,100.045Z" transform="translate(-5 2296.324)" fill="#e23121"/>
  </g>
</svg>
