<svg xmlns="http://www.w3.org/2000/svg" xmlns:xlink="http://www.w3.org/1999/xlink" width="138.794" height="81.146" viewBox="0 0 138.794 81.146">
  <defs>
    <clipPath id="clip-path">
      <path id="Path_312" data-name="Path 312" d="M-541.992,220.117a12.09,12.09,0,0,1-12.368,12.037,12.089,12.089,0,0,1-12.368-12.037,12.367,12.367,0,0,1,12.368-12.367A12.368,12.368,0,0,1-541.992,220.117Z" transform="translate(566.727 -207.75)" fill="none"/>
    </clipPath>
    <clipPath id="clip-path-2">
      <path id="Path_454" data-name="Path 454" d="M-561.32,229.137a16.245,16.245,0,0,1-16.617-16.215,16.635,16.635,0,0,1,16.617-16.616A16.635,16.635,0,0,1-544.7,212.922,16.245,16.245,0,0,1-561.32,229.137Z" transform="translate(577.937 -196.306)" fill="none"/>
    </clipPath>
  </defs>
  <g id="Group_585" data-name="Group 585" transform="translate(-755 -420.27)">
    <ellipse id="Ellipse_44" data-name="Ellipse 44" cx="68.508" cy="1.885" rx="68.508" ry="1.885" transform="translate(756.778 497.645)" fill="#181b1f" opacity="0.12" style="mix-blend-mode: multiply;isolation: isolate"/>
    <g id="Group_260" data-name="Group 260" transform="translate(755 420.27)">
      <path id="Path_287" data-name="Path 287" d="M-726.963,213.3c20.12-.143,40.117,3.426,27.162-34.2-7.042-20.456-21.21-25.4-21.21-25.4l9.5-13.051a2.02,2.02,0,0,0-2.45-2.77l-2.937.487a6.333,6.333,0,0,1-5.4-1.821l-.238-.293a3.9,3.9,0,0,0-5.2-.786l-2.155,1.436c-1.8,1.2-3.93.85-5.974.159a36.62,36.62,0,0,0-5.839-.689.761.761,0,0,0-.739,1.153l9.615,15.755s-12.2,8.305-18.849,25.821C-764,211.571-746.748,213.442-726.963,213.3Z" transform="translate(755.82 -134.805)" fill="#e6c673"/>
      <path id="Path_288" data-name="Path 288" d="M-698.983,215.622c20.12-.083,40.117,3.426,27.162-34.2-7.042-20.456-21.21-25.4-21.21-25.4l9.5-13.051a2.02,2.02,0,0,0-2.45-2.77s-5.509,1.764-8.34-1.334l-.238-.293c-1.27-1.563-1.849,17.7-1.849,17.7,8.642,8.9-10.971,41.31-14.884,52.425C-714.95,219.068-675.174,210.144-698.983,215.622Z" transform="translate(727.84 -137.126)" fill="#d1a965" opacity="0.47" style="mix-blend-mode: multiply;isolation: isolate"/>
      <path id="Path_289" data-name="Path 289" d="M-702.052,156.92l-3.921-15s-.1.2-1.5,0a16.468,16.468,0,0,1-2.655-.519,14.419,14.419,0,0,0-3.521,0c-.114.17,10.256,15.859,10.256,15.859Z" transform="translate(729.176 -138.897)" fill="#d1a965" opacity="0.38" style="mix-blend-mode: multiply;isolation: isolate"/>
      <path id="Path_290" data-name="Path 290" d="M-696.872,188.355l-4.617,10.508,8.273-10.508Z" transform="translate(721.492 -168.639)" fill="#d1a965" opacity="0.38" style="mix-blend-mode: multiply;isolation: isolate"/>
      <rect id="Rectangle_101" data-name="Rectangle 101" width="15.806" height="2.05" rx="1.025" transform="translate(21.902 17.242) rotate(-6.507)" fill="#3d3d3d"/>
      <path id="Path_291" data-name="Path 291" d="M-682.914,186.425H-697.96A1.036,1.036,0,0,1-699,185.389h0a1.036,1.036,0,0,1,1.036-1.036h15.046a1.036,1.036,0,0,1,1.036,1.036h0A1.036,1.036,0,0,1-682.914,186.425Z" transform="translate(719.917 -166.11)" fill="#474747"/>
      <path id="Path_292" data-name="Path 292" d="M-661.182,196.449a29.815,29.815,0,0,0-9.582-14.231c.671-.335,1.677-1.341,2.012-1.006a32.136,32.136,0,0,1,9.43,14.033h0a.969.969,0,0,1-.961,1.23Z" transform="translate(702.08 -164.083)" fill="#474747"/>
      <path id="Path_293" data-name="Path 293" d="M-673.581,191.837a10.35,10.35,0,0,0,1-8.042.8.8,0,0,1,.845-1.025c.484.055.89.125.924.272a11.17,11.17,0,0,1-.949,9.751h0a1.3,1.3,0,0,1-1.5.108h0A.792.792,0,0,1-673.581,191.837Z" transform="translate(703.919 -165.107)" fill="#474747"/>
      <g id="Group_259" data-name="Group 259" transform="translate(22.241 32.944)">
        <path id="Path_294" data-name="Path 294" d="M-688.547,252.775a18.429,18.429,0,0,1-1.855-.087,15.671,15.671,0,0,1-1.664-.26,13.24,13.24,0,0,1-1.612-.451q-.8-.277-1.733-.658a18.174,18.174,0,0,1,.468-2.531q.329-1.282.815-2.739a19.968,19.968,0,0,0,2.946,1.023,10.413,10.413,0,0,0,2.531.33,5.149,5.149,0,0,0,2.669-.572,1.94,1.94,0,0,0,.936-1.785,1.89,1.89,0,0,0-.815-1.647,10.311,10.311,0,0,0-1.993-1.057l-1.837-.762a17.553,17.553,0,0,1-1.976-1.005,6.481,6.481,0,0,1-1.612-1.334,6.015,6.015,0,0,1-1.074-1.837,7.114,7.114,0,0,1-.4-2.513,6.983,6.983,0,0,1,1.647-4.87,7.764,7.764,0,0,1,4.558-2.34v-3.12a5.4,5.4,0,0,1,1.109-.225q.554-.052.936-.052t.953.052a4.835,4.835,0,0,1,1.092.225v3.016a18.53,18.53,0,0,1,2.444.451q1.231.312,2.617.8a16.042,16.042,0,0,1-1.421,4.922,20.483,20.483,0,0,0-2.323-.867,10.4,10.4,0,0,0-2.947-.346,7.409,7.409,0,0,0-.884.052,2.3,2.3,0,0,0-.8.243,1.6,1.6,0,0,0-.589.52,1.54,1.54,0,0,0-.226.884,1.725,1.725,0,0,0,.711,1.508,6.783,6.783,0,0,0,1.543.814l1.941.728a19.552,19.552,0,0,1,2.219,1.005,7.261,7.261,0,0,1,1.837,1.386,6.085,6.085,0,0,1,1.265,2.045,8.334,8.334,0,0,1,.468,2.981,7.8,7.8,0,0,1-1.508,4.818,7.891,7.891,0,0,1-4.35,2.808v4.091a4.836,4.836,0,0,1-1.092.225q-.572.052-.953.052t-.936-.052a5.4,5.4,0,0,1-1.109-.225Z" transform="translate(695.411 -224.282)" fill="#474747"/>
      </g>
      <path id="Path_295" data-name="Path 295" d="M-742.945,310.048a3.9,3.9,0,0,0,1.88,4.49c2.667,1.528,5.711-1.625,5.711-1.625s-3.5.875-5.013,0A7.026,7.026,0,0,1-742.945,310.048Z" transform="translate(747.775 -245.527)" fill="#d1a965"/>
      <path id="Path_296" data-name="Path 296" d="M-725.61,325.266a3.9,3.9,0,0,0,2.676,4.066c2.9,1.009,5.313-2.651,5.313-2.651s-1.339,1.944-4.656,1.486C-724.267,327.893-725.61,325.266-725.61,325.266Z" transform="translate(736.741 -255.142)" fill="#d1a965"/>
    </g>
    <g id="Group_262" data-name="Group 262" transform="translate(794.44 432.556)">
      <path id="Path_297" data-name="Path 297" d="M-624.355,234.394c16.972-.121,33.842,2.89,22.914-28.854-5.941-17.256-17.893-21.429-17.893-21.429l8.01-11.009a1.7,1.7,0,0,0-2.066-2.337l-2.478.411a5.342,5.342,0,0,1-4.558-1.536l-.2-.247a3.294,3.294,0,0,0-4.384-.663l-1.818,1.212c-1.514,1.01-3.315.717-5.04.134a30.84,30.84,0,0,0-4.925-.581.642.642,0,0,0-.623.972l8.111,13.291s-10.294,7.007-15.9,21.782C-655.6,232.935-641.045,234.513-624.355,234.394Z" transform="translate(648.698 -168.176)" fill="#e6c673"/>
      <path id="Path_298" data-name="Path 298" d="M-601.239,236.351c16.973-.07,33.842,2.89,22.914-28.854-5.941-17.256-17.893-21.429-17.893-21.429l8.01-11.009a1.7,1.7,0,0,0-2.066-2.337s-4.647,1.488-7.036-1.125l-.2-.247c-1.071-1.318-1.56,14.93-1.56,14.93,5.7,7.835-16.562,36.371-12.556,44.225C-607.41,238.772-581.154,231.731-601.239,236.351Z" transform="translate(625.582 -170.133)" fill="#d1a965" opacity="0.47" style="mix-blend-mode: multiply;isolation: isolate"/>
      <path id="Path_299" data-name="Path 299" d="M-603.34,186.832l-3.308-12.658s-.087.167-1.266,0a13.861,13.861,0,0,1-2.24-.437,12.14,12.14,0,0,0-2.97,0c-.1.143,8.652,13.378,8.652,13.378Z" transform="translate(626.222 -171.628)" fill="#d1a965" opacity="0.38" style="mix-blend-mode: multiply;isolation: isolate"/>
      <path id="Path_300" data-name="Path 300" d="M-598.971,213.35l-3.895,8.864,6.979-8.864Z" transform="translate(619.74 -196.718)" fill="#d1a965" opacity="0.38" style="mix-blend-mode: multiply;isolation: isolate"/>
      <rect id="Rectangle_102" data-name="Rectangle 102" width="13.334" height="1.73" rx="0.865" transform="translate(18.476 14.545) rotate(-6.507)" fill="#3d3d3d"/>
      <path id="Path_301" data-name="Path 301" d="M-587.2,211.722h-12.692a.874.874,0,0,1-.874-.874h0a.874.874,0,0,1,.874-.874H-587.2a.874.874,0,0,1,.874.874h0A.874.874,0,0,1-587.2,211.722Z" transform="translate(618.412 -194.585)" fill="#474747"/>
      <path id="Path_302" data-name="Path 302" d="M-568.863,220.178a25.152,25.152,0,0,0-8.084-12.005c.566-.283,1.415-1.131,1.7-.849a27.11,27.11,0,0,1,7.955,11.837h0a.817.817,0,0,1-.81,1.038Z" transform="translate(603.365 -192.875)" fill="#474747"/>
      <path id="Path_303" data-name="Path 303" d="M-579.323,216.287a8.732,8.732,0,0,0,.839-6.784.67.67,0,0,1,.713-.864c.408.046.751.106.779.23a9.422,9.422,0,0,1-.8,8.226h0a1.1,1.1,0,0,1-1.266.091h0A.668.668,0,0,1-579.323,216.287Z" transform="translate(604.915 -193.738)" fill="#474747"/>
      <g id="Group_261" data-name="Group 261" transform="translate(18.763 27.791)">
        <path id="Path_304" data-name="Path 304" d="M-591.948,267.693a15.509,15.509,0,0,1-1.564-.073,13.258,13.258,0,0,1-1.4-.219,11.251,11.251,0,0,1-1.36-.38q-.673-.234-1.462-.556a15.29,15.29,0,0,1,.395-2.135q.278-1.081.687-2.31a16.867,16.867,0,0,0,2.486.863,8.8,8.8,0,0,0,2.135.278,4.344,4.344,0,0,0,2.251-.483,1.638,1.638,0,0,0,.79-1.506,1.594,1.594,0,0,0-.687-1.389,8.694,8.694,0,0,0-1.682-.892l-1.55-.643a14.8,14.8,0,0,1-1.667-.848,5.478,5.478,0,0,1-1.36-1.126,5.07,5.07,0,0,1-.906-1.55,6.01,6.01,0,0,1-.336-2.12,5.893,5.893,0,0,1,1.389-4.109,6.553,6.553,0,0,1,3.845-1.974v-2.632a4.555,4.555,0,0,1,.936-.19q.467-.044.789-.044t.8.044a4.071,4.071,0,0,1,.921.19v2.544a15.638,15.638,0,0,1,2.061.38q1.038.263,2.208.673a13.544,13.544,0,0,1-1.2,4.152,17.348,17.348,0,0,0-1.959-.731,8.777,8.777,0,0,0-2.486-.292,6.275,6.275,0,0,0-.746.044,1.944,1.944,0,0,0-.673.2,1.356,1.356,0,0,0-.5.439,1.3,1.3,0,0,0-.19.746,1.454,1.454,0,0,0,.6,1.272,5.71,5.71,0,0,0,1.3.687l1.637.614a16.627,16.627,0,0,1,1.872.848,6.119,6.119,0,0,1,1.55,1.17,5.129,5.129,0,0,1,1.067,1.725,7.019,7.019,0,0,1,.4,2.515,6.579,6.579,0,0,1-1.272,4.065,6.657,6.657,0,0,1-3.67,2.368v3.451a4.07,4.07,0,0,1-.921.19q-.483.044-.8.044t-.789-.044a4.554,4.554,0,0,1-.936-.19Z" transform="translate(597.738 -243.657)" fill="#474747"/>
      </g>
      <path id="Path_305" data-name="Path 305" d="M-637.837,316.008a3.289,3.289,0,0,0,1.586,3.787c2.25,1.289,4.817-1.371,4.817-1.371s-2.951.738-4.229,0A5.926,5.926,0,0,1-637.837,316.008Z" transform="translate(641.912 -261.579)" fill="#d1a965"/>
      <path id="Path_306" data-name="Path 306" d="M-623.214,328.846a3.289,3.289,0,0,0,2.258,3.43c2.449.852,4.482-2.236,4.482-2.236s-1.13,1.639-3.929,1.253C-622.082,331.061-623.214,328.846-623.214,328.846Z" transform="translate(632.604 -269.69)" fill="#d1a965"/>
    </g>
    <g id="Group_428" data-name="Group 428" transform="translate(787.346 442.913)">
      <g id="Group_270" data-name="Group 270" transform="translate(33.025 0)">
        <g id="Group_269" data-name="Group 269">
          <g id="Group_263" data-name="Group 263" transform="translate(4.134 6.412)">
            <path id="Path_307" data-name="Path 307" d="M-542.074,226.2a12.2,12.2,0,0,1-12.483,12.148A12.2,12.2,0,0,1-567.039,226.2a12.483,12.483,0,0,1,12.482-12.482A12.483,12.483,0,0,1-542.074,226.2Z" transform="translate(567.039 -213.721)" fill="#ffc30d"/>
          </g>
          <g id="Group_264" data-name="Group 264">
            <path id="Path_308" data-name="Path 308" d="M-561.651,229.137a16.245,16.245,0,0,1-16.617-16.215,16.635,16.635,0,0,1,16.617-16.616,16.635,16.635,0,0,1,16.616,16.616A16.245,16.245,0,0,1-561.651,229.137Z" transform="translate(578.268 -196.306)" fill="#fd0"/>
          </g>
          <path id="Path_309" data-name="Path 309" d="M-557.1,205.176a13.979,13.979,0,0,0-13.964,13.964A13.613,13.613,0,0,0-557.1,232.685a13.613,13.613,0,0,0,13.964-13.545A13.98,13.98,0,0,0-557.1,205.176Z" transform="translate(573.716 -201.91)" fill="#fff" style="mix-blend-mode: overlay;isolation: isolate"/>
          <path id="Path_310" data-name="Path 310" d="M-556.789,203.126a13.98,13.98,0,0,0-13.964,13.964,13.613,13.613,0,0,0,13.964,13.545,13.613,13.613,0,0,0,13.964-13.545A13.98,13.98,0,0,0-556.789,203.126Z" transform="translate(573.52 -200.615)" fill="#f0a700"/>
          <path id="Path_311" data-name="Path 311" d="M-557.1,204.478a13.98,13.98,0,0,0-13.964,13.964A13.613,13.613,0,0,0-557.1,231.987a13.613,13.613,0,0,0,13.964-13.545A13.98,13.98,0,0,0-557.1,204.478Z" transform="translate(573.716 -201.469)" fill="#ffc000"/>
          <g id="Group_268" data-name="Group 268" transform="translate(4.249 4.213)">
            <g id="Group_267" data-name="Group 267" clip-path="url(#clip-path)">
              <g id="Group_265" data-name="Group 265" transform="translate(-2.018 -5.054)">
                <rect id="Rectangle_103" data-name="Rectangle 103" width="2.937" height="34.813" transform="matrix(0.707, 0.707, -0.707, 0.707, 24.618, 0)" fill="#fd0"/>
              </g>
              <g id="Group_266" data-name="Group 266" transform="translate(-0.634 -1.525)">
                <rect id="Rectangle_104" data-name="Rectangle 104" width="6.894" height="37.585" transform="translate(26.576 0) rotate(45)" fill="#fd0"/>
              </g>
            </g>
          </g>
        </g>
      </g>
      <g id="Group_287" data-name="Group 287" transform="translate(0 48.554)">
        <path id="Rectangle_105" data-name="Rectangle 105" d="M.523,0H32.27a.523.523,0,0,1,.523.523V6.291a.523.523,0,0,1-.523.523H.524A.524.524,0,0,1,0,6.291V.523A.523.523,0,0,1,.523,0Z" transform="translate(0 1.077)" fill="#d48200"/>
        <path id="Rectangle_106" data-name="Rectangle 106" d="M.524,0H32.27a.523.523,0,0,1,.523.523V7.039a.523.523,0,0,1-.523.523H.524A.524.524,0,0,1,0,7.039V.524A.524.524,0,0,1,.524,0Z" transform="translate(0 0)" fill="#ffc000"/>
        <rect id="Rectangle_107" data-name="Rectangle 107" width="6.91" height="7.562" transform="translate(8.817 7.562) rotate(180)" fill="#ffaf00"/>
        <rect id="Rectangle_108" data-name="Rectangle 108" width="2.42" height="7.562" transform="translate(28.641 7.562) rotate(180)" fill="#ffde00"/>
        <g id="Group_286" data-name="Group 286" transform="translate(1.291 0.602)" opacity="0.6">
          <g id="Group_271" data-name="Group 271">
            <path id="Path_313" data-name="Path 313" d="M-664.189,336.275a.269.269,0,0,1-.269-.269v-5.921a.27.27,0,0,1,.269-.269.269.269,0,0,1,.269.269v5.921A.269.269,0,0,1-664.189,336.275Z" transform="translate(664.458 -329.816)" fill="#ffe600"/>
          </g>
          <g id="Group_272" data-name="Group 272" transform="translate(2.12)">
            <path id="Path_314" data-name="Path 314" d="M-658.432,336.275a.269.269,0,0,1-.269-.269v-5.921a.269.269,0,0,1,.269-.269.269.269,0,0,1,.269.269v5.921A.269.269,0,0,1-658.432,336.275Z" transform="translate(658.701 -329.816)" fill="#ffe600"/>
          </g>
          <g id="Group_273" data-name="Group 273" transform="translate(4.239)">
            <path id="Path_315" data-name="Path 315" d="M-652.676,336.275a.269.269,0,0,1-.269-.269v-5.921a.269.269,0,0,1,.269-.269.269.269,0,0,1,.269.269v5.921A.269.269,0,0,1-652.676,336.275Z" transform="translate(652.945 -329.816)" fill="#ffe600"/>
          </g>
          <g id="Group_274" data-name="Group 274" transform="translate(6.359)">
            <path id="Path_316" data-name="Path 316" d="M-646.919,336.275a.269.269,0,0,1-.269-.269v-5.921a.269.269,0,0,1,.269-.269.269.269,0,0,1,.269.269v5.921A.269.269,0,0,1-646.919,336.275Z" transform="translate(647.188 -329.816)" fill="#ffe600"/>
          </g>
          <g id="Group_275" data-name="Group 275" transform="translate(8.478)">
            <path id="Path_317" data-name="Path 317" d="M-641.163,336.275a.269.269,0,0,1-.269-.269v-5.921a.269.269,0,0,1,.269-.269.269.269,0,0,1,.269.269v5.921A.269.269,0,0,1-641.163,336.275Z" transform="translate(641.432 -329.816)" fill="#ffe600"/>
          </g>
          <g id="Group_276" data-name="Group 276" transform="translate(10.597)">
            <path id="Path_318" data-name="Path 318" d="M-635.406,336.275a.269.269,0,0,1-.269-.269v-5.921a.269.269,0,0,1,.269-.269.269.269,0,0,1,.269.269v5.921A.269.269,0,0,1-635.406,336.275Z" transform="translate(635.675 -329.816)" fill="#ffe600"/>
          </g>
          <g id="Group_277" data-name="Group 277" transform="translate(12.717)">
            <path id="Path_319" data-name="Path 319" d="M-629.65,336.275a.269.269,0,0,1-.269-.269v-5.921a.269.269,0,0,1,.269-.269.269.269,0,0,1,.269.269v5.921A.269.269,0,0,1-629.65,336.275Z" transform="translate(629.919 -329.816)" fill="#ffe600"/>
          </g>
          <g id="Group_278" data-name="Group 278" transform="translate(14.836)">
            <path id="Path_320" data-name="Path 320" d="M-623.893,336.275a.269.269,0,0,1-.269-.269v-5.921a.269.269,0,0,1,.269-.269.27.27,0,0,1,.269.269v5.921A.269.269,0,0,1-623.893,336.275Z" transform="translate(624.162 -329.816)" fill="#ffe600"/>
          </g>
          <g id="Group_279" data-name="Group 279" transform="translate(16.956)">
            <path id="Path_321" data-name="Path 321" d="M-618.137,336.275a.269.269,0,0,1-.269-.269v-5.921a.269.269,0,0,1,.269-.269.269.269,0,0,1,.269.269v5.921A.269.269,0,0,1-618.137,336.275Z" transform="translate(618.406 -329.816)" fill="#ffe600"/>
          </g>
          <g id="Group_280" data-name="Group 280" transform="translate(19.075)">
            <path id="Path_322" data-name="Path 322" d="M-612.38,336.275a.269.269,0,0,1-.269-.269v-5.921a.269.269,0,0,1,.269-.269.269.269,0,0,1,.269.269v5.921A.269.269,0,0,1-612.38,336.275Z" transform="translate(612.649 -329.816)" fill="#ffe600"/>
          </g>
          <g id="Group_281" data-name="Group 281" transform="translate(21.194)">
            <path id="Path_323" data-name="Path 323" d="M-606.624,336.275a.269.269,0,0,1-.269-.269v-5.921a.269.269,0,0,1,.269-.269.269.269,0,0,1,.269.269v5.921A.269.269,0,0,1-606.624,336.275Z" transform="translate(606.893 -329.816)" fill="#ffe600"/>
          </g>
          <g id="Group_282" data-name="Group 282" transform="translate(23.314)">
            <path id="Path_324" data-name="Path 324" d="M-600.868,336.275a.269.269,0,0,1-.269-.269v-5.921a.269.269,0,0,1,.269-.269.269.269,0,0,1,.269.269v5.921A.269.269,0,0,1-600.868,336.275Z" transform="translate(601.137 -329.816)" fill="#ffe600"/>
          </g>
          <g id="Group_283" data-name="Group 283" transform="translate(25.433)">
            <path id="Path_325" data-name="Path 325" d="M-595.111,336.275a.269.269,0,0,1-.269-.269v-5.921a.269.269,0,0,1,.269-.269.269.269,0,0,1,.269.269v5.921A.269.269,0,0,1-595.111,336.275Z" transform="translate(595.38 -329.816)" fill="#ffe600"/>
          </g>
          <g id="Group_284" data-name="Group 284" transform="translate(27.553)">
            <path id="Path_326" data-name="Path 326" d="M-589.355,336.275a.269.269,0,0,1-.269-.269v-5.921a.269.269,0,0,1,.269-.269.269.269,0,0,1,.269.269v5.921A.269.269,0,0,1-589.355,336.275Z" transform="translate(589.624 -329.816)" fill="#ffe600"/>
          </g>
          <g id="Group_285" data-name="Group 285" transform="translate(29.672)">
            <path id="Path_327" data-name="Path 327" d="M-583.6,336.275a.269.269,0,0,1-.269-.269v-5.921a.269.269,0,0,1,.269-.269.269.269,0,0,1,.269.269v5.921A.269.269,0,0,1-583.6,336.275Z" transform="translate(583.867 -329.816)" fill="#ffe600"/>
          </g>
        </g>
      </g>
      <g id="Group_304" data-name="Group 304" transform="translate(34.999 48.554)">
        <rect id="Rectangle_109" data-name="Rectangle 109" width="32.794" height="6.814" rx="0.523" transform="translate(0 1.077)" fill="#d48200"/>
        <path id="Rectangle_110" data-name="Rectangle 110" d="M.524,0H32.27a.523.523,0,0,1,.523.523V7.039a.523.523,0,0,1-.523.523H.523A.523.523,0,0,1,0,7.039V.524A.524.524,0,0,1,.524,0Z" transform="translate(0 0)" fill="#ffc000"/>
        <rect id="Rectangle_111" data-name="Rectangle 111" width="6.91" height="7.562" transform="translate(6.91 7.562) rotate(180)" fill="#ffaf00"/>
        <rect id="Rectangle_112" data-name="Rectangle 112" width="2.093" height="7.562" transform="translate(2.093 7.562) rotate(180)" fill="#a20012" opacity="0.21" style="mix-blend-mode: multiply;isolation: isolate"/>
        <rect id="Rectangle_113" data-name="Rectangle 113" width="2.42" height="7.562" transform="translate(28.641 7.562) rotate(180)" fill="#ffde00"/>
        <g id="Group_303" data-name="Group 303" transform="translate(1.292 0.602)" opacity="0.6">
          <g id="Group_288" data-name="Group 288">
            <path id="Path_328" data-name="Path 328" d="M-569.13,336.275a.269.269,0,0,1-.269-.269v-5.921a.269.269,0,0,1,.269-.269.269.269,0,0,1,.269.269v5.921A.269.269,0,0,1-569.13,336.275Z" transform="translate(569.399 -329.816)" fill="#ffe600"/>
          </g>
          <g id="Group_289" data-name="Group 289" transform="translate(2.119)">
            <path id="Path_329" data-name="Path 329" d="M-563.374,336.275a.269.269,0,0,1-.269-.269v-5.921a.269.269,0,0,1,.269-.269.269.269,0,0,1,.269.269v5.921A.269.269,0,0,1-563.374,336.275Z" transform="translate(563.643 -329.816)" fill="#ffe600"/>
          </g>
          <g id="Group_290" data-name="Group 290" transform="translate(4.239)">
            <path id="Path_330" data-name="Path 330" d="M-557.617,336.275a.269.269,0,0,1-.269-.269v-5.921a.269.269,0,0,1,.269-.269.269.269,0,0,1,.269.269v5.921A.269.269,0,0,1-557.617,336.275Z" transform="translate(557.886 -329.816)" fill="#ffe600"/>
          </g>
          <g id="Group_291" data-name="Group 291" transform="translate(6.358)">
            <path id="Path_331" data-name="Path 331" d="M-551.861,336.275a.269.269,0,0,1-.269-.269v-5.921a.269.269,0,0,1,.269-.269.269.269,0,0,1,.269.269v5.921A.269.269,0,0,1-551.861,336.275Z" transform="translate(552.13 -329.816)" fill="#ffe600"/>
          </g>
          <g id="Group_292" data-name="Group 292" transform="translate(8.478)">
            <path id="Path_332" data-name="Path 332" d="M-546.1,336.275a.269.269,0,0,1-.269-.269v-5.921a.269.269,0,0,1,.269-.269.269.269,0,0,1,.269.269v5.921A.269.269,0,0,1-546.1,336.275Z" transform="translate(546.373 -329.816)" fill="#ffe600"/>
          </g>
          <g id="Group_293" data-name="Group 293" transform="translate(10.597)">
            <path id="Path_333" data-name="Path 333" d="M-540.348,336.275a.269.269,0,0,1-.269-.269v-5.921a.269.269,0,0,1,.269-.269.269.269,0,0,1,.269.269v5.921A.269.269,0,0,1-540.348,336.275Z" transform="translate(540.617 -329.816)" fill="#ffe600"/>
          </g>
          <g id="Group_294" data-name="Group 294" transform="translate(12.717)">
            <path id="Path_334" data-name="Path 334" d="M-534.591,336.275a.269.269,0,0,1-.269-.269v-5.921a.269.269,0,0,1,.269-.269.269.269,0,0,1,.269.269v5.921A.269.269,0,0,1-534.591,336.275Z" transform="translate(534.86 -329.816)" fill="#ffe600"/>
          </g>
          <g id="Group_295" data-name="Group 295" transform="translate(14.836)">
            <path id="Path_335" data-name="Path 335" d="M-528.835,336.275a.269.269,0,0,1-.269-.269v-5.921a.269.269,0,0,1,.269-.269.269.269,0,0,1,.269.269v5.921A.269.269,0,0,1-528.835,336.275Z" transform="translate(529.104 -329.816)" fill="#ffe600"/>
          </g>
          <g id="Group_296" data-name="Group 296" transform="translate(16.956)">
            <path id="Path_336" data-name="Path 336" d="M-523.078,336.275a.269.269,0,0,1-.269-.269v-5.921a.269.269,0,0,1,.269-.269.269.269,0,0,1,.269.269v5.921A.269.269,0,0,1-523.078,336.275Z" transform="translate(523.347 -329.816)" fill="#ffe600"/>
          </g>
          <g id="Group_297" data-name="Group 297" transform="translate(19.075)">
            <path id="Path_337" data-name="Path 337" d="M-517.322,336.275a.269.269,0,0,1-.269-.269v-5.921a.269.269,0,0,1,.269-.269.269.269,0,0,1,.269.269v5.921A.269.269,0,0,1-517.322,336.275Z" transform="translate(517.591 -329.816)" fill="#ffe600"/>
          </g>
          <g id="Group_298" data-name="Group 298" transform="translate(21.194)">
            <path id="Path_338" data-name="Path 338" d="M-511.566,336.275a.269.269,0,0,1-.269-.269v-5.921a.269.269,0,0,1,.269-.269.269.269,0,0,1,.269.269v5.921A.269.269,0,0,1-511.566,336.275Z" transform="translate(511.835 -329.816)" fill="#ffe600"/>
          </g>
          <g id="Group_299" data-name="Group 299" transform="translate(23.314)">
            <path id="Path_339" data-name="Path 339" d="M-505.809,336.275a.269.269,0,0,1-.269-.269v-5.921a.269.269,0,0,1,.269-.269.269.269,0,0,1,.269.269v5.921A.269.269,0,0,1-505.809,336.275Z" transform="translate(506.078 -329.816)" fill="#ffe600"/>
          </g>
          <g id="Group_300" data-name="Group 300" transform="translate(25.433)">
            <path id="Path_340" data-name="Path 340" d="M-500.053,336.275a.269.269,0,0,1-.269-.269v-5.921a.269.269,0,0,1,.269-.269.269.269,0,0,1,.269.269v5.921A.269.269,0,0,1-500.053,336.275Z" transform="translate(500.322 -329.816)" fill="#ffe600"/>
          </g>
          <g id="Group_301" data-name="Group 301" transform="translate(27.553)">
            <path id="Path_341" data-name="Path 341" d="M-494.3,336.275a.269.269,0,0,1-.269-.269v-5.921a.269.269,0,0,1,.269-.269.269.269,0,0,1,.269.269v5.921A.269.269,0,0,1-494.3,336.275Z" transform="translate(494.565 -329.816)" fill="#ffe600"/>
          </g>
          <g id="Group_302" data-name="Group 302" transform="translate(29.672)">
            <path id="Path_342" data-name="Path 342" d="M-488.54,336.275a.269.269,0,0,1-.269-.269v-5.921a.269.269,0,0,1,.269-.269.269.269,0,0,1,.269.269v5.921A.269.269,0,0,1-488.54,336.275Z" transform="translate(488.809 -329.816)" fill="#ffe600"/>
          </g>
        </g>
      </g>
      <g id="Group_321" data-name="Group 321" transform="translate(73.315 48.554)">
        <path id="Rectangle_114" data-name="Rectangle 114" d="M.523,0H32.27a.523.523,0,0,1,.523.523V6.291a.523.523,0,0,1-.523.523H.524A.524.524,0,0,1,0,6.291V.523A.523.523,0,0,1,.523,0Z" transform="translate(0 1.077)" fill="#d48200"/>
        <path id="Rectangle_115" data-name="Rectangle 115" d="M.524,0H32.27a.524.524,0,0,1,.524.524V7.039a.523.523,0,0,1-.523.523H.524A.524.524,0,0,1,0,7.039V.524A.524.524,0,0,1,.524,0Z" transform="translate(0 0)" fill="#ffc000"/>
        <rect id="Rectangle_116" data-name="Rectangle 116" width="6.91" height="7.562" transform="translate(6.91 7.562) rotate(180)" fill="#ffaf00"/>
        <rect id="Rectangle_117" data-name="Rectangle 117" width="2.093" height="7.562" transform="translate(2.093 7.562) rotate(180)" fill="#a20012" opacity="0.21" style="mix-blend-mode: multiply;isolation: isolate"/>
        <rect id="Rectangle_118" data-name="Rectangle 118" width="2.42" height="7.562" transform="translate(28.641 7.562) rotate(180)" fill="#ffde00"/>
        <g id="Group_320" data-name="Group 320" transform="translate(1.292 0.602)" opacity="0.6">
          <g id="Group_305" data-name="Group 305">
            <path id="Path_343" data-name="Path 343" d="M-465.062,336.275a.269.269,0,0,1-.269-.269v-5.921a.269.269,0,0,1,.269-.269.269.269,0,0,1,.269.269v5.921A.269.269,0,0,1-465.062,336.275Z" transform="translate(465.331 -329.816)" fill="#ffe600"/>
          </g>
          <g id="Group_306" data-name="Group 306" transform="translate(2.12)">
            <path id="Path_344" data-name="Path 344" d="M-459.3,336.275a.269.269,0,0,1-.269-.269v-5.921a.269.269,0,0,1,.269-.269.269.269,0,0,1,.269.269v5.921A.269.269,0,0,1-459.3,336.275Z" transform="translate(459.574 -329.816)" fill="#ffe600"/>
          </g>
          <g id="Group_307" data-name="Group 307" transform="translate(4.239)">
            <path id="Path_345" data-name="Path 345" d="M-453.549,336.275a.269.269,0,0,1-.269-.269v-5.921a.269.269,0,0,1,.269-.269.269.269,0,0,1,.269.269v5.921A.269.269,0,0,1-453.549,336.275Z" transform="translate(453.818 -329.816)" fill="#ffe600"/>
          </g>
          <g id="Group_308" data-name="Group 308" transform="translate(6.359)">
            <path id="Path_346" data-name="Path 346" d="M-447.792,336.275a.269.269,0,0,1-.269-.269v-5.921a.269.269,0,0,1,.269-.269.269.269,0,0,1,.269.269v5.921A.269.269,0,0,1-447.792,336.275Z" transform="translate(448.061 -329.816)" fill="#ffe600"/>
          </g>
          <g id="Group_309" data-name="Group 309" transform="translate(8.478)">
            <path id="Path_347" data-name="Path 347" d="M-442.036,336.275a.269.269,0,0,1-.269-.269v-5.921a.269.269,0,0,1,.269-.269.269.269,0,0,1,.269.269v5.921A.269.269,0,0,1-442.036,336.275Z" transform="translate(442.305 -329.816)" fill="#ffe600"/>
          </g>
          <g id="Group_310" data-name="Group 310" transform="translate(10.597)">
            <path id="Path_348" data-name="Path 348" d="M-436.279,336.275a.269.269,0,0,1-.269-.269v-5.921a.269.269,0,0,1,.269-.269.269.269,0,0,1,.269.269v5.921A.269.269,0,0,1-436.279,336.275Z" transform="translate(436.548 -329.816)" fill="#ffe600"/>
          </g>
          <g id="Group_311" data-name="Group 311" transform="translate(12.717)">
            <path id="Path_349" data-name="Path 349" d="M-430.523,336.275a.269.269,0,0,1-.269-.269v-5.921a.269.269,0,0,1,.269-.269.269.269,0,0,1,.269.269v5.921A.269.269,0,0,1-430.523,336.275Z" transform="translate(430.792 -329.816)" fill="#ffe600"/>
          </g>
          <g id="Group_312" data-name="Group 312" transform="translate(14.836)">
            <path id="Path_350" data-name="Path 350" d="M-424.767,336.275a.269.269,0,0,1-.269-.269v-5.921a.269.269,0,0,1,.269-.269.269.269,0,0,1,.269.269v5.921A.269.269,0,0,1-424.767,336.275Z" transform="translate(425.036 -329.816)" fill="#ffe600"/>
          </g>
          <g id="Group_313" data-name="Group 313" transform="translate(16.956)">
            <path id="Path_351" data-name="Path 351" d="M-419.01,336.275a.269.269,0,0,1-.269-.269v-5.921a.269.269,0,0,1,.269-.269.269.269,0,0,1,.269.269v5.921A.269.269,0,0,1-419.01,336.275Z" transform="translate(419.279 -329.816)" fill="#ffe600"/>
          </g>
          <g id="Group_314" data-name="Group 314" transform="translate(19.075)">
            <path id="Path_352" data-name="Path 352" d="M-413.254,336.275a.269.269,0,0,1-.269-.269v-5.921a.269.269,0,0,1,.269-.269.269.269,0,0,1,.269.269v5.921A.269.269,0,0,1-413.254,336.275Z" transform="translate(413.523 -329.816)" fill="#ffe600"/>
          </g>
          <g id="Group_315" data-name="Group 315" transform="translate(21.194)">
            <path id="Path_353" data-name="Path 353" d="M-407.5,336.275a.269.269,0,0,1-.269-.269v-5.921a.269.269,0,0,1,.269-.269.269.269,0,0,1,.269.269v5.921A.269.269,0,0,1-407.5,336.275Z" transform="translate(407.766 -329.816)" fill="#ffe600"/>
          </g>
          <g id="Group_316" data-name="Group 316" transform="translate(23.314)">
            <path id="Path_354" data-name="Path 354" d="M-401.741,336.275a.269.269,0,0,1-.269-.269v-5.921a.269.269,0,0,1,.269-.269.269.269,0,0,1,.269.269v5.921A.269.269,0,0,1-401.741,336.275Z" transform="translate(402.01 -329.816)" fill="#ffe600"/>
          </g>
          <g id="Group_317" data-name="Group 317" transform="translate(25.433)">
            <path id="Path_355" data-name="Path 355" d="M-395.984,336.275a.269.269,0,0,1-.269-.269v-5.921a.269.269,0,0,1,.269-.269.27.27,0,0,1,.269.269v5.921A.269.269,0,0,1-395.984,336.275Z" transform="translate(396.253 -329.816)" fill="#ffe600"/>
          </g>
          <g id="Group_318" data-name="Group 318" transform="translate(27.553)">
            <path id="Path_356" data-name="Path 356" d="M-390.228,336.275a.269.269,0,0,1-.269-.269v-5.921a.269.269,0,0,1,.269-.269.269.269,0,0,1,.269.269v5.921A.269.269,0,0,1-390.228,336.275Z" transform="translate(390.497 -329.816)" fill="#ffe600"/>
          </g>
          <g id="Group_319" data-name="Group 319" transform="translate(29.672)">
            <path id="Path_357" data-name="Path 357" d="M-384.472,336.275a.269.269,0,0,1-.269-.269v-5.921a.269.269,0,0,1,.269-.269.27.27,0,0,1,.27.269v5.921A.27.27,0,0,1-384.472,336.275Z" transform="translate(384.741 -329.816)" fill="#ffe600"/>
          </g>
        </g>
      </g>
      <g id="Group_338" data-name="Group 338" transform="translate(62.55 40.66)">
        <path id="Rectangle_119" data-name="Rectangle 119" d="M.523,0H32.27a.524.524,0,0,1,.524.524V6.291a.523.523,0,0,1-.523.523H.523A.523.523,0,0,1,0,6.291V.523A.523.523,0,0,1,.523,0Z" transform="translate(0 1.077)" fill="#d48200"/>
        <path id="Rectangle_120" data-name="Rectangle 120" d="M.523,0H32.27a.524.524,0,0,1,.524.524V7.039a.523.523,0,0,1-.523.523H.523A.523.523,0,0,1,0,7.039V.523A.523.523,0,0,1,.523,0Z" transform="translate(0 0)" fill="#ffc000"/>
        <rect id="Rectangle_121" data-name="Rectangle 121" width="32.794" height="7.562" transform="translate(32.794 7.562) rotate(180)" fill="#a20012" opacity="0.15" style="mix-blend-mode: multiply;isolation: isolate"/>
        <rect id="Rectangle_122" data-name="Rectangle 122" width="3.016" height="7.562" transform="translate(3.034 7.562) rotate(180)" fill="#a20012" opacity="0.21" style="mix-blend-mode: multiply;isolation: isolate"/>
        <rect id="Rectangle_123" data-name="Rectangle 123" width="2.42" height="7.562" transform="translate(28.641 7.562) rotate(180)" fill="#ffde00" opacity="0.25"/>
        <g id="Group_337" data-name="Group 337" transform="translate(1.292 0.602)" opacity="0.6">
          <g id="Group_322" data-name="Group 322">
            <path id="Path_358" data-name="Path 358" d="M-494.3,314.834a.27.27,0,0,1-.269-.269v-5.921a.269.269,0,0,1,.269-.269.269.269,0,0,1,.269.269v5.921A.269.269,0,0,1-494.3,314.834Z" transform="translate(494.57 -308.375)" fill="#ffe600"/>
          </g>
          <g id="Group_323" data-name="Group 323" transform="translate(2.12)">
            <path id="Path_359" data-name="Path 359" d="M-488.544,314.834a.269.269,0,0,1-.269-.269v-5.921a.269.269,0,0,1,.269-.269.269.269,0,0,1,.269.269v5.921A.27.27,0,0,1-488.544,314.834Z" transform="translate(488.813 -308.375)" fill="#ffe600"/>
          </g>
          <g id="Group_324" data-name="Group 324" transform="translate(4.239)">
            <path id="Path_360" data-name="Path 360" d="M-482.788,314.834a.269.269,0,0,1-.269-.269v-5.921a.269.269,0,0,1,.269-.269.269.269,0,0,1,.269.269v5.921A.269.269,0,0,1-482.788,314.834Z" transform="translate(483.057 -308.375)" fill="#ffe600"/>
          </g>
          <g id="Group_325" data-name="Group 325" transform="translate(6.359)">
            <path id="Path_361" data-name="Path 361" d="M-477.031,314.834a.269.269,0,0,1-.269-.269v-5.921a.269.269,0,0,1,.269-.269.269.269,0,0,1,.269.269v5.921A.269.269,0,0,1-477.031,314.834Z" transform="translate(477.3 -308.375)" fill="#ffe600"/>
          </g>
          <g id="Group_326" data-name="Group 326" transform="translate(8.478)">
            <path id="Path_362" data-name="Path 362" d="M-471.275,314.834a.27.27,0,0,1-.269-.269v-5.921a.269.269,0,0,1,.269-.269.269.269,0,0,1,.269.269v5.921A.269.269,0,0,1-471.275,314.834Z" transform="translate(471.544 -308.375)" fill="#ffe600"/>
          </g>
          <g id="Group_327" data-name="Group 327" transform="translate(10.597)">
            <path id="Path_363" data-name="Path 363" d="M-465.518,314.834a.269.269,0,0,1-.269-.269v-5.921a.269.269,0,0,1,.269-.269.269.269,0,0,1,.269.269v5.921A.269.269,0,0,1-465.518,314.834Z" transform="translate(465.787 -308.375)" fill="#ffe600"/>
          </g>
          <g id="Group_328" data-name="Group 328" transform="translate(12.717)">
            <path id="Path_364" data-name="Path 364" d="M-459.762,314.834a.269.269,0,0,1-.269-.269v-5.921a.269.269,0,0,1,.269-.269.269.269,0,0,1,.269.269v5.921A.269.269,0,0,1-459.762,314.834Z" transform="translate(460.031 -308.375)" fill="#ffe600"/>
          </g>
          <g id="Group_329" data-name="Group 329" transform="translate(14.836)">
            <path id="Path_365" data-name="Path 365" d="M-454.006,314.834a.27.27,0,0,1-.269-.269v-5.921a.269.269,0,0,1,.269-.269.269.269,0,0,1,.269.269v5.921A.269.269,0,0,1-454.006,314.834Z" transform="translate(454.275 -308.375)" fill="#ffe600"/>
          </g>
          <g id="Group_330" data-name="Group 330" transform="translate(16.956)">
            <path id="Path_366" data-name="Path 366" d="M-448.249,314.834a.269.269,0,0,1-.269-.269v-5.921a.269.269,0,0,1,.269-.269.269.269,0,0,1,.269.269v5.921A.27.27,0,0,1-448.249,314.834Z" transform="translate(448.518 -308.375)" fill="#ffe600"/>
          </g>
          <g id="Group_331" data-name="Group 331" transform="translate(19.075)">
            <path id="Path_367" data-name="Path 367" d="M-442.493,314.834a.269.269,0,0,1-.269-.269v-5.921a.269.269,0,0,1,.269-.269.269.269,0,0,1,.269.269v5.921A.269.269,0,0,1-442.493,314.834Z" transform="translate(442.762 -308.375)" fill="#ffe600"/>
          </g>
          <g id="Group_332" data-name="Group 332" transform="translate(21.194)">
            <path id="Path_368" data-name="Path 368" d="M-436.736,314.834a.269.269,0,0,1-.269-.269v-5.921a.269.269,0,0,1,.269-.269.269.269,0,0,1,.269.269v5.921A.27.27,0,0,1-436.736,314.834Z" transform="translate(437.005 -308.375)" fill="#ffe600"/>
          </g>
          <g id="Group_333" data-name="Group 333" transform="translate(23.314)">
            <path id="Path_369" data-name="Path 369" d="M-430.98,314.834a.269.269,0,0,1-.269-.269v-5.921a.269.269,0,0,1,.269-.269.269.269,0,0,1,.269.269v5.921A.269.269,0,0,1-430.98,314.834Z" transform="translate(431.249 -308.375)" fill="#ffe600"/>
          </g>
          <g id="Group_334" data-name="Group 334" transform="translate(25.433)">
            <path id="Path_370" data-name="Path 370" d="M-425.223,314.834a.27.27,0,0,1-.27-.269v-5.921a.27.27,0,0,1,.27-.269.269.269,0,0,1,.269.269v5.921A.269.269,0,0,1-425.223,314.834Z" transform="translate(425.493 -308.375)" fill="#ffe600"/>
          </g>
          <g id="Group_335" data-name="Group 335" transform="translate(27.553)">
            <path id="Path_371" data-name="Path 371" d="M-419.467,314.834a.269.269,0,0,1-.269-.269v-5.921a.269.269,0,0,1,.269-.269.269.269,0,0,1,.269.269v5.921A.269.269,0,0,1-419.467,314.834Z" transform="translate(419.736 -308.375)" fill="#ffe600"/>
          </g>
          <g id="Group_336" data-name="Group 336" transform="translate(29.672)">
            <path id="Path_372" data-name="Path 372" d="M-413.711,314.834a.27.27,0,0,1-.269-.269v-5.921a.269.269,0,0,1,.269-.269.269.269,0,0,1,.269.269v5.921A.269.269,0,0,1-413.711,314.834Z" transform="translate(413.98 -308.375)" fill="#ffe600"/>
          </g>
        </g>
      </g>
      <g id="Group_355" data-name="Group 355" transform="translate(28.102 40.66)">
        <path id="Rectangle_124" data-name="Rectangle 124" d="M.524,0H32.27a.523.523,0,0,1,.523.523V6.291a.523.523,0,0,1-.523.523H.523A.523.523,0,0,1,0,6.291V.524A.524.524,0,0,1,.524,0Z" transform="translate(0 1.077)" fill="#d48200"/>
        <rect id="Rectangle_125" data-name="Rectangle 125" width="32.794" height="7.562" rx="0.523" transform="translate(0 0)" fill="#ffc000"/>
        <rect id="Rectangle_126" data-name="Rectangle 126" width="15.303" height="7.562" transform="translate(15.303 7.562) rotate(180)" fill="#ffaf00"/>
        <rect id="Rectangle_127" data-name="Rectangle 127" width="2.093" height="7.562" transform="translate(2.093 7.562) rotate(180)" fill="#a20012" opacity="0.21" style="mix-blend-mode: multiply;isolation: isolate"/>
        <rect id="Rectangle_128" data-name="Rectangle 128" width="2.42" height="7.562" transform="translate(28.641 7.562) rotate(180)" fill="#ffde00"/>
        <g id="Group_354" data-name="Group 354" transform="translate(1.292 0.602)" opacity="0.6">
          <g id="Group_339" data-name="Group 339">
            <path id="Path_373" data-name="Path 373" d="M-587.861,314.834a.269.269,0,0,1-.269-.269v-5.921a.269.269,0,0,1,.269-.269.269.269,0,0,1,.269.269v5.921A.269.269,0,0,1-587.861,314.834Z" transform="translate(588.13 -308.375)" fill="#ffe600"/>
          </g>
          <g id="Group_340" data-name="Group 340" transform="translate(2.119)">
            <path id="Path_374" data-name="Path 374" d="M-582.1,314.834a.27.27,0,0,1-.269-.269v-5.921a.269.269,0,0,1,.269-.269.269.269,0,0,1,.269.269v5.921A.269.269,0,0,1-582.1,314.834Z" transform="translate(582.374 -308.375)" fill="#ffe600"/>
          </g>
          <g id="Group_341" data-name="Group 341" transform="translate(4.239)">
            <path id="Path_375" data-name="Path 375" d="M-576.348,314.834a.269.269,0,0,1-.269-.269v-5.921a.269.269,0,0,1,.269-.269.269.269,0,0,1,.269.269v5.921A.27.27,0,0,1-576.348,314.834Z" transform="translate(576.617 -308.375)" fill="#ffe600"/>
          </g>
          <g id="Group_342" data-name="Group 342" transform="translate(6.358)">
            <path id="Path_376" data-name="Path 376" d="M-570.592,314.834a.27.27,0,0,1-.269-.269v-5.921a.269.269,0,0,1,.269-.269.269.269,0,0,1,.269.269v5.921A.269.269,0,0,1-570.592,314.834Z" transform="translate(570.861 -308.375)" fill="#ffe600"/>
          </g>
          <g id="Group_343" data-name="Group 343" transform="translate(8.478)">
            <path id="Path_377" data-name="Path 377" d="M-564.835,314.834a.269.269,0,0,1-.269-.269v-5.921a.269.269,0,0,1,.269-.269.269.269,0,0,1,.269.269v5.921A.269.269,0,0,1-564.835,314.834Z" transform="translate(565.104 -308.375)" fill="#ffe600"/>
          </g>
          <g id="Group_344" data-name="Group 344" transform="translate(10.597)">
            <path id="Path_378" data-name="Path 378" d="M-559.079,314.834a.269.269,0,0,1-.269-.269v-5.921a.269.269,0,0,1,.269-.269.269.269,0,0,1,.269.269v5.921A.27.27,0,0,1-559.079,314.834Z" transform="translate(559.348 -308.375)" fill="#ffe600"/>
          </g>
          <g id="Group_345" data-name="Group 345" transform="translate(12.716)">
            <path id="Path_379" data-name="Path 379" d="M-553.323,314.834a.27.27,0,0,1-.269-.269v-5.921a.269.269,0,0,1,.269-.269.269.269,0,0,1,.269.269v5.921A.269.269,0,0,1-553.323,314.834Z" transform="translate(553.592 -308.375)" fill="#ffe600"/>
          </g>
          <g id="Group_346" data-name="Group 346" transform="translate(14.836)">
            <path id="Path_380" data-name="Path 380" d="M-547.566,314.834a.269.269,0,0,1-.269-.269v-5.921a.269.269,0,0,1,.269-.269.269.269,0,0,1,.269.269v5.921A.269.269,0,0,1-547.566,314.834Z" transform="translate(547.835 -308.375)" fill="#ffe600"/>
          </g>
          <g id="Group_347" data-name="Group 347" transform="translate(16.955)">
            <path id="Path_381" data-name="Path 381" d="M-541.81,314.834a.269.269,0,0,1-.269-.269v-5.921a.269.269,0,0,1,.269-.269.269.269,0,0,1,.269.269v5.921A.269.269,0,0,1-541.81,314.834Z" transform="translate(542.079 -308.375)" fill="#ffe600"/>
          </g>
          <g id="Group_348" data-name="Group 348" transform="translate(19.075)">
            <path id="Path_382" data-name="Path 382" d="M-536.053,314.834a.269.269,0,0,1-.269-.269v-5.921a.269.269,0,0,1,.269-.269.269.269,0,0,1,.269.269v5.921A.269.269,0,0,1-536.053,314.834Z" transform="translate(536.322 -308.375)" fill="#ffe600"/>
          </g>
          <g id="Group_349" data-name="Group 349" transform="translate(21.194)">
            <path id="Path_383" data-name="Path 383" d="M-530.3,314.834a.269.269,0,0,1-.269-.269v-5.921a.269.269,0,0,1,.269-.269.269.269,0,0,1,.269.269v5.921A.269.269,0,0,1-530.3,314.834Z" transform="translate(530.566 -308.375)" fill="#ffe600"/>
          </g>
          <g id="Group_350" data-name="Group 350" transform="translate(23.314)">
            <path id="Path_384" data-name="Path 384" d="M-524.54,314.834a.269.269,0,0,1-.269-.269v-5.921a.269.269,0,0,1,.269-.269.269.269,0,0,1,.269.269v5.921A.269.269,0,0,1-524.54,314.834Z" transform="translate(524.809 -308.375)" fill="#ffe600"/>
          </g>
          <g id="Group_351" data-name="Group 351" transform="translate(25.433)">
            <path id="Path_385" data-name="Path 385" d="M-518.784,314.834a.269.269,0,0,1-.269-.269v-5.921a.269.269,0,0,1,.269-.269.269.269,0,0,1,.269.269v5.921A.269.269,0,0,1-518.784,314.834Z" transform="translate(519.053 -308.375)" fill="#ffe600"/>
          </g>
          <g id="Group_352" data-name="Group 352" transform="translate(27.552)">
            <path id="Path_386" data-name="Path 386" d="M-513.028,314.834a.27.27,0,0,1-.269-.269v-5.921a.269.269,0,0,1,.269-.269.269.269,0,0,1,.269.269v5.921A.269.269,0,0,1-513.028,314.834Z" transform="translate(513.297 -308.375)" fill="#ffe600"/>
          </g>
          <g id="Group_353" data-name="Group 353" transform="translate(29.672)">
            <path id="Path_387" data-name="Path 387" d="M-507.271,314.834a.269.269,0,0,1-.269-.269v-5.921a.269.269,0,0,1,.269-.269.269.269,0,0,1,.269.269v5.921A.269.269,0,0,1-507.271,314.834Z" transform="translate(507.54 -308.375)" fill="#ffe600"/>
          </g>
        </g>
      </g>
      <g id="Group_372" data-name="Group 372" transform="translate(24.62 32.72)">
        <rect id="Rectangle_129" data-name="Rectangle 129" width="32.794" height="6.814" rx="0.523" transform="translate(0 1.077)" fill="#d48200"/>
        <rect id="Rectangle_130" data-name="Rectangle 130" width="32.794" height="7.562" rx="0.523" transform="translate(0)" fill="#ffc000"/>
        <rect id="Rectangle_131" data-name="Rectangle 131" width="16.448" height="7.562" transform="translate(16.448 7.562) rotate(180)" fill="#ffaf00"/>
        <rect id="Rectangle_132" data-name="Rectangle 132" width="2.093" height="7.562" transform="translate(2.093 7.562) rotate(180)" fill="#a20012" opacity="0.21" style="mix-blend-mode: multiply;isolation: isolate"/>
        <rect id="Rectangle_133" data-name="Rectangle 133" width="2.42" height="7.562" transform="translate(28.641 7.562) rotate(180)" fill="#ffde00"/>
        <g id="Group_371" data-name="Group 371" transform="translate(1.292 0.602)" opacity="0.6">
          <g id="Group_356" data-name="Group 356">
            <path id="Path_388" data-name="Path 388" d="M-597.319,293.268a.269.269,0,0,1-.269-.269v-5.921a.269.269,0,0,1,.269-.269.27.27,0,0,1,.269.269V293A.269.269,0,0,1-597.319,293.268Z" transform="translate(597.588 -286.809)" fill="#ffe600"/>
          </g>
          <g id="Group_357" data-name="Group 357" transform="translate(2.119)">
            <path id="Path_389" data-name="Path 389" d="M-591.563,293.268a.269.269,0,0,1-.269-.269v-5.921a.27.27,0,0,1,.269-.269.269.269,0,0,1,.269.269V293A.269.269,0,0,1-591.563,293.268Z" transform="translate(591.832 -286.809)" fill="#ffe600"/>
          </g>
          <g id="Group_358" data-name="Group 358" transform="translate(4.239)">
            <path id="Path_390" data-name="Path 390" d="M-585.806,293.268a.269.269,0,0,1-.269-.269v-5.921a.269.269,0,0,1,.269-.269.269.269,0,0,1,.269.269V293A.269.269,0,0,1-585.806,293.268Z" transform="translate(586.075 -286.809)" fill="#ffe600"/>
          </g>
          <g id="Group_359" data-name="Group 359" transform="translate(6.358)">
            <path id="Path_391" data-name="Path 391" d="M-580.05,293.268a.269.269,0,0,1-.269-.269v-5.921a.27.27,0,0,1,.269-.269.269.269,0,0,1,.269.269V293A.269.269,0,0,1-580.05,293.268Z" transform="translate(580.319 -286.809)" fill="#ffe600"/>
          </g>
          <g id="Group_360" data-name="Group 360" transform="translate(8.478)">
            <path id="Path_392" data-name="Path 392" d="M-574.293,293.268a.269.269,0,0,1-.269-.269v-5.921a.269.269,0,0,1,.269-.269.269.269,0,0,1,.269.269V293A.269.269,0,0,1-574.293,293.268Z" transform="translate(574.562 -286.809)" fill="#ffe600"/>
          </g>
          <g id="Group_361" data-name="Group 361" transform="translate(10.597)">
            <path id="Path_393" data-name="Path 393" d="M-568.537,293.268a.269.269,0,0,1-.269-.269v-5.921a.269.269,0,0,1,.269-.269.269.269,0,0,1,.269.269V293A.269.269,0,0,1-568.537,293.268Z" transform="translate(568.806 -286.809)" fill="#ffe600"/>
          </g>
          <g id="Group_362" data-name="Group 362" transform="translate(12.716)">
            <path id="Path_394" data-name="Path 394" d="M-562.781,293.268a.269.269,0,0,1-.269-.269v-5.921a.27.27,0,0,1,.269-.269.269.269,0,0,1,.269.269V293A.269.269,0,0,1-562.781,293.268Z" transform="translate(563.05 -286.809)" fill="#ffe600"/>
          </g>
          <g id="Group_363" data-name="Group 363" transform="translate(14.836)">
            <path id="Path_395" data-name="Path 395" d="M-557.024,293.268a.269.269,0,0,1-.269-.269v-5.921a.269.269,0,0,1,.269-.269.269.269,0,0,1,.269.269V293A.269.269,0,0,1-557.024,293.268Z" transform="translate(557.293 -286.809)" fill="#ffe600"/>
          </g>
          <g id="Group_364" data-name="Group 364" transform="translate(16.955)">
            <path id="Path_396" data-name="Path 396" d="M-551.268,293.268a.269.269,0,0,1-.269-.269v-5.921a.27.27,0,0,1,.269-.269.269.269,0,0,1,.269.269V293A.269.269,0,0,1-551.268,293.268Z" transform="translate(551.537 -286.809)" fill="#ffe600"/>
          </g>
          <g id="Group_365" data-name="Group 365" transform="translate(19.075)">
            <path id="Path_397" data-name="Path 397" d="M-545.511,293.268a.269.269,0,0,1-.269-.269v-5.921a.269.269,0,0,1,.269-.269.269.269,0,0,1,.269.269V293A.269.269,0,0,1-545.511,293.268Z" transform="translate(545.78 -286.809)" fill="#ffe600"/>
          </g>
          <g id="Group_366" data-name="Group 366" transform="translate(21.194)">
            <path id="Path_398" data-name="Path 398" d="M-539.755,293.268a.269.269,0,0,1-.269-.269v-5.921a.27.27,0,0,1,.269-.269.269.269,0,0,1,.269.269V293A.269.269,0,0,1-539.755,293.268Z" transform="translate(540.024 -286.809)" fill="#ffe600"/>
          </g>
          <g id="Group_367" data-name="Group 367" transform="translate(23.314)">
            <path id="Path_399" data-name="Path 399" d="M-534,293.268a.269.269,0,0,1-.269-.269v-5.921a.269.269,0,0,1,.269-.269.27.27,0,0,1,.269.269V293A.27.27,0,0,1-534,293.268Z" transform="translate(534.267 -286.809)" fill="#ffe600"/>
          </g>
          <g id="Group_368" data-name="Group 368" transform="translate(25.433)">
            <path id="Path_400" data-name="Path 400" d="M-528.242,293.268a.269.269,0,0,1-.269-.269v-5.921a.269.269,0,0,1,.269-.269.269.269,0,0,1,.269.269V293A.269.269,0,0,1-528.242,293.268Z" transform="translate(528.511 -286.809)" fill="#ffe600"/>
          </g>
          <g id="Group_369" data-name="Group 369" transform="translate(27.552)">
            <path id="Path_401" data-name="Path 401" d="M-522.486,293.268a.269.269,0,0,1-.269-.269v-5.921a.27.27,0,0,1,.269-.269.269.269,0,0,1,.269.269V293A.269.269,0,0,1-522.486,293.268Z" transform="translate(522.755 -286.809)" fill="#ffe600"/>
          </g>
          <g id="Group_370" data-name="Group 370" transform="translate(29.672)">
            <path id="Path_402" data-name="Path 402" d="M-516.729,293.268A.269.269,0,0,1-517,293v-5.921a.269.269,0,0,1,.269-.269.269.269,0,0,1,.269.269V293A.269.269,0,0,1-516.729,293.268Z" transform="translate(516.998 -286.809)" fill="#ffe600"/>
          </g>
        </g>
      </g>
      <g id="Group_389" data-name="Group 389" transform="translate(64.351 32.72)">
        <rect id="Rectangle_134" data-name="Rectangle 134" width="32.794" height="6.814" rx="0.523" transform="translate(0 1.077)" fill="#d48200"/>
        <rect id="Rectangle_135" data-name="Rectangle 135" width="32.794" height="7.562" rx="0.523" transform="translate(0)" fill="#ffc000"/>
        <rect id="Rectangle_136" data-name="Rectangle 136" width="16.454" height="7.562" transform="translate(16.454 7.562) rotate(180)" fill="#ffaf00"/>
        <rect id="Rectangle_137" data-name="Rectangle 137" width="2.093" height="7.562" transform="translate(2.093 7.562) rotate(180)" fill="#a20012" opacity="0.21" style="mix-blend-mode: multiply;isolation: isolate"/>
        <rect id="Rectangle_138" data-name="Rectangle 138" width="2.42" height="7.562" transform="translate(28.641 7.562) rotate(180)" fill="#ffde00"/>
        <g id="Group_388" data-name="Group 388" transform="translate(1.292 0.602)" opacity="0.6">
          <g id="Group_373" data-name="Group 373">
            <path id="Path_403" data-name="Path 403" d="M-489.409,293.268a.269.269,0,0,1-.269-.269v-5.921a.269.269,0,0,1,.269-.269.269.269,0,0,1,.269.269V293A.269.269,0,0,1-489.409,293.268Z" transform="translate(489.678 -286.809)" fill="#ffe600"/>
          </g>
          <g id="Group_374" data-name="Group 374" transform="translate(2.12)">
            <path id="Path_404" data-name="Path 404" d="M-483.652,293.268a.269.269,0,0,1-.269-.269v-5.921a.269.269,0,0,1,.269-.269.269.269,0,0,1,.269.269V293A.269.269,0,0,1-483.652,293.268Z" transform="translate(483.921 -286.809)" fill="#ffe600"/>
          </g>
          <g id="Group_375" data-name="Group 375" transform="translate(4.239)">
            <path id="Path_405" data-name="Path 405" d="M-477.9,293.268a.269.269,0,0,1-.269-.269v-5.921a.269.269,0,0,1,.269-.269.269.269,0,0,1,.269.269V293A.269.269,0,0,1-477.9,293.268Z" transform="translate(478.165 -286.809)" fill="#ffe600"/>
          </g>
          <g id="Group_376" data-name="Group 376" transform="translate(6.358)">
            <path id="Path_406" data-name="Path 406" d="M-472.14,293.268a.269.269,0,0,1-.269-.269v-5.921a.269.269,0,0,1,.269-.269.269.269,0,0,1,.269.269V293A.269.269,0,0,1-472.14,293.268Z" transform="translate(472.409 -286.809)" fill="#ffe600"/>
          </g>
          <g id="Group_377" data-name="Group 377" transform="translate(8.478)">
            <path id="Path_407" data-name="Path 407" d="M-466.383,293.268a.269.269,0,0,1-.269-.269v-5.921a.269.269,0,0,1,.269-.269.269.269,0,0,1,.269.269V293A.269.269,0,0,1-466.383,293.268Z" transform="translate(466.652 -286.809)" fill="#ffe600"/>
          </g>
          <g id="Group_378" data-name="Group 378" transform="translate(10.597)">
            <path id="Path_408" data-name="Path 408" d="M-460.627,293.268A.269.269,0,0,1-460.9,293v-5.921a.27.27,0,0,1,.269-.269.269.269,0,0,1,.269.269V293A.269.269,0,0,1-460.627,293.268Z" transform="translate(460.896 -286.809)" fill="#ffe600"/>
          </g>
          <g id="Group_379" data-name="Group 379" transform="translate(12.717)">
            <path id="Path_409" data-name="Path 409" d="M-454.87,293.268a.269.269,0,0,1-.269-.269v-5.921a.269.269,0,0,1,.269-.269.269.269,0,0,1,.269.269V293A.269.269,0,0,1-454.87,293.268Z" transform="translate(455.139 -286.809)" fill="#ffe600"/>
          </g>
          <g id="Group_380" data-name="Group 380" transform="translate(14.836)">
            <path id="Path_410" data-name="Path 410" d="M-449.114,293.268a.269.269,0,0,1-.269-.269v-5.921a.269.269,0,0,1,.269-.269.269.269,0,0,1,.269.269V293A.269.269,0,0,1-449.114,293.268Z" transform="translate(449.383 -286.809)" fill="#ffe600"/>
          </g>
          <g id="Group_381" data-name="Group 381" transform="translate(16.955)">
            <path id="Path_411" data-name="Path 411" d="M-443.358,293.268a.27.27,0,0,1-.27-.269v-5.921a.27.27,0,0,1,.27-.269.269.269,0,0,1,.269.269V293A.269.269,0,0,1-443.358,293.268Z" transform="translate(443.627 -286.809)" fill="#ffe600"/>
          </g>
          <g id="Group_382" data-name="Group 382" transform="translate(19.075)">
            <path id="Path_412" data-name="Path 412" d="M-437.6,293.268a.269.269,0,0,1-.269-.269v-5.921a.269.269,0,0,1,.269-.269.269.269,0,0,1,.269.269V293A.269.269,0,0,1-437.6,293.268Z" transform="translate(437.87 -286.809)" fill="#ffe600"/>
          </g>
          <g id="Group_383" data-name="Group 383" transform="translate(21.194)">
            <path id="Path_413" data-name="Path 413" d="M-431.845,293.268a.269.269,0,0,1-.269-.269v-5.921a.27.27,0,0,1,.269-.269.269.269,0,0,1,.269.269V293A.269.269,0,0,1-431.845,293.268Z" transform="translate(432.114 -286.809)" fill="#ffe600"/>
          </g>
          <g id="Group_384" data-name="Group 384" transform="translate(23.314)">
            <path id="Path_414" data-name="Path 414" d="M-426.088,293.268a.269.269,0,0,1-.269-.269v-5.921a.269.269,0,0,1,.269-.269.27.27,0,0,1,.269.269V293A.27.27,0,0,1-426.088,293.268Z" transform="translate(426.357 -286.809)" fill="#ffe600"/>
          </g>
          <g id="Group_385" data-name="Group 385" transform="translate(25.433)">
            <path id="Path_415" data-name="Path 415" d="M-420.332,293.268A.269.269,0,0,1-420.6,293v-5.921a.269.269,0,0,1,.269-.269.269.269,0,0,1,.269.269V293A.269.269,0,0,1-420.332,293.268Z" transform="translate(420.601 -286.809)" fill="#ffe600"/>
          </g>
          <g id="Group_386" data-name="Group 386" transform="translate(27.553)">
            <path id="Path_416" data-name="Path 416" d="M-414.575,293.268a.269.269,0,0,1-.269-.269v-5.921a.269.269,0,0,1,.269-.269.27.27,0,0,1,.269.269V293A.269.269,0,0,1-414.575,293.268Z" transform="translate(414.844 -286.809)" fill="#ffe600"/>
          </g>
          <g id="Group_387" data-name="Group 387" transform="translate(29.672)">
            <path id="Path_417" data-name="Path 417" d="M-408.819,293.268a.269.269,0,0,1-.269-.269v-5.921a.269.269,0,0,1,.269-.269.269.269,0,0,1,.269.269V293A.269.269,0,0,1-408.819,293.268Z" transform="translate(409.088 -286.809)" fill="#ffe600"/>
          </g>
        </g>
      </g>
      <g id="Group_406" data-name="Group 406" transform="translate(64.351 24.915)">
        <rect id="Rectangle_139" data-name="Rectangle 139" width="32.794" height="6.814" rx="0.523" transform="translate(0 1.077)" fill="#d48200"/>
        <path id="Rectangle_140" data-name="Rectangle 140" d="M.523,0H32.27a.523.523,0,0,1,.523.523V7.039a.524.524,0,0,1-.524.524H.523A.523.523,0,0,1,0,7.039V.523A.523.523,0,0,1,.523,0Z" transform="translate(0)" fill="#fabc00"/>
        <rect id="Rectangle_141" data-name="Rectangle 141" width="16.185" height="7.562" transform="translate(16.185 7.562) rotate(180)" fill="#ffaf00"/>
        <rect id="Rectangle_142" data-name="Rectangle 142" width="32.794" height="7.562" transform="translate(32.794 7.562) rotate(180)" fill="#a20012" opacity="0.11" style="mix-blend-mode: multiply;isolation: isolate"/>
        <rect id="Rectangle_143" data-name="Rectangle 143" width="2.42" height="7.562" transform="translate(28.641 7.562) rotate(180)" fill="#ffde00" opacity="0.59"/>
        <g id="Group_405" data-name="Group 405" transform="translate(1.292 0.602)" opacity="0.6">
          <g id="Group_390" data-name="Group 390">
            <path id="Path_418" data-name="Path 418" d="M-489.409,272.069a.269.269,0,0,1-.269-.269V265.88a.27.27,0,0,1,.269-.27.27.27,0,0,1,.269.27V271.8A.269.269,0,0,1-489.409,272.069Z" transform="translate(489.678 -265.61)" fill="#ffe600"/>
          </g>
          <g id="Group_391" data-name="Group 391" transform="translate(2.12)">
            <path id="Path_419" data-name="Path 419" d="M-483.652,272.069a.269.269,0,0,1-.269-.269V265.88a.269.269,0,0,1,.269-.27.27.27,0,0,1,.269.27V271.8A.269.269,0,0,1-483.652,272.069Z" transform="translate(483.921 -265.61)" fill="#ffe600"/>
          </g>
          <g id="Group_392" data-name="Group 392" transform="translate(4.239)">
            <path id="Path_420" data-name="Path 420" d="M-477.9,272.069a.269.269,0,0,1-.269-.269V265.88a.27.27,0,0,1,.269-.27.27.27,0,0,1,.269.27V271.8A.269.269,0,0,1-477.9,272.069Z" transform="translate(478.165 -265.61)" fill="#ffe600"/>
          </g>
          <g id="Group_393" data-name="Group 393" transform="translate(6.358)">
            <path id="Path_421" data-name="Path 421" d="M-472.14,272.069a.269.269,0,0,1-.269-.269V265.88a.27.27,0,0,1,.269-.27.27.27,0,0,1,.269.27V271.8A.269.269,0,0,1-472.14,272.069Z" transform="translate(472.409 -265.61)" fill="#ffe600"/>
          </g>
          <g id="Group_394" data-name="Group 394" transform="translate(8.478)">
            <path id="Path_422" data-name="Path 422" d="M-466.383,272.069a.269.269,0,0,1-.269-.269V265.88a.27.27,0,0,1,.269-.27.27.27,0,0,1,.269.27V271.8A.269.269,0,0,1-466.383,272.069Z" transform="translate(466.652 -265.61)" fill="#ffe600"/>
          </g>
          <g id="Group_395" data-name="Group 395" transform="translate(10.597)">
            <path id="Path_423" data-name="Path 423" d="M-460.627,272.069a.27.27,0,0,1-.269-.269V265.88a.27.27,0,0,1,.269-.27.27.27,0,0,1,.269.27V271.8A.269.269,0,0,1-460.627,272.069Z" transform="translate(460.896 -265.61)" fill="#ffe600"/>
          </g>
          <g id="Group_396" data-name="Group 396" transform="translate(12.717)">
            <path id="Path_424" data-name="Path 424" d="M-454.87,272.069a.269.269,0,0,1-.269-.269V265.88a.27.27,0,0,1,.269-.27.27.27,0,0,1,.269.27V271.8A.269.269,0,0,1-454.87,272.069Z" transform="translate(455.139 -265.61)" fill="#ffe600"/>
          </g>
          <g id="Group_397" data-name="Group 397" transform="translate(14.836)">
            <path id="Path_425" data-name="Path 425" d="M-449.114,272.069a.269.269,0,0,1-.269-.269V265.88a.27.27,0,0,1,.269-.27.27.27,0,0,1,.269.27V271.8A.269.269,0,0,1-449.114,272.069Z" transform="translate(449.383 -265.61)" fill="#ffe600"/>
          </g>
          <g id="Group_398" data-name="Group 398" transform="translate(16.955)">
            <path id="Path_426" data-name="Path 426" d="M-443.358,272.069a.27.27,0,0,1-.27-.269V265.88a.27.27,0,0,1,.27-.27.269.269,0,0,1,.269.27V271.8A.269.269,0,0,1-443.358,272.069Z" transform="translate(443.627 -265.61)" fill="#ffe600"/>
          </g>
          <g id="Group_399" data-name="Group 399" transform="translate(19.075)">
            <path id="Path_427" data-name="Path 427" d="M-437.6,272.069a.269.269,0,0,1-.269-.269V265.88a.27.27,0,0,1,.269-.27.27.27,0,0,1,.269.27V271.8A.269.269,0,0,1-437.6,272.069Z" transform="translate(437.87 -265.61)" fill="#ffe600"/>
          </g>
          <g id="Group_400" data-name="Group 400" transform="translate(21.194)">
            <path id="Path_428" data-name="Path 428" d="M-431.845,272.069a.27.27,0,0,1-.269-.269V265.88a.27.27,0,0,1,.269-.27.27.27,0,0,1,.269.27V271.8A.269.269,0,0,1-431.845,272.069Z" transform="translate(432.114 -265.61)" fill="#ffe600"/>
          </g>
          <g id="Group_401" data-name="Group 401" transform="translate(23.314)">
            <path id="Path_429" data-name="Path 429" d="M-426.088,272.069a.269.269,0,0,1-.269-.269V265.88a.27.27,0,0,1,.269-.27.27.27,0,0,1,.269.27V271.8A.27.27,0,0,1-426.088,272.069Z" transform="translate(426.357 -265.61)" fill="#ffe600"/>
          </g>
          <g id="Group_402" data-name="Group 402" transform="translate(25.433)">
            <path id="Path_430" data-name="Path 430" d="M-420.332,272.069a.269.269,0,0,1-.269-.269V265.88a.27.27,0,0,1,.269-.27.27.27,0,0,1,.269.27V271.8A.269.269,0,0,1-420.332,272.069Z" transform="translate(420.601 -265.61)" fill="#ffe600"/>
          </g>
          <g id="Group_403" data-name="Group 403" transform="translate(27.553)">
            <path id="Path_431" data-name="Path 431" d="M-414.575,272.069a.269.269,0,0,1-.269-.269V265.88a.27.27,0,0,1,.269-.27.27.27,0,0,1,.269.27V271.8A.269.269,0,0,1-414.575,272.069Z" transform="translate(414.844 -265.61)" fill="#ffe600"/>
          </g>
          <g id="Group_404" data-name="Group 404" transform="translate(29.672)">
            <path id="Path_432" data-name="Path 432" d="M-408.819,272.069a.269.269,0,0,1-.269-.269V265.88a.27.27,0,0,1,.269-.27.27.27,0,0,1,.269.27V271.8A.269.269,0,0,1-408.819,272.069Z" transform="translate(409.088 -265.61)" fill="#ffe600"/>
          </g>
        </g>
      </g>
      <g id="Group_423" data-name="Group 423" transform="translate(64.351 17.02)">
        <rect id="Rectangle_144" data-name="Rectangle 144" width="32.794" height="6.814" rx="0.523" transform="translate(1.908 1.077)" fill="#d48200"/>
        <rect id="Rectangle_145" data-name="Rectangle 145" width="32.794" height="7.562" rx="0.523" transform="translate(1.908 0)" fill="#ffc000"/>
        <rect id="Rectangle_146" data-name="Rectangle 146" width="16.339" height="7.562" transform="translate(18.247 7.562) rotate(180)" fill="#ffaf00"/>
        <rect id="Rectangle_147" data-name="Rectangle 147" width="2.093" height="7.562" transform="translate(4.001 7.562) rotate(180)" fill="#a20012" opacity="0.21" style="mix-blend-mode: multiply;isolation: isolate"/>
        <rect id="Rectangle_148" data-name="Rectangle 148" width="2.093" height="7.562" transform="translate(2.093 15.507) rotate(180)" fill="#a20012" opacity="0.21" style="mix-blend-mode: multiply;isolation: isolate"/>
        <rect id="Rectangle_149" data-name="Rectangle 149" width="2.42" height="7.562" transform="translate(30.549 7.562) rotate(180)" fill="#ffe745"/>
        <g id="Group_422" data-name="Group 422" transform="translate(3.2 0.602)" opacity="0.6">
          <g id="Group_407" data-name="Group 407">
            <path id="Path_433" data-name="Path 433" d="M-484.227,250.628a.269.269,0,0,1-.269-.269v-5.921a.269.269,0,0,1,.269-.269.269.269,0,0,1,.269.269v5.921A.269.269,0,0,1-484.227,250.628Z" transform="translate(484.496 -244.169)" fill="#ffe600"/>
          </g>
          <g id="Group_408" data-name="Group 408" transform="translate(2.119)">
            <path id="Path_434" data-name="Path 434" d="M-478.471,250.628a.269.269,0,0,1-.269-.269v-5.921a.269.269,0,0,1,.269-.269.269.269,0,0,1,.269.269v5.921A.269.269,0,0,1-478.471,250.628Z" transform="translate(478.74 -244.169)" fill="#ffe600"/>
          </g>
          <g id="Group_409" data-name="Group 409" transform="translate(4.239)">
            <path id="Path_435" data-name="Path 435" d="M-472.715,250.628a.27.27,0,0,1-.27-.269v-5.921a.27.27,0,0,1,.27-.269.269.269,0,0,1,.269.269v5.921A.269.269,0,0,1-472.715,250.628Z" transform="translate(472.984 -244.169)" fill="#ffe600"/>
          </g>
          <g id="Group_410" data-name="Group 410" transform="translate(6.358)">
            <path id="Path_436" data-name="Path 436" d="M-466.958,250.628a.269.269,0,0,1-.269-.269v-5.921a.269.269,0,0,1,.269-.269.269.269,0,0,1,.269.269v5.921A.269.269,0,0,1-466.958,250.628Z" transform="translate(467.227 -244.169)" fill="#ffe600"/>
          </g>
          <g id="Group_411" data-name="Group 411" transform="translate(8.477)">
            <path id="Path_437" data-name="Path 437" d="M-461.2,250.628a.269.269,0,0,1-.269-.269v-5.921a.269.269,0,0,1,.269-.269.269.269,0,0,1,.269.269v5.921A.269.269,0,0,1-461.2,250.628Z" transform="translate(461.471 -244.169)" fill="#ffe600"/>
          </g>
          <g id="Group_412" data-name="Group 412" transform="translate(10.597)">
            <path id="Path_438" data-name="Path 438" d="M-455.445,250.628a.269.269,0,0,1-.269-.269v-5.921a.269.269,0,0,1,.269-.269.269.269,0,0,1,.269.269v5.921A.269.269,0,0,1-455.445,250.628Z" transform="translate(455.714 -244.169)" fill="#ffe600"/>
          </g>
          <g id="Group_413" data-name="Group 413" transform="translate(12.716)">
            <path id="Path_439" data-name="Path 439" d="M-449.689,250.628a.269.269,0,0,1-.269-.269v-5.921a.269.269,0,0,1,.269-.269.269.269,0,0,1,.269.269v5.921A.269.269,0,0,1-449.689,250.628Z" transform="translate(449.958 -244.169)" fill="#ffe600"/>
          </g>
          <g id="Group_414" data-name="Group 414" transform="translate(14.836)">
            <path id="Path_440" data-name="Path 440" d="M-443.932,250.628a.269.269,0,0,1-.269-.269v-5.921a.269.269,0,0,1,.269-.269.269.269,0,0,1,.269.269v5.921A.269.269,0,0,1-443.932,250.628Z" transform="translate(444.201 -244.169)" fill="#ffe600"/>
          </g>
          <g id="Group_415" data-name="Group 415" transform="translate(16.955)">
            <path id="Path_441" data-name="Path 441" d="M-438.176,250.628a.269.269,0,0,1-.269-.269v-5.921a.269.269,0,0,1,.269-.269.269.269,0,0,1,.269.269v5.921A.269.269,0,0,1-438.176,250.628Z" transform="translate(438.445 -244.169)" fill="#ffe600"/>
          </g>
          <g id="Group_416" data-name="Group 416" transform="translate(19.074)">
            <path id="Path_442" data-name="Path 442" d="M-432.42,250.628a.27.27,0,0,1-.269-.269v-5.921a.27.27,0,0,1,.269-.269.27.27,0,0,1,.27.269v5.921A.27.27,0,0,1-432.42,250.628Z" transform="translate(432.689 -244.169)" fill="#ffe600"/>
          </g>
          <g id="Group_417" data-name="Group 417" transform="translate(21.194)">
            <path id="Path_443" data-name="Path 443" d="M-426.663,250.628a.269.269,0,0,1-.269-.269v-5.921a.269.269,0,0,1,.269-.269.269.269,0,0,1,.269.269v5.921A.269.269,0,0,1-426.663,250.628Z" transform="translate(426.932 -244.169)" fill="#ffe600"/>
          </g>
          <g id="Group_418" data-name="Group 418" transform="translate(23.313)">
            <path id="Path_444" data-name="Path 444" d="M-420.907,250.628a.269.269,0,0,1-.269-.269v-5.921a.269.269,0,0,1,.269-.269.269.269,0,0,1,.269.269v5.921A.269.269,0,0,1-420.907,250.628Z" transform="translate(421.176 -244.169)" fill="#ffe600"/>
          </g>
          <g id="Group_419" data-name="Group 419" transform="translate(25.433)">
            <path id="Path_445" data-name="Path 445" d="M-415.15,250.628a.269.269,0,0,1-.269-.269v-5.921a.269.269,0,0,1,.269-.269.27.27,0,0,1,.269.269v5.921A.27.27,0,0,1-415.15,250.628Z" transform="translate(415.419 -244.169)" fill="#ffe600"/>
          </g>
          <g id="Group_420" data-name="Group 420" transform="translate(27.552)">
            <path id="Path_446" data-name="Path 446" d="M-409.394,250.628a.269.269,0,0,1-.269-.269v-5.921a.269.269,0,0,1,.269-.269.269.269,0,0,1,.269.269v5.921A.269.269,0,0,1-409.394,250.628Z" transform="translate(409.663 -244.169)" fill="#ffe600"/>
          </g>
          <g id="Group_421" data-name="Group 421" transform="translate(29.672)">
            <path id="Path_447" data-name="Path 447" d="M-403.637,250.628a.269.269,0,0,1-.269-.269v-5.921a.269.269,0,0,1,.269-.269.269.269,0,0,1,.269.269v5.921A.269.269,0,0,1-403.637,250.628Z" transform="translate(403.906 -244.169)" fill="#ffe600"/>
          </g>
        </g>
      </g>
      <g id="Group_426" data-name="Group 426" transform="translate(28.102 0)">
        <path id="Path_448" data-name="Path 448" d="M-526.323,292.927v-7.451h-3.151l-5.276,7.451Z" transform="translate(555.695 -252.645)" fill="#a20012" opacity="0.21" style="mix-blend-mode: multiply;isolation: isolate"/>
        <path id="Path_449" data-name="Path 449" d="M-507.937,314.342v-7.276a.175.175,0,0,0-.175-.175h-2.975l2.067,7.451Z" transform="translate(540.745 -266.176)" fill="#a20012" opacity="0.21" style="mix-blend-mode: multiply;isolation: isolate"/>
        <path id="Path_450" data-name="Path 450" d="M-496.949,335.783v-7.451h-7.667l2.7,7.451Z" transform="translate(536.656 -279.722)" fill="#a20012" opacity="0.21" style="mix-blend-mode: multiply;isolation: isolate"/>
        <path id="Path_451" data-name="Path 451" d="M-586.794,335.783v-7.451h-4.844l1.83,7.451Z" transform="translate(591.639 -279.722)" fill="#a20012" opacity="0.21" style="mix-blend-mode: multiply;isolation: isolate"/>
        <path id="Path_452" data-name="Path 452" d="M-454.292,335.783l1.682-7.451h-16.229v7.451Z" transform="translate(514.052 -279.722)" fill="#a20012" opacity="0.21" style="mix-blend-mode: multiply;isolation: isolate"/>
        <g id="Group_425" data-name="Group 425" transform="translate(5.045)">
          <g id="Group_424" data-name="Group 424" clip-path="url(#clip-path-2)">
            <path id="Path_453" data-name="Path 453" d="M-507.136,242.534l-11.341,15,6.791-.2,2.835-6.913,1.417-2.966Z" transform="translate(540.369 -225.514)" fill="#a20012" opacity="0.21" style="mix-blend-mode: multiply;isolation: isolate"/>
          </g>
        </g>
      </g>
      <g id="Group_427" data-name="Group 427" transform="translate(0.024 16.938)">
        <path id="Path_455" data-name="Path 455" d="M-444.976,285.333c0-.088-3.787-.159-8.46-.159s-8.46.071-8.46.159,3.787.159,8.46.159S-444.976,285.42-444.976,285.333Z" transform="translate(537.743 -269.393)" fill="#fff" style="mix-blend-mode: overlay;isolation: isolate"/>
        <path id="Path_456" data-name="Path 456" d="M-417.222,328.331c0-.088-3.3-.159-7.362-.159s-7.362.071-7.362.159,3.3.159,7.362.159S-417.222,328.418-417.222,328.331Z" transform="translate(518.82 -296.559)" fill="#fff" style="mix-blend-mode: overlay;isolation: isolate"/>
        <path id="Path_457" data-name="Path 457" d="M-439.789,242.47c0-.088-3.788-.159-8.46-.159s-8.459.071-8.459.159,3.787.159,8.459.159S-439.789,242.557-439.789,242.47Z" transform="translate(534.465 -242.311)" fill="#fff" style="mix-blend-mode: overlay;isolation: isolate"/>
        <ellipse id="Ellipse_45" data-name="Ellipse 45" cx="6.79" cy="0.159" rx="6.79" ry="0.159" transform="translate(39.843 23.619)" fill="#fff" style="mix-blend-mode: overlay;isolation: isolate"/>
        <path id="Path_458" data-name="Path 458" d="M-646.818,328.192c0-.088-4.719-.159-10.541-.159s-10.541.071-10.541.159,4.719.159,10.541.159S-646.818,328.279-646.818,328.192Z" transform="translate(667.9 -296.472)" fill="#fff" style="mix-blend-mode: overlay;isolation: isolate"/>
        <path id="Path_459" data-name="Path 459" d="M-546.727,285.2c0-.088-3.04-.159-6.79-.159s-6.79.071-6.79.159,3.04.159,6.79.159S-546.727,285.291-546.727,285.2Z" transform="translate(599.921 -269.311)" fill="#fff" style="mix-blend-mode: overlay;isolation: isolate"/>
        <path id="Path_460" data-name="Path 460" d="M-536.705,328.192a60.111,60.111,0,0,0-6.17-.159,60.1,60.1,0,0,0-6.17.159,60.111,60.111,0,0,0,6.17.159A60.122,60.122,0,0,0-536.705,328.192Z" transform="translate(592.805 -296.472)" fill="#fff" style="mix-blend-mode: overlay;isolation: isolate"/>
      </g>
    </g>
  </g>
</svg>
