<svg xmlns="http://www.w3.org/2000/svg" width="90.901" height="73.43" viewBox="0 0 90.901 73.43">
  <g id="Group_6901" data-name="Group 6901" transform="translate(-1993.166 24355.709)">
    <path id="Path_780" data-name="Path 780" d="M0,154.539l45.685-2.031L90.9,154.539,45.451,207.6Z" transform="translate(1993.166 -24489.877)" fill="#ffb04c"/>
    <path id="Path_781" data-name="Path 781" d="M90.9,69.579H0L14.508,49.208H76.393Z" transform="translate(1993.166 -24404.916)" fill="#ffdb6c"/>
    <path id="Path_782" data-name="Path 782" d="M430.286,49.208V69.579h14.508Z" transform="translate(1639.274 -24404.916)" fill="#ffc866"/>
    <path id="Path_783" data-name="Path 783" d="M286.862,164.086,256,217l45.054-52.594a.28.28,0,0,0-.213-.463H287.1A.28.28,0,0,0,286.862,164.086Z" transform="translate(1782.617 -24499.285)" fill="#f7a05e"/>
    <path id="Path_784" data-name="Path 784" d="M81.714,49.208H143.6l-30.943,73.428Z" transform="translate(1925.96 -24404.916)" fill="#ffdb6c"/>
    <path id="Path_785" data-name="Path 785" d="M135.016,69.579,143.6,49.208H81.714L90.3,69.579Z" transform="translate(1925.96 -24404.916)" fill="#fff2bb"/>
    <path id="Path_786" data-name="Path 786" d="M130.065,69.579l22.359-20.371,22.359,20.371Z" transform="translate(1886.193 -24404.916)" fill="#ffeb8a"/>
  </g>
</svg>
