<svg xmlns="http://www.w3.org/2000/svg" width="46" height="46" viewBox="0 0 46 46">
  <g id="Group_655" data-name="Group 655" transform="translate(-1110 -811)">
    <circle id="Ellipse_76" data-name="Ellipse 76" cx="23" cy="23" r="23" transform="translate(1110 811)" fill="#078dff"/>
    <g id="Group_654" data-name="Group 654" transform="translate(1092.976 824)">
      <g id="Group_653" data-name="Group 653" transform="translate(32.024 0)">
        <path id="Path_799" data-name="Path 799" d="M40.629,2.87V.361A.356.356,0,0,0,40.015.11L36.072,4.053a.358.358,0,0,0,0,.506L40.015,8.5a.359.359,0,0,0,.613-.255V5.739a5.378,5.378,0,1,1-5.736,5.378.358.358,0,0,0-.359-.359H32.383a.358.358,0,0,0-.359.359,8.336,8.336,0,1,0,8.6-8.246Z" transform="translate(-32.024 0)" fill="#fff"/>
      </g>
    </g>
  </g>
</svg>
