<svg xmlns="http://www.w3.org/2000/svg" width="46" height="46" viewBox="0 0 46 46">
  <g id="Group_650" data-name="Group 650" transform="translate(-726 -811)">
    <circle id="Ellipse_76" data-name="Ellipse 76" cx="23" cy="23" r="23" transform="translate(726 811)" fill="#e31b1b"/>
    <g id="datum_icon_1_" transform="translate(740 826)">
      <path id="Path_3070_1_" d="M17.05,8.733a3.255,3.255,0,0,1-.344.362L9.857,15.891c-.127.109-.236.236-.362.326-.127-.109-.254-.217-.362-.326l-1.468-1.45,1.83-1.83,1.051-1.033,4.349-4.312a1.984,1.984,0,0,0,.181-.2,2.735,2.735,0,0,0-.181-3.7,2.8,2.8,0,0,0-3.733-.163,1.634,1.634,0,0,0-.181.163L6.813,7.5,5.581,8.715l-1.848,1.83L2.265,9.1c-.127-.127-.236-.236-.344-.362,0-.018.018-.018.018-.036,0,.018-.018.018-.018.036L1.9,8.715l.344-.344a.788.788,0,0,0-.109.127.788.788,0,0,0,.109-.127L9.114,1.558l.109-.109a.788.788,0,0,1-.127.109l.344-.344a.018.018,0,0,1,.018.018L9.44,1.25l.018-.018a5.412,5.412,0,0,1,7.23.326,5.267,5.267,0,0,1,.362,7.175ZM2.247,1.558A5.452,5.452,0,0,1,6.052,0,4.892,4.892,0,0,1,6.94.072L.761,6.2A5.3,5.3,0,0,1,2.247,1.558Zm5.78,7.157,4.167-4.149c.018-.018.036-.036.054-.036a1.072,1.072,0,0,1,1.4.054.986.986,0,0,1,.308.725,1.065,1.065,0,0,1-.236.652L13.7,6c0,.018-.018.018-.018.036L9.3,10.364,8.244,11.4l-1.812,1.83-1.468-1.45,1.83-1.83Z" transform="translate(-0.686 0)" fill="#fff"/>
      <path id="Path_3071_1_" d="M17.05,8.733a3.255,3.255,0,0,1-.344.362L9.857,15.891c-.127.109-.236.236-.362.326-.127-.109-.254-.217-.362-.326l-1.468-1.45,1.83-1.83,1.051-1.033,4.349-4.312a1.984,1.984,0,0,0,.181-.2,2.735,2.735,0,0,0-.181-3.7,2.8,2.8,0,0,0-3.733-.163,1.634,1.634,0,0,0-.181.163L6.813,7.5,5.581,8.715l-1.848,1.83L2.265,9.1c-.127-.127-.236-.236-.344-.362,0-.018.018-.018.018-.036,0,.018-.018.018-.018.036L1.9,8.715l.344-.344a.788.788,0,0,0-.109.127.788.788,0,0,0,.109-.127L9.114,1.558l.109-.109a.788.788,0,0,1-.127.109l.344-.344a.018.018,0,0,1,.018.018L9.44,1.25l.018-.018a5.412,5.412,0,0,1,7.23.326,5.267,5.267,0,0,1,.362,7.175ZM2.247,1.558A5.452,5.452,0,0,1,6.052,0,4.892,4.892,0,0,1,6.94.072L.761,6.2A5.3,5.3,0,0,1,2.247,1.558Zm5.78,7.157,4.167-4.149c.018-.018.036-.036.054-.036a1.072,1.072,0,0,1,1.4.054.986.986,0,0,1,.308.725,1.065,1.065,0,0,1-.236.652L13.7,6c0,.018-.018.018-.018.036L9.3,10.364,8.244,11.4l-1.812,1.83-1.468-1.45,1.83-1.83Z" transform="translate(-0.686 0)" fill="#fff"/>
    </g>
  </g>
</svg>
