<svg xmlns="http://www.w3.org/2000/svg" xmlns:xlink="http://www.w3.org/1999/xlink" width="284.673" height="181.157" viewBox="0 0 284.673 181.157">
  <defs>
    <linearGradient id="linear-gradient" x1="0.5" x2="0.5" y2="1" gradientUnits="objectBoundingBox">
      <stop offset="0" stop-color="#fc5067"/>
      <stop offset="1" stop-color="#fa7e6a"/>
    </linearGradient>
    <clipPath id="clip-path">
      <path id="Path_14" data-name="Path 14" d="M578.545,380.005c12.854,1.539,23.077,14.384,23.419,22.869H555.126C555.126,390.8,564.325,378.3,578.545,380.005Z" transform="translate(-555.126 -379.849)" fill="none"/>
    </clipPath>
    <clipPath id="clip-path-2">
      <path id="Path_16" data-name="Path 16" d="M184.195,351.842c-20.085,2.405-36.06,22.476-36.594,35.735h73.188C220.789,368.714,206.414,349.182,184.195,351.842Z" transform="translate(-147.601 -351.598)" fill="none"/>
    </clipPath>
    <clipPath id="clip-path-3">
      <path id="Path_18" data-name="Path 18" d="M458.181,334.676c24.493,2.933,43.973,27.409,44.625,43.577h-89.25C413.556,355.25,431.086,331.431,458.181,334.676Z" transform="translate(-413.556 -334.378)" fill="none"/>
    </clipPath>
    <clipPath id="clip-path-4">
      <path id="Path_20" data-name="Path 20" d="M107.617,380.005C94.763,381.545,84.54,394.389,84.2,402.874h46.838C131.036,390.8,121.836,378.3,107.617,380.005Z" transform="translate(-84.198 -379.849)" fill="none"/>
    </clipPath>
    <clipPath id="clip-path-5">
      <rect id="Rectangle_4" data-name="Rectangle 4" width="89.489" height="160.545" rx="11.128" fill="none"/>
    </clipPath>
    <linearGradient id="linear-gradient-11" x1="1.276" y1="0.131" x2="-0.276" y2="0.869" gradientUnits="objectBoundingBox">
      <stop offset="0.27" stop-color="#fff" stop-opacity="0.4"/>
      <stop offset="1" stop-color="#fff" stop-opacity="0.2"/>
    </linearGradient>
    <linearGradient id="linear-gradient-12" x1="1.355" y1="0.147" x2="-0.355" y2="0.853" xlink:href="#linear-gradient-11"/>
    <clipPath id="clip-path-6">
      <rect id="Rectangle_5" data-name="Rectangle 5" width="84.702" height="132.152" fill="none"/>
    </clipPath>
    <clipPath id="clip-path-7">
      <path id="Path_104" data-name="Path 104" d="M546.964,199.717l-2.461-2.145a.322.322,0,0,1-.082-.358l2.6-6.577a.208.208,0,0,1,.333-.092l2.488,2.167a.323.323,0,0,1,.082.359l-2.582,6.542A.233.233,0,0,1,546.964,199.717Z" transform="translate(-544.398 -190.494)" fill="none"/>
    </clipPath>
    <linearGradient id="linear-gradient-13" x1="0.418" y1="0.528" x2="1.124" y2="-0.52" gradientUnits="objectBoundingBox">
      <stop offset="0" stop-color="#fff" stop-opacity="0.6"/>
      <stop offset="0.888" stop-color="#fff" stop-opacity="0.102"/>
    </linearGradient>
    <linearGradient id="linear-gradient-14" x1="0.532" y1="0.76" x2="1.288" y2="-0.35" xlink:href="#linear-gradient-13"/>
    <clipPath id="clip-path-8">
      <circle id="Ellipse_8" data-name="Ellipse 8" cx="5.651" cy="5.651" r="5.651" transform="translate(0 10.999) rotate(-76.717)" fill="none"/>
    </clipPath>
    <clipPath id="clip-path-9">
      <circle id="Ellipse_11" data-name="Ellipse 11" cx="5.651" cy="5.651" r="5.651" transform="matrix(0.973, -0.231, 0.231, 0.973, 0, 2.61)" fill="none"/>
    </clipPath>
  </defs>
  <g id="Group_2109" data-name="Group 2109" transform="translate(3507.42 -12322.563)">
    <path id="Path_1" data-name="Path 1" d="M548.462,331.9a65.993,65.993,0,0,1-.493-12.637c.339-4.245,1.493-9.216,3.85-12.821,1.36-2.08,6.082-6.929,6.739-1.411.325,2.728-.9,5.2-1.806,7.7-.867,2.388-2.071,4.689-2.827,7.113-1.207,3.871-2.042,7.849-3.382,11.681" transform="translate(-3833.67 12138.154)" fill="url(#linear-gradient)"/>
    <path id="Path_2" data-name="Path 2" d="M553.57,351.036c3.39-5.729,6.971-11.35,11.437-16.038a37.751,37.751,0,0,1,13.5-9.464c3.483-1.32,13.412-4.072,14.856,1.355,1.168,4.39-3.67,7.59-6.9,9.4-4.626,2.593-9.614,4.465-14.189,7.183-5.285,3.14-10.183,6.9-15.607,9.817" transform="translate(-3836.774 12126.692)" fill="url(#linear-gradient)"/>
    <path id="Path_3" data-name="Path 3" d="M558.61,326.61c1.842-5.335,3.645-10.553,6.6-15.363,1.967-3.2,5.477-8.833,9.8-9.1,2.787-.172,2.63,4.1,2.188,5.894a18.634,18.634,0,0,1-4.429,7.659,166.079,166.079,0,0,0-12.848,15.862" transform="translate(-3839.503 12138.341)" fill="url(#linear-gradient)"/>
    <path id="Path_4" data-name="Path 4" d="M573.179,310.278s-9.135,10.206-15.714,27.53" transform="translate(-3838.883 12133.936)" fill="none" stroke="#fff" stroke-linecap="round" stroke-miterlimit="10" stroke-width="1"/>
    <path id="Path_5" data-name="Path 5" d="M586.365,334.574s-14.112,2.39-33.943,25.157" transform="translate(-3836.153 12120.78)" fill="none" stroke="#fff" stroke-linecap="round" stroke-miterlimit="10" stroke-width="1"/>
    <path id="Path_6" data-name="Path 6" d="M557.478,310.519s-6.2,7.957-7.14,28.848" transform="translate(-3835.024 12133.805)" fill="none" stroke="#fff" stroke-linecap="round" stroke-miterlimit="10" stroke-width="1"/>
    <path id="Path_7" data-name="Path 7" d="M227.162,320.968a90.887,90.887,0,0,0,1.462-17.366c-.2-5.865-1.485-12.781-4.506-17.889-1.743-2.948-7.944-9.917-9.189-2.36-.616,3.736.918,7.219,2.009,10.707,1.046,3.342,2.56,6.584,3.451,9.968,1.422,5.4,2.324,10.932,3.931,16.291" transform="translate(-3653.333 12150.356)" fill="url(#linear-gradient)"/>
    <path id="Path_8" data-name="Path 8" d="M195.011,326.957c-1.5-7.207-3.244-14.368-6.244-20.87a41.758,41.758,0,0,0-10.747-14.723c-3.176-2.625-12.584-9.05-16.034-3.886-2.79,4.178,1.131,9.254,3.866,12.3,3.916,4.366,8.468,8.106,12.286,12.584,4.411,5.174,8.2,10.855,12.83,15.847" transform="translate(-3624.224 12147.338)" fill="url(#linear-gradient)"/>
    <path id="Path_9" data-name="Path 9" d="M182.255,348.045a67.23,67.23,0,0,0-13.439-12.566c-1.7-1.2-10.368-7.078-10.346-1.349.016,3.928,4.715,6.188,7.613,7.711,5.972,3.139,12.434,5.4,17.992,9.221" transform="translate(-3622.839 12122.356)" fill="url(#linear-gradient)"/>
    <path id="Path_10" data-name="Path 10" d="M164.484,339.3s11.966,5.319,24.493,17.846" transform="translate(-3626.095 12118.223)" fill="none" stroke="#fff" stroke-linecap="round" stroke-miterlimit="10" stroke-width="1"/>
    <path id="Path_11" data-name="Path 11" d="M176.283,298.79s13.917,7.54,26.546,38.449" transform="translate(-3632.484 12140.156)" fill="none" stroke="#fff" stroke-linecap="round" stroke-miterlimit="10" stroke-width="1"/>
    <path id="Path_12" data-name="Path 12" d="M222.251,291.1s8.041,11.339,8.041,40.158" transform="translate(-3657.375 12144.319)" fill="none" stroke="#fff" stroke-linecap="round" stroke-miterlimit="10" stroke-width="1"/>
    <path id="Path_13" data-name="Path 13" d="M578.545,380.005c12.854,1.539,23.077,14.384,23.419,22.869H555.126C555.126,390.8,564.325,378.3,578.545,380.005Z" transform="translate(-3837.617 12096.265)" fill="url(#linear-gradient)"/>
    <g id="Group_5" data-name="Group 5" transform="translate(-3282.491 12476.114)">
      <g id="Group_4" data-name="Group 4" transform="translate(0 0)" clip-path="url(#clip-path)">
        <g id="Group_3" data-name="Group 3" transform="translate(-0.097 -1.669)">
          <line id="Line_1" data-name="Line 1" x2="1.709" y2="26.823" transform="translate(20.647)" fill="none" stroke="#fff" stroke-linecap="round" stroke-miterlimit="10" stroke-width="1"/>
          <line id="Line_2" data-name="Line 2" y1="8.688" x2="4.527" transform="translate(21.266 1.033)" fill="none" stroke="#fff" stroke-linecap="round" stroke-miterlimit="10" stroke-width="1"/>
          <line id="Line_3" data-name="Line 3" x1="11.202" y1="19.272" transform="translate(4.935 6.932)" fill="none" stroke="#fff" stroke-linecap="round" stroke-miterlimit="10" stroke-width="1"/>
          <line id="Line_4" data-name="Line 4" x1="1.53" y2="16.907" transform="translate(11.913 2.031)" fill="none" stroke="#fff" stroke-linecap="round" stroke-miterlimit="10" stroke-width="1"/>
          <line id="Line_5" data-name="Line 5" x1="11.74" y1="9.803" transform="translate(0.711 17.716)" fill="none" stroke="#fff" stroke-linecap="round" stroke-miterlimit="10" stroke-width="1"/>
          <line id="Line_6" data-name="Line 6" x1="5.072" y1="0.654" transform="translate(0 20.704)" fill="none" stroke="#fff" stroke-linecap="round" stroke-miterlimit="10" stroke-width="1"/>
          <line id="Line_7" data-name="Line 7" x1="13.958" y2="19.819" transform="translate(23.647 6)" fill="none" stroke="#fff" stroke-linecap="round" stroke-miterlimit="10" stroke-width="1"/>
          <line id="Line_8" data-name="Line 8" x2="1.962" y2="11.803" transform="translate(29.756 2.556)" fill="none" stroke="#fff" stroke-linecap="round" stroke-miterlimit="10" stroke-width="1"/>
          <line id="Line_9" data-name="Line 9" x1="15.232" y2="9.992" transform="translate(31.102 16.211)" fill="none" stroke="#fff" stroke-linecap="round" stroke-miterlimit="10" stroke-width="1"/>
          <line id="Line_10" data-name="Line 10" x1="13.632" y2="6.136" transform="translate(29.354 11.58)" fill="none" stroke="#fff" stroke-linecap="round" stroke-miterlimit="10" stroke-width="1"/>
          <line id="Line_11" data-name="Line 11" x2="8.282" y2="1.292" transform="translate(40.459 20.065)" fill="none" stroke="#fff" stroke-linecap="round" stroke-miterlimit="10" stroke-width="1"/>
        </g>
      </g>
    </g>
    <path id="Path_15" data-name="Path 15" d="M184.195,351.842c-20.085,2.405-36.06,22.476-36.594,35.735h73.188C220.789,368.714,206.414,349.182,184.195,351.842Z" transform="translate(-3616.954 12111.562)" fill="url(#linear-gradient)"/>
    <g id="Group_9" data-name="Group 9" transform="translate(-3469.353 12463.159)">
      <g id="Group_8" data-name="Group 8" transform="translate(0 0)" clip-path="url(#clip-path-2)">
        <g id="Group_7" data-name="Group 7" transform="translate(0 -2.608)">
          <line id="Line_12" data-name="Line 12" x1="2.67" y2="41.913" transform="translate(38.406)" fill="none" stroke="#ffdcea" stroke-linecap="round" stroke-miterlimit="10" stroke-width="1"/>
          <line id="Line_13" data-name="Line 13" x1="13.606" y1="16.461" transform="translate(26.136 4.137)" fill="none" stroke="#ffdcea" stroke-linecap="round" stroke-miterlimit="10" stroke-width="1"/>
          <line id="Line_14" data-name="Line 14" y1="30.114" x2="17.505" transform="translate(48.124 10.831)" fill="none" stroke="#ffdcea" stroke-linecap="round" stroke-miterlimit="10" stroke-width="1"/>
          <line id="Line_15" data-name="Line 15" x2="2.391" y2="26.418" transform="translate(52.333 3.173)" fill="none" stroke="#ffdcea" stroke-linecap="round" stroke-miterlimit="10" stroke-width="1"/>
          <line id="Line_16" data-name="Line 16" y1="15.318" x2="18.345" transform="translate(53.884 27.682)" fill="none" stroke="#ffdcea" stroke-linecap="round" stroke-miterlimit="10" stroke-width="1"/>
          <line id="Line_17" data-name="Line 17" y1="1.022" x2="7.926" transform="translate(65.413 32.351)" fill="none" stroke="#ffdcea" stroke-linecap="round" stroke-miterlimit="10" stroke-width="1"/>
          <line id="Line_18" data-name="Line 18" y1="14.965" x2="8.918" transform="translate(40.123)" fill="none" stroke="#ffdcea" stroke-linecap="round" stroke-miterlimit="10" stroke-width="1"/>
          <line id="Line_19" data-name="Line 19" x2="20.763" y2="33.668" transform="translate(16.349 6.359)" fill="none" stroke="#ffdcea" stroke-linecap="round" stroke-miterlimit="10" stroke-width="1"/>
          <line id="Line_20" data-name="Line 20" x2="21.943" y2="13.7" transform="translate(8.199 15.026)" fill="none" stroke="#ffdcea" stroke-linecap="round" stroke-miterlimit="10" stroke-width="1"/>
          <line id="Line_21" data-name="Line 21" x2="20.908" y2="18.508" transform="translate(3.833 22.438)" fill="none" stroke="#ffdcea" stroke-linecap="round" stroke-miterlimit="10" stroke-width="1"/>
          <line id="Line_22" data-name="Line 22" x2="15.609" y2="2.334" transform="translate(0 30.528)" fill="none" stroke="#ffdcea" stroke-linecap="round" stroke-miterlimit="10" stroke-width="1"/>
        </g>
      </g>
    </g>
    <path id="Path_17" data-name="Path 17" d="M458.181,334.676c24.493,2.933,43.973,27.409,44.625,43.577h-89.25C413.556,355.25,431.086,331.431,458.181,334.676Z" transform="translate(-3760.961 12120.886)" fill="url(#linear-gradient)"/>
    <g id="Group_13" data-name="Group 13" transform="translate(-3347.405 12455.264)">
      <g id="Group_12" data-name="Group 12" transform="translate(0 0)" clip-path="url(#clip-path-3)">
        <g id="Group_11" data-name="Group 11" transform="translate(-0.185 -3.18)">
          <line id="Line_23" data-name="Line 23" x2="3.256" y2="51.111" transform="translate(39.343)" fill="none" stroke="#ffdcea" stroke-linecap="round" stroke-miterlimit="10" stroke-width="1"/>
          <line id="Line_24" data-name="Line 24" y1="20.073" x2="16.591" transform="translate(40.971 5.044)" fill="none" stroke="#ffdcea" stroke-linecap="round" stroke-miterlimit="10" stroke-width="1"/>
          <line id="Line_25" data-name="Line 25" x1="21.346" y1="36.723" transform="translate(9.403 13.208)" fill="none" stroke="#ffdcea" stroke-linecap="round" stroke-miterlimit="10" stroke-width="1"/>
          <line id="Line_26" data-name="Line 26" x1="2.916" y2="32.216" transform="translate(22.701 3.869)" fill="none" stroke="#ffdcea" stroke-linecap="round" stroke-miterlimit="10" stroke-width="1"/>
          <line id="Line_27" data-name="Line 27" x1="22.371" y1="18.68" transform="translate(1.354 33.757)" fill="none" stroke="#ffdcea" stroke-linecap="round" stroke-miterlimit="10" stroke-width="1"/>
          <line id="Line_28" data-name="Line 28" x1="9.666" y1="1.246" transform="translate(0 39.451)" fill="none" stroke="#ffdcea" stroke-linecap="round" stroke-miterlimit="10" stroke-width="1"/>
          <line id="Line_29" data-name="Line 29" x1="10.876" y1="18.249" transform="translate(29.63)" fill="none" stroke="#ffdcea" stroke-linecap="round" stroke-miterlimit="10" stroke-width="1"/>
          <line id="Line_30" data-name="Line 30" x1="25.319" y2="41.056" transform="translate(44.179 7.755)" fill="none" stroke="#ffdcea" stroke-linecap="round" stroke-miterlimit="10" stroke-width="1"/>
          <line id="Line_31" data-name="Line 31" x1="16.991" y2="12.347" transform="translate(58.52 13.208)" fill="none" stroke="#ffdcea" stroke-linecap="round" stroke-miterlimit="10" stroke-width="1"/>
          <line id="Line_32" data-name="Line 32" x1="25.496" y2="22.569" transform="translate(59.265 27.362)" fill="none" stroke="#ffdcea" stroke-linecap="round" stroke-miterlimit="10" stroke-width="1"/>
          <line id="Line_33" data-name="Line 33" y1="15.259" x2="5.754" transform="translate(73.682 21.91)" fill="none" stroke="#ffdcea" stroke-linecap="round" stroke-miterlimit="10" stroke-width="1"/>
          <line id="Line_34" data-name="Line 34" y1="5.419" x2="25.357" transform="translate(66.243 38.335)" fill="none" stroke="#ffdcea" stroke-linecap="round" stroke-miterlimit="10" stroke-width="1"/>
        </g>
      </g>
    </g>
    <path id="Path_19" data-name="Path 19" d="M107.617,380.005C94.763,381.545,84.54,394.389,84.2,402.874h46.838C131.036,390.8,121.836,378.3,107.617,380.005Z" transform="translate(-3582.623 12096.265)" fill="url(#linear-gradient)"/>
    <g id="Group_17" data-name="Group 17" transform="translate(-3498.425 12476.114)">
      <g id="Group_16" data-name="Group 16" transform="translate(0 0)" clip-path="url(#clip-path-4)">
        <g id="Group_15" data-name="Group 15" transform="translate(0 -1.669)">
          <line id="Line_35" data-name="Line 35" x1="1.709" y2="26.823" transform="translate(24.579)" fill="none" stroke="#fff" stroke-linecap="round" stroke-miterlimit="10" stroke-width="1"/>
          <line id="Line_36" data-name="Line 36" x1="4.292" y1="12.149" transform="translate(21.142 1.033)" fill="none" stroke="#fff" stroke-linecap="round" stroke-miterlimit="10" stroke-width="1"/>
          <line id="Line_37" data-name="Line 37" y1="19.272" x2="11.202" transform="translate(30.798 6.932)" fill="none" stroke="#fff" stroke-linecap="round" stroke-miterlimit="10" stroke-width="1"/>
          <line id="Line_38" data-name="Line 38" x2="1.53" y2="16.907" transform="translate(33.491 2.031)" fill="none" stroke="#fff" stroke-linecap="round" stroke-miterlimit="10" stroke-width="1"/>
          <line id="Line_39" data-name="Line 39" y1="9.803" x2="11.74" transform="translate(34.484 17.716)" fill="none" stroke="#fff" stroke-linecap="round" stroke-miterlimit="10" stroke-width="1"/>
          <line id="Line_40" data-name="Line 40" y1="0.654" x2="5.072" transform="translate(41.862 20.704)" fill="none" stroke="#fff" stroke-linecap="round" stroke-miterlimit="10" stroke-width="1"/>
          <line id="Line_41" data-name="Line 41" y1="9.577" x2="5.707" transform="translate(25.678)" fill="none" stroke="#fff" stroke-linecap="round" stroke-miterlimit="10" stroke-width="1"/>
          <line id="Line_42" data-name="Line 42" x2="11.812" y2="20.203" transform="translate(9.33 6)" fill="none" stroke="#fff" stroke-linecap="round" stroke-miterlimit="10" stroke-width="1"/>
          <line id="Line_43" data-name="Line 43" x1="0.285" y2="16.381" transform="translate(16.893 2.556)" fill="none" stroke="#fff" stroke-linecap="round" stroke-miterlimit="10" stroke-width="1"/>
          <line id="Line_44" data-name="Line 44" x2="13.38" y2="11.844" transform="translate(2.453 14.359)" fill="none" stroke="#fff" stroke-linecap="round" stroke-miterlimit="10" stroke-width="1"/>
          <line id="Line_45" data-name="Line 45" x2="9.989" y2="1.494" transform="translate(0 19.537)" fill="none" stroke="#fff" stroke-linecap="round" stroke-miterlimit="10" stroke-width="1"/>
        </g>
      </g>
    </g>
    <rect id="Rectangle_2" data-name="Rectangle 2" width="89.489" height="160.545" rx="11.128" transform="translate(-3409.828 12338.595)" fill="#ffb5cc"/>
    <g id="Group_20" data-name="Group 20" transform="translate(-3368.286 12487.444)">
      <path id="Path_21" data-name="Path 21" d="M374.421,407.762a3.2,3.2,0,1,1-3.2-3.2A3.2,3.2,0,0,1,374.421,407.762Z" transform="translate(-368.016 -404.56)" fill="none" stroke="#fff" stroke-linecap="round" stroke-linejoin="round" stroke-width="1"/>
    </g>
    <rect id="Rectangle_3" data-name="Rectangle 3" width="84.702" height="132.152" transform="translate(-3407.435 12350.04)" fill="#fff"/>
    <line id="Line_46" data-name="Line 46" x2="15.381" transform="translate(-3372.774 12343.968)" fill="none" stroke="#e31b1b" stroke-linecap="round" stroke-linejoin="round" stroke-width="1.5"/>
    <line id="Line_47" data-name="Line 47" x2="2.836" transform="translate(-3378.472 12343.968)" fill="none" stroke="#e31b1b" stroke-linecap="round" stroke-linejoin="round" stroke-width="1.5"/>
    <g id="Group_23" data-name="Group 23" transform="translate(-3409.828 12338.595)">
      <g id="Group_22" data-name="Group 22" transform="translate(0 0)" clip-path="url(#clip-path-5)">
        <g id="Group_21" data-name="Group 21" transform="translate(-1.026 -17.394)">
          <path id="Path_22" data-name="Path 22" d="M342.148,42,275.18,223.988h19.465L361.613,42Z" transform="translate(-275.18 -42)" fill="url(#linear-gradient-11)"/>
          <path id="Path_23" data-name="Path 23" d="M397.726,42,330.758,223.988h8.253L405.979,42Z" transform="translate(-305.274 -42)" fill="url(#linear-gradient-12)"/>
        </g>
      </g>
    </g>
    <g id="Group_29" data-name="Group 29" transform="translate(-3407.435 12350.04)">
      <g id="Group_28" data-name="Group 28" transform="translate(0 0)" clip-path="url(#clip-path-6)">
        <path id="Path_24" data-name="Path 24" d="M256.718,99.588h-39.4a12.234,12.234,0,0,0-12.234,12.234h0a12.234,12.234,0,0,0,12.234,12.234h3.512l2.2,2.847,2.2-2.847h31.478a12.234,12.234,0,0,0,12.234-12.234h0A12.235,12.235,0,0,0,256.718,99.588Z" transform="translate(-240.646 -102.022)" fill="#b7d1ff" opacity="0.25"/>
        <path id="Path_25" data-name="Path 25" d="M356.438,139.716h39.4a12.234,12.234,0,0,1,12.234,12.234h0a12.234,12.234,0,0,1-12.234,12.234h-1.678l-2.2,2.847-2.2-2.847H356.438A12.234,12.234,0,0,1,344.2,151.95h0A12.234,12.234,0,0,1,356.438,139.716Z" transform="translate(-315.974 -123.75)" fill="#b7d1ff" opacity="0.25"/>
        <g id="Group_25" data-name="Group 25" transform="translate(4.776 58.6)">
          <path id="Path_26" data-name="Path 26" d="M346.057,232.695H305.286a12.234,12.234,0,0,0-12.234,12.234h0a12.234,12.234,0,0,0,12.234,12.234H308.8l2.2,2.847,2.2-2.847h32.854a12.234,12.234,0,0,0,12.234-12.234h0A12.234,12.234,0,0,0,346.057,232.695Z" transform="translate(-293.052 -232.695)" fill="#b7d1ff" opacity="0.25"/>
          <g id="Group_24" data-name="Group 24" transform="translate(6.832 5.945)">
            <line id="Line_48" data-name="Line 48" x2="50.576" stroke-width="1.5" stroke="#fff" stroke-linecap="round" stroke-linejoin="round" fill="none"/>
            <line id="Line_49" data-name="Line 49" x2="36.025" transform="translate(14.551 4.193)" fill="none" stroke="#fff" stroke-linecap="round" stroke-linejoin="round" stroke-width="1.5"/>
            <line id="Line_50" data-name="Line 50" x2="10.171" transform="translate(0 4.193)" fill="none" stroke="#fff" stroke-linecap="round" stroke-linejoin="round" stroke-width="1.5"/>
            <line id="Line_51" data-name="Line 51" x2="12.127" transform="translate(38.449 8.386)" fill="none" stroke="#fff" stroke-linecap="round" stroke-linejoin="round" stroke-width="1.5"/>
            <line id="Line_52" data-name="Line 52" x2="33.769" transform="translate(0 8.386)" fill="none" stroke="#fff" stroke-linecap="round" stroke-linejoin="round" stroke-width="1.5"/>
            <line id="Line_53" data-name="Line 53" x2="26.033" transform="translate(0 12.578)" fill="none" stroke="#fff" stroke-linecap="round" stroke-linejoin="round" stroke-width="1.5"/>
          </g>
        </g>
        <g id="Group_27" data-name="Group 27" transform="translate(16.295 97.65)">
          <path id="Path_27" data-name="Path 27" d="M330.408,317.859H371.18a12.234,12.234,0,0,1,12.234,12.234h0a12.234,12.234,0,0,1-12.234,12.234h-3.512l-2.2,2.846-2.2-2.846H330.408a12.234,12.234,0,0,1-12.234-12.234h0A12.234,12.234,0,0,1,330.408,317.859Z" transform="translate(-318.174 -317.859)" fill="#b7d1ff" opacity="0.25"/>
          <g id="Group_26" data-name="Group 26" transform="translate(6.832 5.945)">
            <line id="Line_54" data-name="Line 54" x2="50.576" stroke-width="1.5" stroke="#fff" stroke-linecap="round" stroke-linejoin="round" fill="none"/>
            <line id="Line_55" data-name="Line 55" x2="27.96" transform="translate(22.616 4.193)" fill="none" stroke="#fff" stroke-linecap="round" stroke-linejoin="round" stroke-width="1.5"/>
            <line id="Line_56" data-name="Line 56" x2="18.781" transform="translate(0 4.193)" fill="none" stroke="#fff" stroke-linecap="round" stroke-linejoin="round" stroke-width="1.5"/>
            <line id="Line_57" data-name="Line 57" x2="9.23" transform="translate(41.346 8.386)" fill="none" stroke="#fff" stroke-linecap="round" stroke-linejoin="round" stroke-width="1.5"/>
            <line id="Line_58" data-name="Line 58" x2="36.666" transform="translate(0 8.386)" fill="none" stroke="#fff" stroke-linecap="round" stroke-linejoin="round" stroke-width="1.5"/>
            <line id="Line_59" data-name="Line 59" x2="31.7" transform="translate(0 12.578)" fill="none" stroke="#fff" stroke-linecap="round" stroke-linejoin="round" stroke-width="1.5"/>
          </g>
        </g>
      </g>
    </g>
    <path id="Path_4666" data-name="Path 4666" d="M0,0H284.673" transform="translate(-3507.42 12499.139)" fill="none" stroke="#e31b1b" stroke-width="1"/>
    <path id="Path_28" data-name="Path 28" d="M246.842,168.89a2.811,2.811,0,0,0-1.408-1.239,2.171,2.171,0,0,0-.539-.066,4.137,4.137,0,0,0-2.09.533,2.037,2.037,0,0,0-.494.37.659.659,0,0,0-.216.564,3.685,3.685,0,0,1,.007.528,5.055,5.055,0,0,1-.138.806,4.717,4.717,0,0,0,.02,2.112,1.39,1.39,0,0,1-.039.815,1.932,1.932,0,0,1-.433.566,3.653,3.653,0,0,0-.8,1.176,1.977,1.977,0,0,0-.039,1.417c.093.234.241.44.354.664A2.492,2.492,0,0,1,241.16,179a.246.246,0,0,0,.194.31,13.123,13.123,0,0,0,3.812.227,7.015,7.015,0,0,0,3.8-1.54" transform="translate(-3667.29 12211.2)" fill="#3f1a2e"/>
    <path id="Path_29" data-name="Path 29" d="M245.02,165.15c-.532,2.407-.126,8.909,1.677,9.717s4.077-1,4.754-1.813c.99-1.19,2.861-6.216,1.183-7.818S245.767,161.775,245.02,165.15Z" transform="translate(-3669.586 12213.542)" fill="#ffb3b1"/>
    <path id="Path_30" data-name="Path 30" d="M254.229,182.03l1.318,4.779-.525,1.291s-.349,2.577.077,2.708c1.71.524,5.478-4.735,5.478-4.735l-3.014-6.88" transform="translate(-3674.69 12204.914)" fill="#ffb3b1"/>
    <path id="Path_31" data-name="Path 31" d="M252.259,164.186c-.522-2.279-3.382-3.726-5.846-3.347-2.018-.581-5.939,1.545-4.185,5.723,0,0,1.559-1.442,3.555-3.35,1.261,3.955,6.052,5.951,6.052,5.951A8.3,8.3,0,0,0,252.259,164.186Z" transform="translate(-3667.953 12214.903)" fill="#3f1a2e"/>
    <path id="Path_32" data-name="Path 32" d="M250.621,159.725c1.813-2.419,6.183-.841,7.325.376,1.293,1.378,1.808,2.769,3.3,3.684.691.423,1.551.7,1.933,1.411.526.984-.118,2.364.575,3.24a4.951,4.951,0,0,1,1.7,3.325c-1.533,1.046-2.776.709-4.478,1.4a23.3,23.3,0,0,1-4.323,1.543.254.254,0,0,1-.29-.283,3.386,3.386,0,0,0-.077-1.808,7.715,7.715,0,0,0-.509-.65,2.672,2.672,0,0,1-.234-1.956,4.371,4.371,0,0,0,.061-2,3.131,3.131,0,0,0-1.147-1.438" transform="translate(-3672.736 12216.141)" fill="#3f1a2e"/>
    <path id="Path_33" data-name="Path 33" d="M259.672,157.07c-.35.037-.6-.33-.724-.658a2.038,2.038,0,0,1-.129-1.359,1.668,1.668,0,0,1,2.5-.578,1.6,1.6,0,0,1,.625,2.182,2.812,2.812,0,0,1-1.764.739" transform="translate(-3677.137 12218.47)" fill="#3f1a2e"/>
    <path id="Path_34" data-name="Path 34" d="M258.477,177.184c.008-.092.092-.157.168-.209a1.3,1.3,0,0,1,1.169-.319.85.85,0,0,1,.427.476,2.106,2.106,0,0,1-.323,2.144c-.462.5-1.679.84-1.883-.082" transform="translate(-3676.751 12206.317)" fill="#ffb3b1"/>
    <path id="Path_35" data-name="Path 35" d="M247.994,176.31s-1.181,2.059-.809,2.431,1.128.144,1.128.144" transform="translate(-3670.836 12206.476)" fill="none" stroke="#ff9c9c" stroke-miterlimit="10" stroke-width="0.75"/>
    <g id="Group_32" data-name="Group 32" transform="translate(-3421.382 12382.455)">
      <path id="Path_36" data-name="Path 36" d="M252.221,175.847a1.932,1.932,0,0,0,.072.463.275.275,0,0,0,.441.151c.3-.206.033-1.016-.364-.849A.248.248,0,0,0,252.221,175.847Z" transform="translate(-252.219 -175.589)" fill="#3f1a2e"/>
    </g>
    <g id="Group_33" data-name="Group 33" transform="translate(-3424.428 12382.455)">
      <path id="Path_37" data-name="Path 37" d="M245.579,175.847a1.957,1.957,0,0,0,.072.463.275.275,0,0,0,.441.151c.3-.206.033-1.016-.365-.849A.249.249,0,0,0,245.579,175.847Z" transform="translate(-245.577 -175.589)" fill="#3f1a2e"/>
    </g>
    <path id="Path_38" data-name="Path 38" d="M250.453,173.841s.738-.921,2,0" transform="translate(-3672.645 12208.033)" fill="none" stroke="#3f1a2e" stroke-linecap="round" stroke-miterlimit="10" stroke-width="0.75"/>
    <path id="Path_39" data-name="Path 39" d="M245.317,174.1a.837.837,0,0,1,1.231-.06" transform="translate(-3669.864 12207.838)" fill="none" stroke="#3f1a2e" stroke-linecap="round" stroke-miterlimit="10" stroke-width="0.75"/>
    <path id="Path_40" data-name="Path 40" d="M248.421,183.493l2.294-.555s-.405,1.386-1.542,1.386C248.619,184.324,248.421,183.493,248.421,183.493Z" transform="translate(-3671.545 12202.886)" fill="#fff"/>
    <path id="Path_41" data-name="Path 41" d="M255.058,186.254a3.948,3.948,0,0,0,2.144-1.8" transform="translate(-3675.139 12202.067)" fill="none" stroke="#ff9c9c" stroke-miterlimit="10" stroke-width="0.75"/>
    <path id="Path_42" data-name="Path 42" d="M211.66,211.237a4.252,4.252,0,0,0,.263,2.714c.811,2.209,9.544,15.866,15.087,16.374s11.121-16.113,11.121-21.228-4.511-6.643-7.4-2.954-6.227,16.514-6.227,16.514Z" transform="translate(-3651.583 12191.424)" fill="#ffb3b1"/>
    <path id="Path_43" data-name="Path 43" d="M220.386,224.7a11.1,11.1,0,0,0-1.51-2.648c-.252-.345-1.123-1.559-1.62-1.324-.342.161.018,1.071.154,1.327a5.254,5.254,0,0,0,.74.99" transform="translate(-3654.592 12182.44)" fill="#ffb3b1"/>
    <g id="Group_36" data-name="Group 36" transform="translate(-3446.084 12485.812)">
      <path id="Path_44" data-name="Path 44" d="M211.236,401.792l-2.2,10.68s-8.761,5.152-8.761,5.261,8.339.41,8.339.41l3.691-1.8h3.6a.658.658,0,0,0,.641-.8l-.751-3.292L219.712,401" transform="translate(-199.393 -400.999)" fill="#f886bc"/>
      <path id="Path_45" data-name="Path 45" d="M199.833,431.026c1.313-.763,6.242-3.2,6.242-3.2l5.16,3.037h4.457v2.57h-4.457v-1.941h-.567a.9.9,0,0,0-.551.188l-1.946,1.5a1.208,1.208,0,0,1-.737.251h-8.2C198.085,433.434,197.827,432.192,199.833,431.026Z" transform="translate(-198.347 -415.526)" fill="#00276f"/>
      <g id="Group_35" data-name="Group 35" transform="translate(14.104 11.878)">
        <path id="Path_46" data-name="Path 46" d="M229.748,430.848l2.119-2.856-.248-1.088-2.512,3.469Z" transform="translate(-229.107 -426.904)" fill="#00276f"/>
      </g>
    </g>
    <path id="Path_47" data-name="Path 47" d="M249.39,247.167s6.725,10.622-.76,21.35c-3.025,4.336-13.195,22.434-13.195,22.434l-5.61,32.506H215s4.756-32.2,6.9-38.008,15.508-33.07,15.508-33.07V248.16" transform="translate(-3653.448 12168.108)" fill="#2f2e41"/>
    <path id="Path_48" data-name="Path 48" d="M254.757,292.321c-3.025,4.335-12.01,23.079-12.01,23.079l-5.61,32.506" transform="translate(-3665.435 12143.659)" fill="none" stroke="#2f2e41" stroke-miterlimit="10" stroke-width="0.75"/>
    <path id="Path_49" data-name="Path 49" d="M257.235,292.321c-3.025,4.335-12.01,23.079-12.01,23.079l-5.609,32.506" transform="translate(-3666.777 12143.659)" fill="none" stroke="#2f2e41" stroke-miterlimit="10" stroke-width="0.75" stroke-dasharray="2 1.5"/>
    <g id="Group_38" data-name="Group 38" transform="translate(-3412.682 12473.32)">
      <path id="Path_50" data-name="Path 50" d="M271.194,379.192l7.53,7.585s-4.163,9.117-4.1,9.206,6.969-4.387,6.969-4.387l1.961-3.546,2.912-2.039a.65.65,0,0,0,.063-1.013l-2.469-2.234-6.467-9.007" transform="translate(-271.194 -373.757)" fill="#f886bc"/>
      <path id="Path_51" data-name="Path 51" d="M277.728,408.567c.629-1.36,3.233-6.116,3.233-6.116l5.887-.466,3.6-2.521,1.454,2.076-3.6,2.521-1.1-1.568-.459.321a.887.887,0,0,0-.338.463l-.723,2.315a1.189,1.189,0,0,1-.453.62l-6.625,4.64C277.678,411.5,276.767,410.643,277.728,408.567Z" transform="translate(-274.51 -387.677)" fill="#00276f"/>
      <g id="Group_37" data-name="Group 37" transform="translate(13.324 9.405)">
        <path id="Path_52" data-name="Path 52" d="M301.038,398.512l.1-3.506-.816-.739-.067,4.223Z" transform="translate(-300.251 -394.267)" fill="#00276f"/>
      </g>
    </g>
    <path id="Path_53" data-name="Path 53" d="M240.68,248.065l-.542,4.312s-17.794,21.814-17.794,31.019c0,8.984,20.081,31.4,20.081,31.4l11.247-8.559-14.62-20.93s14.292-17.413,16.759-19.879c4.127-4.127,3.846-11.157-1.363-18.265" transform="translate(-3657.425 12168.108)" fill="#2f2e41"/>
    <path id="Path_54" data-name="Path 54" d="M261.568,253.131a40.794,40.794,0,0,0,15.413-1.765" transform="translate(-3678.664 12165.834)" fill="none" stroke="#2f2e41" stroke-miterlimit="10" stroke-width="0.75"/>
    <line id="Line_61" data-name="Line 61" y1="2.543" transform="translate(-3413.748 12416.543)" fill="none" stroke="#af480e" stroke-linecap="round" stroke-miterlimit="10" stroke-width="0.75"/>
    <line id="Line_62" data-name="Line 62" x1="0.873" y1="2.352" transform="translate(-3404.724 12415.502)" fill="none" stroke="#2f2e41" stroke-miterlimit="10" stroke-width="0.75"/>
    <path id="Path_55" data-name="Path 55" d="M266.587,311.98l-14.653-21.153a3.2,3.2,0,0,1,.075-3.755c3.413-4.521,12.036-15.915,13.845-18.03,3.795-4.438,4.192-9.658,1.332-15.208" transform="translate(-3673.137 12164.498)" fill="none" stroke="#2f2e41" stroke-miterlimit="10" stroke-width="0.75"/>
    <path id="Path_56" data-name="Path 56" d="M268.276,309.941l-13.815-19.912a2.234,2.234,0,0,1,.051-2.621c3.057-4.051,12.378-16.38,14.268-18.589,3.795-4.438,3.956-9.847,1.095-15.4" transform="translate(-3674.599 12164.721)" fill="none" stroke="#2f2e41" stroke-miterlimit="10" stroke-width="0.75" stroke-dasharray="2 1.5"/>
    <path id="Path_57" data-name="Path 57" d="M278.374,254.952a4.246,4.246,0,0,0,1.925,2.464,19.127,19.127,0,0,0,3.042,1.1" transform="translate(-3687.763 12163.892)" fill="none" stroke="#2f2e41" stroke-miterlimit="10" stroke-width="0.75"/>
    <path id="Path_58" data-name="Path 58" d="M296.75,264.782a9.581,9.581,0,0,0,1.814-.4" transform="translate(-3697.714 12158.785)" fill="none" stroke="#2f2e41" stroke-miterlimit="10" stroke-width="0.75"/>
    <path id="Path_59" data-name="Path 59" d="M296.75,266.729a8.556,8.556,0,0,0,2-.371" transform="translate(-3697.714 12157.718)" fill="none" stroke="#2f2e41" stroke-miterlimit="10" stroke-width="0.75"/>
    <path id="Path_60" data-name="Path 60" d="M262.418,380.053l2.034,2.847,11.616-9.106-2.206-2.5Z" transform="translate(-3679.124 12100.898)" fill="#2f2e41"/>
    <path id="Path_61" data-name="Path 61" d="M214.409,409.762l.753-3.2h14.9v3.2Z" transform="translate(-3653.129 12081.802)" fill="#2f2e41"/>
    <path id="Path_62" data-name="Path 62" d="M217.154,222.938a.167.167,0,0,1,0,.237l-.394.4a.167.167,0,0,1-.237,0l-7.786-7.677a.167.167,0,0,1,0-.237l.394-.4a.167.167,0,0,1,.237,0" transform="translate(-3650.031 12185.411)" fill="#00276f"/>
    <line id="Line_63" data-name="Line 63" x2="0.629" y2="0.62" transform="translate(-3440.288 12401.69)" fill="none" stroke="#2d5491" stroke-linecap="round" stroke-miterlimit="10" stroke-width="0.5"/>
    <line id="Line_64" data-name="Line 64" x2="0.095" y2="0.094" transform="translate(-3439.412 12402.566)" fill="none" stroke="#2d5491" stroke-linecap="round" stroke-miterlimit="10" stroke-width="0.5"/>
    <path id="Path_63" data-name="Path 63" d="M264.951,200.636a12.7,12.7,0,0,0-8.981-6.852s-4.813,3.947-5.471,2.217c-.7,1.041-5.178,8.81-4.567,12.784s4.05,4.525,4.738,5.388,2.313,6.381,2.528,6.763a50.624,50.624,0,0,0,13.991-2.675S268.067,207.049,264.951,200.636Z" transform="translate(-3670.167 12197.014)" fill="#575a89"/>
    <path id="Path_64" data-name="Path 64" d="M244.8,204.812c-1.218-4.643-5.1-7.11-8.523-5.877-2.949,1.063-3.547,4.5-2.7,9.03a59.179,59.179,0,0,1,.638,10.643s-10.649-3.937-12.652-4.735c-2.053-1.748-4.588-3.573-5.017-3.573s-.219.713.368,1.3c.61.61,1.595,1.5.769,1.426-.622-.054-4.68-4.136-4.68-4.136-.341.341.062,1.29.062,1.29a5.321,5.321,0,0,0,1.333,3.008c8.82,10.025,19.207,17.008,25.769,14.615C246.346,225.548,245.233,206.466,244.8,204.812Z" transform="translate(-3652.292 12194.396)" fill="#ffb3b1"/>
    <path id="Path_65" data-name="Path 65" d="M216.326,227.178a20.533,20.533,0,0,1-3.027-3.349" transform="translate(-3652.527 12180.745)" fill="none" stroke="#ffb3b1" stroke-linecap="round" stroke-miterlimit="10" stroke-width="0.75"/>
    <path id="Path_66" data-name="Path 66" d="M269.618,205.075c-.814-5.108-4.717-8.165-8.517-7.206-3.275.827-4.28,4.451-3.852,9.4.126,1.45.25,3.047.364,4.582l12,1.413A56.381,56.381,0,0,0,269.618,205.075Z" transform="translate(-3676.274 12194.896)" fill="#575a89"/>
    <path id="Path_67" data-name="Path 67" d="M269.61,213.26a56.381,56.381,0,0,0,.008-8.185c-.814-5.108-4.717-8.165-8.517-7.206-3.275.827-4.28,4.451-3.852,9.4.126,1.45.25,3.047.364,4.582" transform="translate(-3676.274 12194.896)" fill="none" stroke="#0e4099" stroke-miterlimit="10" stroke-width="0.75"/>
    <g id="Group_44" data-name="Group 44" transform="translate(-3323.46 12422.114)">
      <g id="Group_43" data-name="Group 43" transform="translate(0 48.298)">
        <path id="Path_68" data-name="Path 68" d="M465.994,400.45l.97-.456,5.949,12.642a1.926,1.926,0,0,0,1.553,1.1l.07.1-1.56.734a.253.253,0,0,1-.186.012l-.057-.019a1.48,1.48,0,0,1-.884-.779l-6.036-12.826A.378.378,0,0,1,465.994,400.45Z" transform="translate(-465.777 -385.055)" fill="#fde7c7"/>
        <path id="Path_69" data-name="Path 69" d="M485.05,367.414l-11.018,13.251-4.029,2.4,5.722,12.16a.809.809,0,0,0,1.076.387h0a.809.809,0,0,0,.462-.79l-.585-8.072,12.069-9.922" transform="translate(-468.065 -367.414)" fill="#f886bc"/>
        <path id="Path_70" data-name="Path 70" d="M476.347,401.679l.253,9.1a1.02,1.02,0,0,1-.613.921h0a1.112,1.112,0,0,1-1.374-.537l-6.248-13.277,4.935-1.78S472.827,399.174,476.347,401.679Z" transform="translate(-467.179 -382.953)" fill="#3b3b3b"/>
        <path id="Path_71" data-name="Path 71" d="M483.985,411.829a9.862,9.862,0,0,0-2.293-.236" transform="translate(-474.395 -391.335)" fill="none" stroke="#fff" stroke-linecap="round" stroke-miterlimit="10" stroke-width="1"/>
        <path id="Path_72" data-name="Path 72" d="M484.128,414.569a8.707,8.707,0,0,0-1.935-.171" transform="translate(-474.666 -392.854)" fill="none" stroke="#fff" stroke-linecap="round" stroke-miterlimit="10" stroke-width="1"/>
        <path id="Path_73" data-name="Path 73" d="M484.23,416.779a12.15,12.15,0,0,0-1.772-.147" transform="translate(-474.809 -394.064)" fill="none" stroke="#fff" stroke-linecap="round" stroke-miterlimit="10" stroke-width="1"/>
      </g>
      <path id="Path_74" data-name="Path 74" d="M495.876,266.119l1.581,3.657a8.967,8.967,0,0,0,2.241,3.116c4.332,3.89,15.286,19.2,15.406,25.647.145,7.794-23.794,32.914-23.794,32.914l-9.347-10.487,18.818-22.452-16.34-15.607s-7.463-2.63-4.456-15.986" transform="translate(-473.084 -264.267)" fill="#2f2e41"/>
      <path id="Path_75" data-name="Path 75" d="M487.924,319.555l17.616-21.9a1.664,1.664,0,0,0-.186-2.415l-14.976-15.036s-7.464-2.736-4.467-16.6" transform="translate(-476.295 -262.908)" fill="none" stroke="#2f2e41" stroke-miterlimit="10" stroke-width="0.75" stroke-dasharray="2 1.5"/>
      <path id="Path_76" data-name="Path 76" d="M489.472,320.34l18.693-22.985a2.369,2.369,0,0,0-.264-3.438s-15.976-15.672-16.034-15.7c-.793-.343-5.654-3.123-2.84-16.139" transform="translate(-477.896 -262.081)" fill="none" stroke="#2f2e41" stroke-miterlimit="10" stroke-width="0.75"/>
      <path id="Path_77" data-name="Path 77" d="M485.138,381.549l-3.086,2.862,10.1,10.446,2.837-3.005Z" transform="translate(-474.589 -326.769)" fill="#2f2e41"/>
    </g>
    <g id="Group_46" data-name="Group 46" transform="translate(-3321.98 12420.486)">
      <g id="Group_45" data-name="Group 45" transform="translate(23.227 61.793)">
        <path id="Path_78" data-name="Path 78" d="M531.131,436.834v-1.072H545.1a1.927,1.927,0,0,0,1.653-.938l.119-.021v1.724a.253.253,0,0,1-.068.172l-.041.044a1.483,1.483,0,0,1-1.081.468H531.508A.377.377,0,0,1,531.131,436.834Z" transform="translate(-525.871 -415.77)" fill="#ffe9c9"/>
        <path id="Path_79" data-name="Path 79" d="M519.659,394.735l5.769,13.509.458,4.668h13.439a.808.808,0,0,0,.808-.809h0a.809.809,0,0,0-.518-.755l-7.553-2.908-3.839-15.145" transform="translate(-519.659 -393.295)" fill="#f886bc"/>
        <path id="Path_80" data-name="Path 80" d="M537.956,424.664l8.346,3.647a1.02,1.02,0,0,1,.572.947h0a1.111,1.111,0,0,1-1.07,1.015H531.131l.491-5.224S534.191,426.782,537.956,424.664Z" transform="translate(-525.871 -410.28)" fill="#3b3b3b"/>
        <path id="Path_81" data-name="Path 81" d="M548.491,425.471a9.85,9.85,0,0,0-1.189,1.974" transform="translate(-534.627 -410.717)" fill="none" stroke="#fff" stroke-linecap="round" stroke-miterlimit="10" stroke-width="1"/>
        <path id="Path_82" data-name="Path 82" d="M551.03,426.856a8.69,8.69,0,0,0-.978,1.679" transform="translate(-536.116 -411.467)" fill="none" stroke="#fff" stroke-linecap="round" stroke-miterlimit="10" stroke-width="1"/>
        <path id="Path_83" data-name="Path 83" d="M553.074,427.869a12.143,12.143,0,0,0-.888,1.541" transform="translate(-537.271 -412.016)" fill="none" stroke="#fff" stroke-linecap="round" stroke-miterlimit="10" stroke-width="1"/>
      </g>
      <path id="Path_84" data-name="Path 84" d="M469.039,264.478a36.385,36.385,0,0,0,3.047,16.049c3.635,7.795,18.336,53.066,18.336,53.066l13.04-5.608-15.819-53.877a80.077,80.077,0,0,0-3.24-15.576" transform="translate(-469.004 -258.531)" fill="#2f2e41"/>
      <path id="Path_85" data-name="Path 85" d="M497.989,344.549l-18.081-51.572s-3.676-6.419-3.676-11.31" transform="translate(-472.918 -271.058)" fill="none" stroke="#2f2e41" stroke-miterlimit="10" stroke-width="0.75"/>
      <path id="Path_86" data-name="Path 86" d="M495.248,344.987l-18.519-52.01s-3.676-6.419-3.676-11.31" transform="translate(-471.197 -271.058)" fill="none" stroke="#2f2e41" stroke-miterlimit="10" stroke-width="0.75" stroke-dasharray="2 1.5"/>
      <path id="Path_87" data-name="Path 87" d="M513.254,408.747l1.254,4.042,13.3-5.349-1.228-3.721Z" transform="translate(-492.964 -337.146)" fill="#2f2e41"/>
    </g>
    <path id="Path_88" data-name="Path 88" d="M478.519,287.03a9.637,9.637,0,0,0,4.653-6.053" transform="translate(-3796.136 12149.801)" fill="none" stroke="#2f2e41" stroke-miterlimit="10" stroke-width="0.75"/>
    <path id="Path_89" data-name="Path 89" d="M509.729,281.811s1.471-1.688,1.329-3.068c-.387-3.8-1.329-8.617-1.329-8.617" transform="translate(-3813.036 12155.678)" fill="none" stroke="#2f2e41" stroke-miterlimit="10" stroke-width="0.75"/>
    <path id="Path_90" data-name="Path 90" d="M545.877,205.244l-3.265-3.317s3.055-7.671,3.4-7.6c.7.152-.562,3.412-.562,3.412s1.792-3.489,2.042-3.259c.448.411-.841,3.983-.841,3.983s1.562-3.454,1.867-3.089S547.4,201.1,547.4,201.1Z" transform="translate(-3830.841 12196.718)" fill="#ffb3b1"/>
    <path id="Path_91" data-name="Path 91" d="M541.248,203.591l.609-1.181a17.653,17.653,0,0,1,.708-3.488c.518-1.471.9-2.179,1.172-2.179s0,2.288,0,2.288a5.509,5.509,0,0,1-.212,3.248" transform="translate(-3830.102 12195.412)" fill="#ffb3b1"/>
    <g id="Group_53" data-name="Group 53" transform="translate(-3287.41 12389.289)">
      <path id="Path_92" data-name="Path 92" d="M547.34,199.767l-2.272-2.123a.322.322,0,0,1-.082-.359l2.581-6.78.2.051a.326.326,0,0,1,.144.06l2.488,2.167a.323.323,0,0,1,.082.359l-2.582,6.542a.244.244,0,0,1-.209.16Z" transform="translate(-544.704 -190.5)" fill="#0a172b"/>
      <path id="Path_93" data-name="Path 93" d="M546.964,199.717l-2.461-2.145a.322.322,0,0,1-.082-.358l2.6-6.577a.208.208,0,0,1,.333-.092l2.488,2.167a.323.323,0,0,1,.082.359l-2.582,6.542A.233.233,0,0,1,546.964,199.717Z" transform="translate(-544.398 -190.494)" fill="#00276f"/>
      <path id="Path_94" data-name="Path 94" d="M544.853,197.365l2.875,2.5,2.259-5.724-2.875-2.505Z" transform="translate(-544.645 -191.115)" fill="#8dade0"/>
      <path id="Path_95" data-name="Path 95" d="M547.359,207.164c-.023.091-.094.134-.162.1a.218.218,0,0,1-.081-.233c.022-.091.095-.134.162-.1A.218.218,0,0,1,547.359,207.164Z" transform="translate(-545.867 -199.387)" fill="#8dade0"/>
      <line id="Line_65" data-name="Line 65" x2="0.502" y2="0.447" transform="translate(3.746 1.157)" fill="none" stroke="#8dade0" stroke-linecap="round" stroke-miterlimit="10" stroke-width="0.25"/>
      <g id="Group_48" data-name="Group 48" transform="translate(2.036 1.836)">
        <path id="Path_96" data-name="Path 96" d="M549.075,195.183c-.021.086-.09.127-.153.091a.206.206,0,0,1-.077-.221c.021-.086.09-.127.153-.091A.207.207,0,0,1,549.075,195.183Z" transform="translate(-548.838 -194.743)" fill="#8dade0" opacity="0.55" style="mix-blend-mode: multiply;isolation: isolate"/>
        <path id="Path_97" data-name="Path 97" d="M551.686,195.894l-1.515-1.32a.3.3,0,0,0-.487.133l-.186.481-.153.026,1.851,1.605a.3.3,0,0,0,.487-.133l.117-.292A.448.448,0,0,0,551.686,195.894Z" transform="translate(-549.113 -194.499)" fill="#fff" opacity="0.51"/>
        <line id="Line_66" data-name="Line 66" x2="1.527" y2="1.327" transform="translate(0.865 0.392)" fill="none" stroke="#8dade0" stroke-linecap="round" stroke-miterlimit="10" stroke-width="0.25"/>
        <line id="Line_67" data-name="Line 67" x2="0.876" y2="0.761" transform="translate(0.724 0.756)" fill="none" stroke="#8dade0" stroke-linecap="round" stroke-miterlimit="10" stroke-width="0.25"/>
      </g>
      <g id="Group_49" data-name="Group 49" transform="translate(0.56 5.352)">
        <path id="Path_98" data-name="Path 98" d="M545.857,202.85c-.021.086-.089.127-.153.091a.207.207,0,0,1-.077-.221c.021-.086.09-.127.154-.091A.207.207,0,0,1,545.857,202.85Z" transform="translate(-545.621 -202.409)" fill="#8dade0" opacity="0.55" style="mix-blend-mode: multiply;isolation: isolate"/>
        <path id="Path_99" data-name="Path 99" d="M548.469,203.56l-1.515-1.32a.305.305,0,0,0-.488.133l-.186.481-.154.026,1.851,1.605a.305.305,0,0,0,.488-.133l.116-.291A.449.449,0,0,0,548.469,203.56Z" transform="translate(-545.895 -202.166)" fill="#fff" opacity="0.51"/>
        <line id="Line_68" data-name="Line 68" x2="1.527" y2="1.327" transform="translate(0.865 0.393)" fill="none" stroke="#8dade0" stroke-linecap="round" stroke-miterlimit="10" stroke-width="0.25"/>
        <line id="Line_69" data-name="Line 69" x2="0.876" y2="0.761" transform="translate(0.724 0.756)" fill="none" stroke="#8dade0" stroke-linecap="round" stroke-miterlimit="10" stroke-width="0.25"/>
      </g>
      <g id="Group_50" data-name="Group 50" transform="translate(1.482 3.331)">
        <path id="Path_100" data-name="Path 100" d="M552.858,203.364c-.021.086-.089.127-.153.091a.206.206,0,0,1-.077-.221c.021-.086.09-.127.154-.091A.207.207,0,0,1,552.858,203.364Z" transform="translate(-550.333 -200.668)" fill="#8dade0" opacity="0.55" style="mix-blend-mode: multiply;isolation: isolate"/>
        <path id="Path_101" data-name="Path 101" d="M549.875,199.25l-1.638-1.428a.254.254,0,0,0-.407.113l-.178.455a.319.319,0,0,0,.082.353l2.018,1.745-.052-.243.256-.641A.318.318,0,0,0,549.875,199.25Z" transform="translate(-547.63 -197.76)" fill="#fff" opacity="0.51"/>
        <line id="Line_70" data-name="Line 70" x2="1.527" y2="1.327" transform="translate(0.469 0.429)" fill="none" stroke="#8dade0" stroke-linecap="round" stroke-miterlimit="10" stroke-width="0.25"/>
        <line id="Line_71" data-name="Line 71" x2="0.876" y2="0.762" transform="translate(0.328 0.793)" fill="none" stroke="#8dade0" stroke-linecap="round" stroke-miterlimit="10" stroke-width="0.25"/>
        <line id="Line_72" data-name="Line 72" x2="0.34" y2="0.295" transform="translate(1.333 1.678)" fill="none" stroke="#8dade0" stroke-linecap="round" stroke-miterlimit="10" stroke-width="0.25"/>
      </g>
      <g id="Group_52" data-name="Group 52" transform="translate(0 0)">
        <g id="Group_51" data-name="Group 51" clip-path="url(#clip-path-7)">
          <path id="Path_102" data-name="Path 102" d="M549.394,193.249l.568.563-5.748,6.8-.568-.563Z" transform="translate(-543.991 -191.986)" fill="url(#linear-gradient-13)"/>
          <path id="Path_103" data-name="Path 103" d="M549.292,191.872l.142.141-5.748,6.8-.142-.141Z" transform="translate(-543.936 -191.24)" fill="url(#linear-gradient-14)"/>
        </g>
      </g>
    </g>
    <path id="Path_105" data-name="Path 105" d="M509.281,214.787l3.224,5.175,6.953-10.859s4.963.462,4.392,2.92c-2.757,6.961-5,17.539-10.424,18.075-5.955.589-13.546-10.546-13.546-10.546" transform="translate(-3807.703 12188.719)" fill="#ffb3b1"/>
    <path id="Path_106" data-name="Path 106" d="M524.454,232.785a22.221,22.221,0,0,0-2.506,4.941" transform="translate(-3819.652 12175.896)" fill="none" stroke="#ffb3b1" stroke-miterlimit="10" stroke-width="0.75"/>
    <path id="Path_107" data-name="Path 107" d="M550.072,207.531s2-4.874,2.246-5.8.883-3.482.475-3.482-1.374,2.447-1.482,2.855a3.107,3.107,0,0,0-1.961,2.643" transform="translate(-3834.489 12194.597)" fill="#ffb3b1"/>
    <path id="Path_108" data-name="Path 108" d="M491.552,191.64s6.8.631,14.309,15.849c-1.471,2.139-9.111,6.659-11.224,6.618-2.288-3.343-4.439-11.9-4.439-11.9" transform="translate(-3802.46 12198.175)" fill="#575a89"/>
    <path id="Path_109" data-name="Path 109" d="M483.563,203.8c-2.115-8.35-5.3-12.362-5.3-12.362l-6.981-2-5.649,7.017c-5.678,17.256-.249,36.234-.249,36.234,3.914,1.67,20.123-1.726,24.076-5.678C489.465,227,485.346,210.831,483.563,203.8Z" transform="translate(-3787.76 12199.371)" fill="#575a89"/>
    <path id="Path_110" data-name="Path 110" d="M506.278,217.371s-2.961-13.149-4.479-15.629" transform="translate(-3808.742 12192.704)" fill="none" stroke="#575a89" stroke-miterlimit="10" stroke-width="0.75"/>
    <path id="Path_111" data-name="Path 111" d="M450.682,214.6s-3.417,9.189-2.515,14.581c1.387,8.285,14.738,16.2,14.738,16.2s-.452,2.23.492,3.286a9.307,9.307,0,0,0,3.1-3.882l-1.118-1.855s-7.318-11.518-7.1-15.313c.151-2.682,4.312-16.005,4.312-16.005" transform="translate(-3779.62 12187.358)" fill="#ffb3b1"/>
    <path id="Path_112" data-name="Path 112" d="M463.166,189.431s-7.415,2.077-10.557,7.7a38.988,38.988,0,0,0-4.559,12.611c3.247,3.247,9.79,4.655,13.381,3.911l2.559-13.04" transform="translate(-3779.638 12199.371)" fill="#575a89"/>
    <line id="Line_73" data-name="Line 73" y1="12.015" x2="2.358" transform="translate(-3318.207 12401.012)" fill="none" stroke="#575a89" stroke-miterlimit="10" stroke-width="0.75"/>
    <path id="Path_113" data-name="Path 113" d="M488.7,173.479l-3.764-6.529-2.953,5.211.2,1.2-1.164,3.9c1.164,3.454,5.98,3.842,6.981,2l.7-5.783" transform="translate(-3797.489 12211.543)" fill="#ffb3b1"/>
    <path id="Path_114" data-name="Path 114" d="M494.483,160c.615,2.323.779,10.213-1.085,11.045s-5.632.037-6.731-1.373c-.954-1.224-1.856-7.786-.141-9.386S493.619,156.745,494.483,160Z" transform="translate(-3799.948 12216.262)" fill="#ffb3b1"/>
    <path id="Path_115" data-name="Path 115" d="M485.378,157.723a9.4,9.4,0,0,0,4.645-.626,5.6,5.6,0,0,0,3.3-2.576c.551-1.061.587-2.553-.755-3.138a2.2,2.2,0,0,0-1.026-.168,5.4,5.4,0,0,0-2.857,1.418c.353-1.758-2.972-.951-3.662-.319a4.157,4.157,0,0,1-.622.613,21.489,21.489,0,0,1-2.63.868,3.983,3.983,0,0,0-2.188,2.455,4.235,4.235,0,0,0,.125,3.491,4.372,4.372,0,0,1,.791,1.7l.584,2.507s1.179-.845,1.306-.946a7.273,7.273,0,0,0,1.008-1.293A12.834,12.834,0,0,0,485.378,157.723Z" transform="translate(-3796.54 12220.066)" fill="#3f1a2e"/>
    <path id="Path_116" data-name="Path 116" d="M487.459,171.744c-.226-.413-.525-.878-.957-.918a.783.783,0,0,0-.6.241,2.226,2.226,0,0,0-.024,3.126c.366.335.875.488,1.215.025l.436-2.184A.387.387,0,0,0,487.459,171.744Z" transform="translate(-3799.78 12209.446)" fill="#ff9c9c" stroke="#ffb3b1" stroke-width="1"/>
    <path id="Path_117" data-name="Path 117" d="M492.023,184.817s-3.014-.11-4.279-1.978" transform="translate(-3801.132 12202.94)" fill="none" stroke="#ff9c9c" stroke-miterlimit="10" stroke-width="0.75"/>
    <path id="Path_118" data-name="Path 118" d="M500.992,170.371s1.223,2.085.845,2.659-1.383.229-1.383.229" transform="translate(-3808.014 12209.69)" fill="none" stroke="#ff9c9c" stroke-miterlimit="10" stroke-width="0.75"/>
    <g id="Group_57" data-name="Group 57" transform="translate(-3309.108 12379.799)">
      <path id="Path_119" data-name="Path 119" d="M497.672,169.988a1.848,1.848,0,0,1,.046.467.3.3,0,0,1-.41.266c-.362-.117-.295-.973.152-.92A.248.248,0,0,1,497.672,169.988Z" transform="translate(-497.075 -169.799)" fill="#3f1a2e"/>
    </g>
    <g id="Group_58" data-name="Group 58" transform="translate(-3306.104 12379.799)">
      <path id="Path_120" data-name="Path 120" d="M504.225,169.988a1.851,1.851,0,0,1,.046.467.3.3,0,0,1-.41.266c-.362-.117-.295-.973.152-.92A.249.249,0,0,1,504.225,169.988Z" transform="translate(-503.628 -169.799)" fill="#3f1a2e"/>
    </g>
    <path id="Path_121" data-name="Path 121" d="M499.243,179.1l-3.1-.883s-.123,2.36,1.75,2.71C499.034,181.138,499.243,179.1,499.243,179.1Z" transform="translate(-3805.68 12205.444)" fill="#fff"/>
    <g id="Group_59" data-name="Group 59" transform="translate(-3310.178 12378.3)">
      <path id="Path_122" data-name="Path 122" d="M496.653,167.075a4.742,4.742,0,0,0-1.758.37.489.489,0,0,1-.124-.481,3.474,3.474,0,0,1,1.845-.435S496.769,167,496.653,167.075Z" transform="translate(-494.744 -166.527)" fill="#3f1a2e"/>
    </g>
    <g id="Group_60" data-name="Group 60" transform="translate(-3306.625 12378.327)">
      <path id="Path_123" data-name="Path 123" d="M502.511,167.075a2.329,2.329,0,0,1,1.2.35.576.576,0,0,0,.122-.424,1.7,1.7,0,0,0-1.249-.412S502.442,167,502.511,167.075Z" transform="translate(-502.492 -166.588)" fill="#3f1a2e"/>
    </g>
    <path id="Path_124" data-name="Path 124" d="M485.814,177.139s.611.913,1.431.658" transform="translate(-3800.086 12206.026)" fill="none" stroke="#ffb3b1" stroke-miterlimit="10" stroke-width="0.75"/>
    <g id="Group_63" data-name="Group 63" transform="translate(-3333.897 12422.364)">
      <line id="Line_74" data-name="Line 74" y2="2.12" transform="translate(1.06 0)" fill="none" stroke="#6ca0ff" stroke-linecap="round" stroke-linejoin="round" stroke-width="1"/>
      <line id="Line_75" data-name="Line 75" x1="2.12" transform="translate(0 1.06)" fill="none" stroke="#6ca0ff" stroke-linecap="round" stroke-linejoin="round" stroke-width="1"/>
    </g>
    <g id="Group_64" data-name="Group 64" transform="translate(-3270.073 12410.502)">
      <line id="Line_76" data-name="Line 76" y2="2.12" transform="translate(1.06)" fill="none" stroke="#e31b1b" stroke-linecap="round" stroke-linejoin="round" stroke-width="1"/>
      <line id="Line_77" data-name="Line 77" x1="2.12" transform="translate(0 1.06)" fill="none" stroke="#e31b1b" stroke-linecap="round" stroke-linejoin="round" stroke-width="1"/>
    </g>
    <g id="Group_65" data-name="Group 65" transform="translate(-3457.261 12363.658)">
      <line id="Line_78" data-name="Line 78" y2="2.12" transform="translate(1.06 0)" fill="none" stroke="#e31b1b" stroke-linecap="round" stroke-linejoin="round" stroke-width="1"/>
      <line id="Line_79" data-name="Line 79" x1="2.12" transform="translate(0 1.06)" fill="none" stroke="#e31b1b" stroke-linecap="round" stroke-linejoin="round" stroke-width="1"/>
    </g>
    <g id="Group_66" data-name="Group 66" transform="translate(-3369.654 12323.063)">
      <line id="Line_80" data-name="Line 80" y2="2.12" transform="translate(1.06 0)" fill="none" stroke="#e31b1b" stroke-linecap="round" stroke-linejoin="round" stroke-width="1"/>
      <line id="Line_81" data-name="Line 81" x1="2.12" transform="translate(0 1.06)" fill="none" stroke="#e31b1b" stroke-linecap="round" stroke-linejoin="round" stroke-width="1"/>
    </g>
    <path id="Path_125" data-name="Path 125" d="M338.766,65.424a1.012,1.012,0,1,1-1.012-1.012A1.013,1.013,0,0,1,338.766,65.424Z" transform="translate(-3719.368 12267.064)" fill="none" stroke="#e31b1b" stroke-linecap="round" stroke-linejoin="round" stroke-width="1"/>
    <path id="Path_126" data-name="Path 126" d="M405.349,120.967a1.012,1.012,0,1,1-1.012-1.012A1.012,1.012,0,0,1,405.349,120.967Z" transform="translate(-3755.42 12236.989)" fill="none" stroke="#e31b1b" stroke-linecap="round" stroke-linejoin="round" stroke-width="1"/>
    <circle id="Ellipse_1" data-name="Ellipse 1" cx="1.012" cy="1.012" r="1.012" transform="translate(-3294.436 12386.422)" stroke-width="1" stroke="#e31b1b" stroke-linecap="round" stroke-linejoin="round" fill="none"/>
    <path id="Path_127" data-name="Path 127" d="M135.089,312.726a1.012,1.012,0,1,1-1.012-1.012A1.012,1.012,0,0,1,135.089,312.726Z" transform="translate(-3609.082 12133.158)" fill="none" stroke="#e31b1b" stroke-linecap="round" stroke-linejoin="round" stroke-width="1"/>
    <circle id="Ellipse_2" data-name="Ellipse 2" cx="1.012" cy="1.012" r="1.012" transform="translate(-3434.757 12425.707)" stroke-width="1" stroke="#e31b1b" stroke-linecap="round" stroke-linejoin="round" fill="none"/>
    <path id="Path_128" data-name="Path 128" d="M155.793,120.967a1.012,1.012,0,1,1-1.012-1.012A1.012,1.012,0,0,1,155.793,120.967Z" transform="translate(-3620.293 12236.989)" fill="none" stroke="#e31b1b" stroke-linecap="round" stroke-linejoin="round" stroke-width="1"/>
    <g id="Group_67" data-name="Group 67" transform="translate(-3462.296 12420.354)">
      <line id="Line_82" data-name="Line 82" x2="11.434" transform="translate(0)" fill="none" stroke="#e31b1b" stroke-linecap="round" stroke-linejoin="round" stroke-width="1"/>
      <line id="Line_83" data-name="Line 83" x2="5.103" transform="translate(14.916)" fill="none" stroke="#e31b1b" stroke-linecap="round" stroke-linejoin="round" stroke-width="1"/>
    </g>
    <g id="Group_68" data-name="Group 68" transform="translate(-3294.265 12380.774)">
      <line id="Line_84" data-name="Line 84" x2="11.434" stroke-width="1" stroke="#e31b1b" stroke-linecap="round" stroke-linejoin="round" fill="none"/>
      <line id="Line_85" data-name="Line 85" x2="5.103" transform="translate(14.916)" fill="none" stroke="#e31b1b" stroke-linecap="round" stroke-linejoin="round" stroke-width="1"/>
    </g>
    <g id="Group_69" data-name="Group 69" transform="translate(-3344.909 12325.185)">
      <line id="Line_86" data-name="Line 86" x2="11.434" transform="translate(0)" fill="none" stroke="#e31b1b" stroke-linecap="round" stroke-linejoin="round" stroke-width="1"/>
      <line id="Line_87" data-name="Line 87" x2="5.103" transform="translate(14.916)" fill="none" stroke="#e31b1b" stroke-linecap="round" stroke-linejoin="round" stroke-width="1"/>
    </g>
    <g id="Group_70" data-name="Group 70" transform="translate(-3417.717 12331.061)">
      <line id="Line_88" data-name="Line 88" x1="7.766" transform="translate(6.751)" fill="none" stroke="#e31b1b" stroke-linecap="round" stroke-linejoin="round" stroke-width="1"/>
      <line id="Line_89" data-name="Line 89" x1="4.186" stroke-width="1" stroke="#e31b1b" stroke-linecap="round" stroke-linejoin="round" fill="none"/>
    </g>
    <g id="Group_71" data-name="Group 71" transform="translate(-3448.463 12376.565)">
      <line id="Line_90" data-name="Line 90" x1="9.6" transform="translate(4.917)" fill="none" stroke="#e31b1b" stroke-linecap="round" stroke-linejoin="round" stroke-width="1"/>
      <line id="Line_91" data-name="Line 91" x1="3.269" transform="translate(0)" fill="none" stroke="#e31b1b" stroke-linecap="round" stroke-linejoin="round" stroke-width="1"/>
    </g>
    <line id="Line_92" data-name="Line 92" x2="8.358" transform="translate(-3438.495 12380.774)" fill="none" stroke="#e31b1b" stroke-linecap="round" stroke-linejoin="round" stroke-width="1"/>
    <line id="Line_93" data-name="Line 93" x2="8.358" transform="translate(-3276.597 12377.719)" fill="none" stroke="#e31b1b" stroke-linecap="round" stroke-linejoin="round" stroke-width="1"/>
    <line id="Line_94" data-name="Line 94" x2="8.358" transform="translate(-3352.95 12333.381)" fill="none" stroke="#e31b1b" stroke-linecap="round" stroke-linejoin="round" stroke-width="1"/>
    <line id="Line_95" data-name="Line 95" x2="8.358" transform="translate(-3263.251 12431.134)" fill="none" stroke="#e31b1b" stroke-linecap="round" stroke-linejoin="round" stroke-width="1"/>
    <g id="Group_73" data-name="Group 73" transform="translate(-3467.503 12394.699)">
      <path id="Path_129" data-name="Path 129" d="M163.379,204.891a3.094,3.094,0,0,0-5.853-.828,3.1,3.1,0,1,0-4.984,3.522L156.959,212a.8.8,0,0,0,1.135,0l4.416-4.416A3.1,3.1,0,0,0,163.379,204.891Z" transform="translate(-151.634 -202.291)" fill="#e31b1b"/>
    </g>
    <g id="Group_74" data-name="Group 74" transform="translate(-3471.805 12388.767)">
      <line id="Line_96" data-name="Line 96" y2="1.738" transform="translate(10.194 0)" fill="none" stroke="#e31b1b" stroke-linecap="round" stroke-linejoin="round" stroke-width="1"/>
      <line id="Line_97" data-name="Line 97" y2="1.738" transform="translate(10.194 18.65)" fill="none" stroke="#e31b1b" stroke-linecap="round" stroke-linejoin="round" stroke-width="1"/>
      <line id="Line_98" data-name="Line 98" x1="1.738" transform="translate(18.65 10.194)" fill="none" stroke="#e31b1b" stroke-linecap="round" stroke-linejoin="round" stroke-width="1"/>
      <line id="Line_99" data-name="Line 99" x1="1.738" transform="translate(0 10.194)" fill="none" stroke="#e31b1b" stroke-linecap="round" stroke-linejoin="round" stroke-width="1"/>
      <line id="Line_100" data-name="Line 100" x2="1.229" y2="1.229" transform="translate(2.986 2.986)" fill="none" stroke="#e31b1b" stroke-linecap="round" stroke-linejoin="round" stroke-width="1"/>
      <line id="Line_101" data-name="Line 101" x2="1.229" y2="1.229" transform="translate(16.173 16.173)" fill="none" stroke="#e31b1b" stroke-linecap="round" stroke-linejoin="round" stroke-width="1"/>
      <line id="Line_102" data-name="Line 102" x1="1.229" y2="1.229" transform="translate(16.173 2.986)" fill="none" stroke="#e31b1b" stroke-linecap="round" stroke-linejoin="round" stroke-width="1"/>
      <line id="Line_103" data-name="Line 103" x1="1.229" y2="1.229" transform="translate(2.986 16.173)" fill="none" stroke="#e31b1b" stroke-linecap="round" stroke-linejoin="round" stroke-width="1"/>
      <line id="Line_104" data-name="Line 104" x2="0.665" y2="1.606" transform="translate(6.293 0.776)" fill="none" stroke="#e31b1b" stroke-linecap="round" stroke-linejoin="round" stroke-width="1"/>
      <line id="Line_105" data-name="Line 105" x2="0.665" y2="1.606" transform="translate(13.43 18.006)" fill="none" stroke="#e31b1b" stroke-linecap="round" stroke-linejoin="round" stroke-width="1"/>
      <line id="Line_106" data-name="Line 106" x1="1.606" y2="0.665" transform="translate(18.006 6.293)" fill="none" stroke="#e31b1b" stroke-linecap="round" stroke-linejoin="round" stroke-width="1"/>
      <line id="Line_107" data-name="Line 107" x1="1.606" y2="0.665" transform="translate(0.776 13.43)" fill="none" stroke="#e31b1b" stroke-linecap="round" stroke-linejoin="round" stroke-width="1"/>
      <line id="Line_108" data-name="Line 108" x2="1.606" y2="0.665" transform="translate(0.776 6.293)" fill="none" stroke="#e31b1b" stroke-linecap="round" stroke-linejoin="round" stroke-width="1"/>
      <line id="Line_109" data-name="Line 109" x2="1.606" y2="0.665" transform="translate(18.006 13.43)" fill="none" stroke="#e31b1b" stroke-linecap="round" stroke-linejoin="round" stroke-width="1"/>
      <line id="Line_110" data-name="Line 110" x1="0.665" y2="1.606" transform="translate(13.43 0.776)" fill="none" stroke="#e31b1b" stroke-linecap="round" stroke-linejoin="round" stroke-width="1"/>
      <line id="Line_111" data-name="Line 111" x1="0.665" y2="1.606" transform="translate(6.293 18.006)" fill="none" stroke="#e31b1b" stroke-linecap="round" stroke-linejoin="round" stroke-width="1"/>
    </g>
    <g id="Group_76" data-name="Group 76" transform="translate(-3282.489 12423.47)">
      <path id="Path_130" data-name="Path 130" d="M566.874,267.637a14.414,14.414,0,0,1-9.186-2.554,3.1,3.1,0,0,0-1.65,5.247l4.416,4.416a.8.8,0,0,0,1.135,0l4.416-4.416A3.1,3.1,0,0,0,566.874,267.637Z" transform="translate(-555.129 -265.037)" fill="#e31b1b"/>
    </g>
    <g id="Group_77" data-name="Group 77" transform="translate(-3286.791 12417.538)">
      <line id="Line_112" data-name="Line 112" y2="1.738" transform="translate(10.194 0)" fill="none" stroke="#e31b1b" stroke-linecap="round" stroke-linejoin="round" stroke-width="1"/>
      <line id="Line_113" data-name="Line 113" y2="1.738" transform="translate(10.194 18.65)" fill="none" stroke="#e31b1b" stroke-linecap="round" stroke-linejoin="round" stroke-width="1"/>
      <line id="Line_114" data-name="Line 114" x1="1.738" transform="translate(18.65 10.194)" fill="none" stroke="#e31b1b" stroke-linecap="round" stroke-linejoin="round" stroke-width="1"/>
      <line id="Line_115" data-name="Line 115" x1="1.738" transform="translate(0 10.194)" fill="none" stroke="#e31b1b" stroke-linecap="round" stroke-linejoin="round" stroke-width="1"/>
      <line id="Line_116" data-name="Line 116" x2="1.229" y2="1.229" transform="translate(2.986 2.986)" fill="none" stroke="#e31b1b" stroke-linecap="round" stroke-linejoin="round" stroke-width="1"/>
      <line id="Line_117" data-name="Line 117" x2="1.229" y2="1.229" transform="translate(16.173 16.173)" fill="none" stroke="#e31b1b" stroke-linecap="round" stroke-linejoin="round" stroke-width="1"/>
      <line id="Line_118" data-name="Line 118" x1="1.229" y2="1.229" transform="translate(16.173 2.986)" fill="none" stroke="#e31b1b" stroke-linecap="round" stroke-linejoin="round" stroke-width="1"/>
      <line id="Line_119" data-name="Line 119" x1="1.229" y2="1.229" transform="translate(2.986 16.173)" fill="none" stroke="#e31b1b" stroke-linecap="round" stroke-linejoin="round" stroke-width="1"/>
      <line id="Line_120" data-name="Line 120" x2="0.665" y2="1.606" transform="translate(6.293 0.776)" fill="none" stroke="#e31b1b" stroke-linecap="round" stroke-linejoin="round" stroke-width="1"/>
      <line id="Line_121" data-name="Line 121" x2="0.665" y2="1.606" transform="translate(13.43 18.006)" fill="none" stroke="#e31b1b" stroke-linecap="round" stroke-linejoin="round" stroke-width="1"/>
      <line id="Line_122" data-name="Line 122" x1="1.606" y2="0.665" transform="translate(18.006 6.293)" fill="none" stroke="#e31b1b" stroke-linecap="round" stroke-linejoin="round" stroke-width="1"/>
      <line id="Line_123" data-name="Line 123" x1="1.606" y2="0.665" transform="translate(0.776 13.43)" fill="none" stroke="#e31b1b" stroke-linecap="round" stroke-linejoin="round" stroke-width="1"/>
      <line id="Line_124" data-name="Line 124" x2="1.606" y2="0.665" transform="translate(0.776 6.293)" fill="none" stroke="#e31b1b" stroke-linecap="round" stroke-linejoin="round" stroke-width="1"/>
      <line id="Line_125" data-name="Line 125" x2="1.606" y2="0.665" transform="translate(18.006 13.43)" fill="none" stroke="#e31b1b" stroke-linecap="round" stroke-linejoin="round" stroke-width="1"/>
      <line id="Line_126" data-name="Line 126" x1="0.665" y2="1.606" transform="translate(13.43 0.776)" fill="none" stroke="#e31b1b" stroke-linecap="round" stroke-linejoin="round" stroke-width="1"/>
      <line id="Line_127" data-name="Line 127" x1="0.665" y2="1.606" transform="translate(6.293 18.006)" fill="none" stroke="#e31b1b" stroke-linecap="round" stroke-linejoin="round" stroke-width="1"/>
    </g>
    <g id="Group_79" data-name="Group 79" transform="translate(-3310.775 12335.887)">
      <path id="Path_131" data-name="Path 131" d="M501.182,75.744a9.5,9.5,0,0,1-6.054-1.683,2.044,2.044,0,0,0-1.088,3.458l2.911,2.911a.529.529,0,0,0,.748,0l2.911-2.911A2.043,2.043,0,0,0,501.182,75.744Z" transform="translate(-493.441 -74.03)" fill="#e31b1b"/>
    </g>
    <g id="Group_80" data-name="Group 80" transform="translate(-3313.61 12331.979)">
      <line id="Line_128" data-name="Line 128" y2="1.145" transform="translate(6.719 0)" fill="none" stroke="#e31b1b" stroke-linecap="round" stroke-linejoin="round" stroke-width="1"/>
      <line id="Line_129" data-name="Line 129" y2="1.145" transform="translate(6.719 12.292)" fill="none" stroke="#e31b1b" stroke-linecap="round" stroke-linejoin="round" stroke-width="1"/>
      <line id="Line_130" data-name="Line 130" x1="1.145" transform="translate(12.292 6.719)" fill="none" stroke="#e31b1b" stroke-linecap="round" stroke-linejoin="round" stroke-width="1"/>
      <line id="Line_131" data-name="Line 131" x1="1.145" transform="translate(0 6.719)" fill="none" stroke="#e31b1b" stroke-linecap="round" stroke-linejoin="round" stroke-width="1"/>
      <line id="Line_132" data-name="Line 132" x2="0.81" y2="0.81" transform="translate(1.968 1.968)" fill="none" stroke="#e31b1b" stroke-linecap="round" stroke-linejoin="round" stroke-width="1"/>
      <line id="Line_133" data-name="Line 133" x2="0.81" y2="0.81" transform="translate(10.659 10.659)" fill="none" stroke="#e31b1b" stroke-linecap="round" stroke-linejoin="round" stroke-width="1"/>
      <line id="Line_134" data-name="Line 134" x1="0.81" y2="0.81" transform="translate(10.659 1.968)" fill="none" stroke="#e31b1b" stroke-linecap="round" stroke-linejoin="round" stroke-width="1"/>
      <line id="Line_135" data-name="Line 135" x1="0.81" y2="0.81" transform="translate(1.968 10.659)" fill="none" stroke="#e31b1b" stroke-linecap="round" stroke-linejoin="round" stroke-width="1"/>
      <line id="Line_136" data-name="Line 136" x2="0.438" y2="1.058" transform="translate(4.147 0.511)" fill="none" stroke="#e31b1b" stroke-linecap="round" stroke-linejoin="round" stroke-width="1"/>
      <line id="Line_137" data-name="Line 137" x2="0.438" y2="1.058" transform="translate(8.851 11.868)" fill="none" stroke="#e31b1b" stroke-linecap="round" stroke-linejoin="round" stroke-width="1"/>
      <line id="Line_138" data-name="Line 138" x1="1.058" y2="0.438" transform="translate(11.867 4.147)" fill="none" stroke="#e31b1b" stroke-linecap="round" stroke-linejoin="round" stroke-width="1"/>
      <line id="Line_139" data-name="Line 139" x1="1.058" y2="0.438" transform="translate(0.511 8.851)" fill="none" stroke="#e31b1b" stroke-linecap="round" stroke-linejoin="round" stroke-width="1"/>
      <line id="Line_140" data-name="Line 140" x2="1.058" y2="0.438" transform="translate(0.511 4.147)" fill="none" stroke="#e31b1b" stroke-linecap="round" stroke-linejoin="round" stroke-width="1"/>
      <line id="Line_141" data-name="Line 141" x2="1.058" y2="0.438" transform="translate(11.867 8.851)" fill="none" stroke="#e31b1b" stroke-linecap="round" stroke-linejoin="round" stroke-width="1"/>
      <line id="Line_142" data-name="Line 142" x1="0.438" y2="1.058" transform="translate(8.851 0.511)" fill="none" stroke="#e31b1b" stroke-linecap="round" stroke-linejoin="round" stroke-width="1"/>
      <line id="Line_143" data-name="Line 143" x1="0.438" y2="1.058" transform="translate(4.147 11.868)" fill="none" stroke="#e31b1b" stroke-linecap="round" stroke-linejoin="round" stroke-width="1"/>
    </g>
    <g id="Group_83" data-name="Group 83" transform="translate(-3396.963 12441.766)">
      <circle id="Ellipse_3" data-name="Ellipse 3" cx="6.557" cy="6.557" r="6.557" transform="translate(0 0)" fill="#ffc3d5"/>
      <g id="Group_82" data-name="Group 82" transform="translate(9.939 6.778)">
        <path id="Path_132" data-name="Path 132" d="M330.969,322.01a4.991,4.991,0,0,1-2.426-2.242,1.075,1.075,0,0,0-1.34,1.355l.661,2.061a.278.278,0,0,0,.35.18l2.06-.661A1.074,1.074,0,0,0,330.969,322.01Z" transform="translate(-327.151 -319.72)" fill="#ea3974"/>
      </g>
    </g>
    <ellipse id="Ellipse_4" data-name="Ellipse 4" cx="0.606" cy="1" rx="0.606" ry="1" transform="translate(-3393.285 12447.325)" fill="#e31b1b"/>
    <g id="Group_84" data-name="Group 84" transform="translate(-3394.499 12444.974)">
      <path id="Path_133" data-name="Path 133" d="M311.077,313.683a.229.229,0,0,1-.207-.327,2.665,2.665,0,0,1,2.4-1.42.229.229,0,1,1,0,.458,2.231,2.231,0,0,0-1.99,1.157A.229.229,0,0,1,311.077,313.683Z" transform="translate(-310.848 -311.936)" fill="#e31b1b"/>
    </g>
    <g id="Group_85" data-name="Group 85" transform="translate(-3388.924 12445.884)">
      <path id="Path_134" data-name="Path 134" d="M325.7,315.135a.229.229,0,0,1-.173-.079,2.207,2.207,0,0,0-2.227-.584.229.229,0,0,1-.123-.442,2.667,2.667,0,0,1,2.7.726.229.229,0,0,1-.174.378Z" transform="translate(-323.007 -313.922)" fill="#e31b1b"/>
    </g>
    <g id="Group_86" data-name="Group 86" transform="translate(-3388.839 12447.56)">
      <path id="Path_135" data-name="Path 135" d="M323.423,318.567a.23.23,0,0,1-.185-.365,1.538,1.538,0,0,1,2.129-.346.229.229,0,0,1-.249.385,1.092,1.092,0,0,0-1.511.234A.23.23,0,0,1,323.423,318.567Z" transform="translate(-323.193 -317.575)" fill="#e31b1b"/>
    </g>
    <g id="Group_87" data-name="Group 87" transform="translate(-3390.635 12450.142)">
      <path id="Path_136" data-name="Path 136" d="M319.758,325.864a.229.229,0,0,1-.142-.409l.666-.529-.421-.18a.229.229,0,0,1-.07-.375l.424-.416-.793-.306a.229.229,0,0,1,.165-.428l1.126.434a.229.229,0,0,1,.078.378l-.434.426.46.2a.229.229,0,0,1,.052.39l-.967.768A.228.228,0,0,1,319.758,325.864Z" transform="translate(-319.275 -323.207)" fill="#e31b1b"/>
    </g>
    <g id="Group_90" data-name="Group 90" transform="translate(-3357.316 12389.478)">
      <g id="Group_89" data-name="Group 89" transform="translate(0 0)">
        <circle id="Ellipse_5" data-name="Ellipse 5" cx="8.344" cy="8.344" r="8.344" fill="#ffc3d5"/>
      </g>
    </g>
    <g id="Group_91" data-name="Group 91" transform="translate(-3351.164 12400.511)">
      <path id="Path_137" data-name="Path 137" d="M407.549,217.052a2.182,2.182,0,0,1-2.184-1.685.332.332,0,1,1,.65-.138,1.6,1.6,0,0,0,3.07,0,.332.332,0,1,1,.65.139A2.184,2.184,0,0,1,407.549,217.052Z" transform="translate(-405.358 -214.965)" fill="#e31b1b"/>
    </g>
    <g id="Group_98" data-name="Group 98" transform="translate(-3354.322 12394.67)">
      <g id="Group_94" data-name="Group 94" transform="translate(0 0)">
        <g id="Group_92" data-name="Group 92">
          <path id="Path_138" data-name="Path 138" d="M398.8,203.5a.332.332,0,0,1-.2-.6,3.356,3.356,0,0,1,3.988-.015.333.333,0,1,1-.411.524,2.721,2.721,0,0,0-3.185.028A.33.33,0,0,1,398.8,203.5Z" transform="translate(-398.469 -202.23)" fill="#e31b1b"/>
        </g>
        <g id="Group_93" data-name="Group 93" transform="translate(0.709 2.138)">
          <path id="Path_139" data-name="Path 139" d="M402.663,208.239a.332.332,0,0,1-.268-.135,1.353,1.353,0,0,0-1.867-.287.333.333,0,0,1-.363-.558,2,2,0,0,1,2.765.45.333.333,0,0,1-.07.466A.338.338,0,0,1,402.663,208.239Z" transform="translate(-400.015 -206.893)" fill="#e31b1b"/>
        </g>
      </g>
      <g id="Group_97" data-name="Group 97" transform="translate(6.449 0.001)">
        <g id="Group_95" data-name="Group 95">
          <path id="Path_140" data-name="Path 140" d="M416.452,203.506a.331.331,0,0,1-.2-.063,2.72,2.72,0,0,0-3.184-.028.333.333,0,1,1-.411-.524,3.358,3.358,0,0,1,3.987.015.332.332,0,0,1-.2.6Z" transform="translate(-412.533 -202.232)" fill="#e31b1b"/>
        </g>
        <g id="Group_96" data-name="Group 96" transform="translate(0.562 2.137)">
          <path id="Path_141" data-name="Path 141" d="M414.091,208.239a.336.336,0,0,1-.2-.065.332.332,0,0,1-.07-.466,2,2,0,0,1,2.767-.45.333.333,0,0,1-.363.558,1.351,1.351,0,0,0-1.868.287A.333.333,0,0,1,414.091,208.239Z" transform="translate(-413.758 -206.893)" fill="#e31b1b"/>
        </g>
      </g>
    </g>
    <path id="Path_142" data-name="Path 142" d="M245.067,91.849H206.856a11.867,11.867,0,0,0-11.867,11.867h0a11.867,11.867,0,0,0,11.867,11.866h3.406l2.137,2.761,2.137-2.761h30.532a11.866,11.866,0,0,0,11.866-11.866h0A11.866,11.866,0,0,0,245.067,91.849Z" transform="translate(-3642.613 12252.209)" fill="#fff" stroke="#e31b1b" stroke-linecap="round" stroke-linejoin="round" stroke-width="1"/>
    <g id="Group_100" data-name="Group 100" transform="translate(-3443.845 12348.581)">
      <circle id="Ellipse_6" data-name="Ellipse 6" cx="7.343" cy="7.343" r="7.343" transform="translate(0 0)" fill="#e6effc"/>
      <circle id="Ellipse_7" data-name="Ellipse 7" cx="5.651" cy="5.651" r="5.651" transform="translate(0.545 11.544) rotate(-76.717)" fill="#e31b1b"/>
    </g>
    <g id="Group_104" data-name="Group 104" transform="translate(-3443.3 12349.126)">
      <g id="Group_103" data-name="Group 103" transform="translate(0 0)" clip-path="url(#clip-path-8)">
        <g id="Group_102" data-name="Group 102" transform="translate(-2.151 1.434)">
          <path id="Path_143" data-name="Path 143" d="M212.3,108.877c1.155-1.055,3.382-1.312,4.269-.031.395.569.477,1.364,1,1.811a2.536,2.536,0,0,1,.524.447,1.247,1.247,0,0,1-.034,1.125,1.81,1.81,0,0,0-.207,1.131c.077.265.292.5.253.774-.053.37-.5.493-.863.52a6.07,6.07,0,0,1-.881.013,11.91,11.91,0,0,0-1.346-.125,10.436,10.436,0,0,0-1.618.354,4.216,4.216,0,0,1-1.769-.016c-.347-.078-.743-.272-.778-.637-.023-.249.138-.481.146-.731.012-.422-.408-.755-.409-1.178,0-.5.538-.782.776-1.212a6.382,6.382,0,0,0,.3-1.268A2.205,2.205,0,0,1,212.3,108.877Z" transform="translate(-205.61 -107.088)" fill="#3f1a2e"/>
          <g id="Group_101" data-name="Group 101" transform="translate(0 1.882)">
            <path id="Path_144" data-name="Path 144" d="M202.619,126.314a6.55,6.55,0,0,1,4.642-2.086l2.743-.046a9.091,9.091,0,0,1,3.91,1.524c4.4,3.6,3.665,9.924,3.665,9.924s-17.826-3.859-17.851-3.985A23.626,23.626,0,0,1,202.619,126.314Z" transform="translate(-199.728 -117.741)" fill="#575a89"/>
            <path id="Path_145" data-name="Path 145" d="M218.33,111.37c.555,2.239-.453,3.91-1.318,4.04a1.915,1.915,0,0,1-2.292-1.525c-.161-.487-.4-2.332.115-2.873C215.688,110.113,217.857,109.464,218.33,111.37Z" transform="translate(-207.739 -110.136)" fill="#ffb3b1"/>
            <path id="Path_146" data-name="Path 146" d="M216.3,119.1l-.126,2.058s-.288,1.105,1.4,1.105,1.284-1.105,1.284-1.105l-.276-2.28" transform="translate(-208.622 -114.87)" fill="#ffb3b1"/>
          </g>
          <path id="Path_147" data-name="Path 147" d="M214.41,116.393a.38.38,0,0,0-.464-.042.43.43,0,0,0-.151.345.777.777,0,0,0,.048.358.491.491,0,0,0,.277.268.426.426,0,0,0,.405-.052" transform="translate(-207.344 -111.587)" fill="#ffb3b1"/>
          <path id="Path_148" data-name="Path 148" d="M222.531,116.393a.38.38,0,0,1,.464-.042.43.43,0,0,1,.152.345.789.789,0,0,1-.048.358.493.493,0,0,1-.277.268.427.427,0,0,1-.406-.052" transform="translate(-212.013 -111.587)" fill="#ffb3b1"/>
          <path id="Path_149" data-name="Path 149" d="M213.636,111.966a4.557,4.557,0,0,0,2.666-1.7,5.2,5.2,0,0,0,2.11,1.541,2.975,2.975,0,0,0-.111-1.64,2.85,2.85,0,0,0-.747-.869,2.771,2.771,0,0,0-.814-.552,2.007,2.007,0,0,0-1.795.331A3.212,3.212,0,0,0,213.6,111.3" transform="translate(-207.237 -107.45)" fill="#3f1a2e"/>
          <path id="Path_150" data-name="Path 150" d="M219.608,107.22c-.057.033-.125-.021-.168-.071-.17-.194-.348-.442-.268-.688a.554.554,0,0,1,.219-.27.84.84,0,0,1,.8-.1.663.663,0,0,1,.4.671.55.55,0,0,1-.592.466" transform="translate(-210.245 -106.032)" fill="#3f1a2e"/>
          <path id="Path_151" data-name="Path 151" d="M216.6,120.842a1.44,1.44,0,0,0,1,.547,1.278,1.278,0,0,0,1.192-.706" transform="translate(-208.866 -113.965)" fill="none" stroke="#ff9c9c" stroke-linecap="round" stroke-linejoin="round" stroke-width="0.5"/>
          <path id="Path_152" data-name="Path 152" d="M218.814,117.278s-.369.079-.369-.15.115-1.247.115-1.247" transform="translate(-209.863 -111.365)" fill="none" stroke="#ff9c9c" stroke-linecap="round" stroke-linejoin="round" stroke-width="0.5"/>
          <path id="Path_153" data-name="Path 153" d="M221.022,116.365c.006.062.013.125.019.188" transform="translate(-211.258 -111.627)" fill="none" stroke="#3f1a2e" stroke-linecap="round" stroke-linejoin="round" stroke-width="1"/>
          <path id="Path_154" data-name="Path 154" d="M220.334,115.2a.681.681,0,0,1,.752.058" transform="translate(-210.886 -110.95)" fill="none" stroke="#3f1a2e" stroke-linecap="round" stroke-linejoin="round" stroke-width="0.5"/>
          <path id="Path_155" data-name="Path 155" d="M216.713,116.365c-.006.062-.012.125-.019.188" transform="translate(-208.915 -111.627)" fill="none" stroke="#3f1a2e" stroke-linecap="round" stroke-linejoin="round" stroke-width="1"/>
          <path id="Path_156" data-name="Path 156" d="M216.535,115.2a.68.68,0,0,0-.752.058" transform="translate(-208.421 -110.95)" fill="none" stroke="#3f1a2e" stroke-linecap="round" stroke-linejoin="round" stroke-width="0.5"/>
          <path id="Path_157" data-name="Path 157" d="M217.684,119.614H218.9s-.171.627-.614.627S217.684,119.614,217.684,119.614Z" transform="translate(-209.451 -113.386)" fill="#fff"/>
        </g>
      </g>
    </g>
    <g id="Group_105" data-name="Group 105" transform="translate(-3426.441 12349.824)">
      <line id="Line_144" data-name="Line 144" x2="33.165" transform="translate(0 0)" fill="none" stroke="#e6effc" stroke-linecap="round" stroke-linejoin="round" stroke-width="3"/>
      <line id="Line_145" data-name="Line 145" x2="33.165" transform="translate(0 4.067)" fill="none" stroke="#e6effc" stroke-linecap="round" stroke-linejoin="round" stroke-width="3"/>
      <line id="Line_146" data-name="Line 146" x2="6.629" transform="translate(26.536 8.134)" fill="none" stroke="#e6effc" stroke-linecap="round" stroke-linejoin="round" stroke-width="3"/>
      <line id="Line_147" data-name="Line 147" x2="22.763" transform="translate(0 8.134)" fill="none" stroke="#e6effc" stroke-linecap="round" stroke-linejoin="round" stroke-width="3"/>
      <line id="Line_148" data-name="Line 148" x2="17.548" transform="translate(0 12.2)" fill="none" stroke="#e6effc" stroke-linecap="round" stroke-linejoin="round" stroke-width="3"/>
    </g>
    <path id="Path_158" data-name="Path 158" d="M352.848,127.042H391.06a11.866,11.866,0,0,1,11.866,11.866h0a11.867,11.867,0,0,1-11.866,11.867h-1.628l-2.137,2.761-2.137-2.761H352.848a11.867,11.867,0,0,1-11.866-11.867h0A11.866,11.866,0,0,1,352.848,127.042Z" transform="translate(-3721.664 12233.152)" fill="#fff" stroke="#e31b1b" stroke-linecap="round" stroke-linejoin="round" stroke-width="1"/>
    <g id="Group_107" data-name="Group 107" transform="translate(-3337.202 12364.718)">
      <circle id="Ellipse_9" data-name="Ellipse 9" cx="7.343" cy="7.343" r="7.343" transform="translate(0 0)" fill="#e6effc"/>
      <circle id="Ellipse_10" data-name="Ellipse 10" cx="5.651" cy="5.651" r="5.651" transform="matrix(0.973, -0.231, 0.231, 0.973, 0.54, 3.15)" fill="#e31b1b"/>
    </g>
    <g id="Group_110" data-name="Group 110" transform="translate(-3336.662 12365.258)">
      <g id="Group_109" data-name="Group 109" transform="translate(0 0)" clip-path="url(#clip-path-9)">
        <g id="Group_108" data-name="Group 108" transform="translate(-2.145 2.086)">
          <path id="Path_159" data-name="Path 159" d="M447.312,161.507a6.55,6.55,0,0,0-4.642-2.086l-2.743-.046a9.094,9.094,0,0,0-3.911,1.524c-4.4,3.6-3.665,9.924-3.665,9.924s17.826-3.859,17.851-3.985A23.606,23.606,0,0,0,447.312,161.507Z" transform="translate(-432.306 -151.699)" fill="#575a89"/>
          <path id="Path_160" data-name="Path 160" d="M447.654,146.563c-.555,2.238.454,3.91,1.318,4.04a1.915,1.915,0,0,0,2.292-1.525c.161-.487.4-2.332-.115-2.873C450.3,145.306,448.127,144.657,447.654,146.563Z" transform="translate(-440.531 -144.094)" fill="#ffb3b1"/>
          <path id="Path_161" data-name="Path 161" d="M451.491,154.215l.028,2.058s.326,1.105-1.587,1.105-1.452-1.105-1.452-1.105l.033-2.281" transform="translate(-441.037 -148.785)" fill="#ffb3b1"/>
          <path id="Path_162" data-name="Path 162" d="M455.463,151.585a.38.38,0,0,1,.463-.042.431.431,0,0,1,.152.345.784.784,0,0,1-.048.359.491.491,0,0,1-.277.268.426.426,0,0,1-.406-.052" transform="translate(-444.782 -147.426)" fill="#ff9c9c"/>
          <path id="Path_163" data-name="Path 163" d="M451.673,156.035a1.893,1.893,0,0,1-1.248.547,1.626,1.626,0,0,1-1.483-.706" transform="translate(-441.314 -149.805)" fill="none" stroke="#ffb3b1" stroke-linecap="round" stroke-linejoin="round" stroke-width="0.5"/>
          <path id="Path_164" data-name="Path 164" d="M451.45,151.744s.369.07.369-.133-.115-1.1-.115-1.1" transform="translate(-442.672 -146.898)" fill="none" stroke="#ff9c9c" stroke-linecap="round" stroke-linejoin="round" stroke-width="0.5"/>
          <path id="Path_165" data-name="Path 165" d="M449.656,150.993l-.019.188" transform="translate(-441.69 -147.161)" fill="none" stroke="#3f1a2e" stroke-linecap="round" stroke-linejoin="round" stroke-width="1"/>
          <path id="Path_166" data-name="Path 166" d="M453.965,150.993l.019.188" transform="translate(-444.034 -147.161)" fill="none" stroke="#3f1a2e" stroke-linecap="round" stroke-linejoin="round" stroke-width="1"/>
          <path id="Path_167" data-name="Path 167" d="M451.916,154.565h-1.554a.74.74,0,0,0,.785.627A.719.719,0,0,0,451.916,154.565Z" transform="translate(-442.083 -149.095)" fill="#fff"/>
          <path id="Path_168" data-name="Path 168" d="M446.637,147.013a2.69,2.69,0,0,0,.647-1.791,4.309,4.309,0,0,0,2.269.151,2.884,2.884,0,0,0,1.328-.556,1.484,1.484,0,0,0,.165-1.663c-.354-.369-.924-.142-1.349.114a1.16,1.16,0,0,0-.885-.629,1.105,1.105,0,0,0-.97.444.652.652,0,0,1-.221.228.584.584,0,0,1-.356-.031c-.648-.145-1.258.887-1.371,1.617a4.326,4.326,0,0,0,.389,2.148c.039.1.143.229.219.155" transform="translate(-439.647 -142.635)" fill="#3f1a2e"/>
          <path id="Path_169" data-name="Path 169" d="M455.259,146.531a2.458,2.458,0,0,1,.158,2.647.143.143,0,0,1-.07.071.13.13,0,0,1-.118-.042.807.807,0,0,1-.237-.52c-.023-.193-.008-.389-.017-.584a2.273,2.273,0,0,0-.484-1.289" transform="translate(-444.319 -144.744)" fill="#3f1a2e"/>
          <path id="Path_170" data-name="Path 170" d="M447.314,151.585a.38.38,0,0,0-.464-.042.431.431,0,0,0-.151.345.785.785,0,0,0,.048.359.492.492,0,0,0,.277.268.425.425,0,0,0,.405-.052" transform="translate(-440.098 -147.426)" fill="#ff9c9c"/>
        </g>
      </g>
    </g>
    <g id="Group_111" data-name="Group 111" transform="translate(-3373.085 12365.961)">
      <line id="Line_149" data-name="Line 149" x1="33.165" transform="translate(0 0)" fill="none" stroke="#e6effc" stroke-linecap="round" stroke-linejoin="round" stroke-width="3"/>
      <line id="Line_150" data-name="Line 150" x1="24.314" transform="translate(0 4.067)" fill="none" stroke="#e6effc" stroke-linecap="round" stroke-linejoin="round" stroke-width="3"/>
      <line id="Line_151" data-name="Line 151" x1="5.682" transform="translate(27.483 4.067)" fill="none" stroke="#e6effc" stroke-linecap="round" stroke-linejoin="round" stroke-width="3"/>
      <line id="Line_152" data-name="Line 152" x1="10.065" transform="translate(0 8.134)" fill="none" stroke="#e6effc" stroke-linecap="round" stroke-linejoin="round" stroke-width="3"/>
      <line id="Line_153" data-name="Line 153" x1="19.327" transform="translate(13.838 8.134)" fill="none" stroke="#e6effc" stroke-linecap="round" stroke-linejoin="round" stroke-width="3"/>
      <line id="Line_154" data-name="Line 154" x1="20.968" transform="translate(0 12.2)" fill="none" stroke="#e6effc" stroke-linecap="round" stroke-linejoin="round" stroke-width="3"/>
    </g>
    <path id="Path_171" data-name="Path 171" d="M306.836,165.492H292.182a4.266,4.266,0,0,0-4.266,4.266h0a4.266,4.266,0,0,0,4.266,4.266h1.225l.768.993.768-.993h11.893a4.266,4.266,0,0,0,4.266-4.266h0A4.266,4.266,0,0,0,306.836,165.492Z" transform="translate(-3692.93 12212.332)" fill="#e31b1b"/>
    <g id="Group_113" data-name="Group 113" transform="translate(-3402.473 12379.895)">
      <path id="Path_172" data-name="Path 172" d="M298.4,171.1a6.066,6.066,0,0,1-3.866-1.075,1.3,1.3,0,0,0-.694,2.208l1.858,1.858a.338.338,0,0,0,.478,0l1.858-1.858A1.3,1.3,0,0,0,298.4,171.1Z" transform="translate(-293.458 -170.007)" fill="#fff"/>
      <path id="Path_173" data-name="Path 173" d="M312.734,171.1a6.063,6.063,0,0,1-3.866-1.075,1.305,1.305,0,0,0-.695,2.208l1.858,1.858a.338.338,0,0,0,.478,0l1.858-1.858A1.305,1.305,0,0,0,312.734,171.1Z" transform="translate(-301.219 -170.007)" fill="#fff"/>
      <path id="Path_174" data-name="Path 174" d="M327.068,171.1a6.066,6.066,0,0,1-3.866-1.075,1.3,1.3,0,0,0-.694,2.208l1.858,1.858a.337.337,0,0,0,.477,0l1.859-1.858A1.306,1.306,0,0,0,327.068,171.1Z" transform="translate(-308.98 -170.007)" fill="#fff"/>
    </g>
    <path id="Path_175" data-name="Path 175" d="M414.4,296.749h14.654a4.266,4.266,0,0,0,4.266-4.266h0a4.266,4.266,0,0,0-4.266-4.266h-1.225l-.768-.993-.768.993H414.4a4.266,4.266,0,0,0-4.266,4.266h0A4.266,4.266,0,0,0,414.4,296.749Z" transform="translate(-3759.11 12146.419)" fill="#e31b1b"/>
    <g id="Group_115" data-name="Group 115" transform="translate(-3346.431 12436.853)">
      <path id="Path_176" data-name="Path 176" d="M420.622,295.321a6.063,6.063,0,0,1-3.866-1.075,1.305,1.305,0,0,0-.695,2.208l1.858,1.858a.338.338,0,0,0,.478,0l1.858-1.858A1.305,1.305,0,0,0,420.622,295.321Z" transform="translate(-415.68 -294.227)" fill="#fff"/>
      <path id="Path_177" data-name="Path 177" d="M434.956,295.321a6.066,6.066,0,0,1-3.866-1.075,1.3,1.3,0,0,0-.694,2.208l1.858,1.858a.338.338,0,0,0,.478,0l1.858-1.858A1.3,1.3,0,0,0,434.956,295.321Z" transform="translate(-423.441 -294.227)" fill="#fff"/>
      <path id="Path_178" data-name="Path 178" d="M449.289,295.321a6.066,6.066,0,0,1-3.866-1.075,1.305,1.305,0,0,0-.694,2.208l1.858,1.858a.338.338,0,0,0,.478,0l1.858-1.858A1.3,1.3,0,0,0,449.289,295.321Z" transform="translate(-431.202 -294.227)" fill="#fff"/>
    </g>
    <g id="Group_117" data-name="Group 117" transform="translate(-3298.713 12360.347)">
      <path id="Path_179" data-name="Path 179" d="M543.657,127.374h-18.52a5.391,5.391,0,0,0-5.391,5.391h0a5.391,5.391,0,0,0,5.391,5.391h1.548l.971,1.255.971-1.255h15.03a5.391,5.391,0,0,0,5.391-5.391h0A5.391,5.391,0,0,0,543.657,127.374Z" transform="translate(-519.747 -127.374)" fill="#fff" stroke="#e31b1b" stroke-linecap="round" stroke-linejoin="round" stroke-width="1"/>
    </g>
    <g id="Group_120" data-name="Group 120" transform="translate(-3297.962 12360.549)">
      <circle id="Ellipse_12" data-name="Ellipse 12" cx="3.632" cy="3.632" r="3.632" transform="translate(0 5.136) rotate(-45)" fill="#ffab37"/>
      <g id="Group_118" data-name="Group 118" transform="translate(5.668 3.232)">
        <path id="Path_180" data-name="Path 180" d="M535.859,136.131a2.763,2.763,0,0,1-1.344-1.242.6.6,0,0,0-.742.751l.366,1.141a.154.154,0,0,0,.194.1l1.141-.366A.6.6,0,0,0,535.859,136.131Z" transform="translate(-533.745 -134.863)" fill="#ea3974"/>
      </g>
      <g id="Group_119" data-name="Group 119" transform="translate(2.356 3.232)">
        <path id="Path_181" data-name="Path 181" d="M526.552,136.131a2.768,2.768,0,0,0,1.344-1.242.595.595,0,0,1,.742.751l-.366,1.141a.153.153,0,0,1-.193.1l-1.141-.366A.6.6,0,0,1,526.552,136.131Z" transform="translate(-526.523 -134.863)" fill="#ea3974"/>
      </g>
      <path id="Path_182" data-name="Path 182" d="M532.245,140.682a1.873,1.873,0,1,1-3.746,0Z" transform="translate(-525.237 -134.781)" fill="#fff"/>
    </g>
    <g id="Group_123" data-name="Group 123" transform="translate(-3288.128 12361.516)">
      <circle id="Ellipse_13" data-name="Ellipse 13" cx="3.632" cy="3.632" r="3.632" transform="translate(0 7.169) rotate(-80.76)" fill="#ffab37"/>
      <g id="Group_121" data-name="Group 121" transform="translate(4.7 2.264)">
        <path id="Path_183" data-name="Path 183" d="M555.2,136.131a2.762,2.762,0,0,1-1.343-1.242.595.595,0,0,0-.742.751l.366,1.141a.154.154,0,0,0,.194.1l1.141-.366A.6.6,0,0,0,555.2,136.131Z" transform="translate(-553.082 -134.863)" fill="#ea3974"/>
      </g>
      <g id="Group_122" data-name="Group 122" transform="translate(1.388 2.264)">
        <path id="Path_184" data-name="Path 184" d="M545.889,136.131a2.768,2.768,0,0,0,1.344-1.242.595.595,0,0,1,.742.751l-.366,1.141a.153.153,0,0,1-.193.1l-1.141-.366A.6.6,0,0,1,545.889,136.131Z" transform="translate(-545.86 -134.863)" fill="#ea3974"/>
      </g>
      <path id="Path_185" data-name="Path 185" d="M551.582,140.682a1.873,1.873,0,1,1-3.746,0Z" transform="translate(-545.542 -135.75)" fill="#fff"/>
    </g>
    <g id="Group_126" data-name="Group 126" transform="translate(-3279.465 12361.313)">
      <circle id="Ellipse_14" data-name="Ellipse 14" cx="3.632" cy="3.632" r="3.632" transform="matrix(0.231, -0.973, 0.973, 0.231, 0, 7.067)" fill="#ffab37"/>
      <g id="Group_124" data-name="Group 124" transform="translate(4.903 2.468)">
        <path id="Path_186" data-name="Path 186" d="M574.533,136.131a2.764,2.764,0,0,1-1.344-1.242.6.6,0,0,0-.742.751l.366,1.141a.154.154,0,0,0,.194.1l1.141-.366A.6.6,0,0,0,574.533,136.131Z" transform="translate(-572.419 -134.863)" fill="#ea3974"/>
      </g>
      <g id="Group_125" data-name="Group 125" transform="translate(1.592 2.468)">
        <path id="Path_187" data-name="Path 187" d="M565.226,136.131a2.768,2.768,0,0,0,1.344-1.242.595.595,0,0,1,.742.751l-.366,1.141a.154.154,0,0,1-.194.1l-1.141-.366A.6.6,0,0,1,565.226,136.131Z" transform="translate(-565.197 -134.863)" fill="#ea3974"/>
      </g>
      <path id="Path_188" data-name="Path 188" d="M570.919,140.682a1.873,1.873,0,0,1-3.746,0Z" transform="translate(-564.675 -135.546)" fill="#fff"/>
    </g>
  </g>
</svg>
