<svg xmlns="http://www.w3.org/2000/svg" xmlns:xlink="http://www.w3.org/1999/xlink" width="218.63" height="72" viewBox="0 0 218.63 72">
  <defs>
    <linearGradient id="linear-gradient" x1="0.5" x2="0.5" y2="1" gradientUnits="objectBoundingBox">
      <stop offset="0" stop-color="#fc5067"/>
      <stop offset="1" stop-color="#fa7e6a"/>
    </linearGradient>
  </defs>
  <g id="Group_2133" data-name="Group 2133" transform="translate(-75 -42)">
    <text id="Datum" transform="translate(156.63 94)" fill="#fff" font-size="44" font-family="ProductSans-Bold, Product Sans" font-weight="700"><tspan x="0" y="0">Datum</tspan></text>
    <g id="Group_1592" data-name="Group 1592" transform="translate(9 -18)">
      <circle id="Ellipse_185" data-name="Ellipse 185" cx="36" cy="36" r="36" transform="translate(66 60)" fill="#fff"/>
      <path id="Path_2986" data-name="Path 2986" d="M42.669,22.389c-.271.322-.556.63-.863.935L24.2,40.784c-.3.3-.614.586-.943.855-.329-.269-.64-.555-.943-.855L18.54,37.044l4.714-4.678,2.677-2.654L37.088,18.646a5.031,5.031,0,0,0,.449-.489,7.013,7.013,0,0,0-.449-9.484A7.209,7.209,0,0,0,27.5,8.236a5.981,5.981,0,0,0-.476.436L16.347,19.258,13.19,22.389,8.476,27.067,4.7,23.324c-.307-.3-.591-.613-.863-.935.022-.026.045-.051.067-.077-.022.026-.045.05-.067.076a.247.247,0,0,1-.035-.047l.9-.888c-.1.1-.2.2-.294.3.1-.1.193-.2.294-.3l17.61-17.46c.1-.1.2-.193.3-.289-.1.1-.2.189-.3.288l.9-.888a.258.258,0,0,1,.047.034l-.046.04.048-.041a13.881,13.881,0,0,1,18.553.855,13.587,13.587,0,0,1,.863,18.395ZM4.7,3.994a13.8,13.8,0,0,1,9.748-4,13.567,13.567,0,0,1,2.274.19L.854,15.913A13.56,13.56,0,0,1,4.7,3.994Zm14.8,18.39L30.217,11.745a1.475,1.475,0,0,1,.125-.115,2.739,2.739,0,0,1,3.6.159,2.568,2.568,0,0,1,.778,1.86,2.645,2.645,0,0,1-.6,1.689l-.062.071a.367.367,0,0,1-.067.071L22.791,26.6l-2.677,2.654L15.4,33.932,11.633,30.2l4.714-4.678Z" transform="translate(78.336 78.008)" fill-rule="evenodd" fill="url(#linear-gradient)"/>
    </g>
  </g>
</svg>
