<svg xmlns="http://www.w3.org/2000/svg" xmlns:xlink="http://www.w3.org/1999/xlink" width="169.208" height="169.208" viewBox="0 0 169.208 169.208">
  <defs>
    <linearGradient id="linear-gradient" x1="0.5" x2="0.5" y2="1" gradientUnits="objectBoundingBox">
      <stop offset="0" stop-color="#fc5067"/>
      <stop offset="1" stop-color="#fa7e6a"/>
    </linearGradient>
  </defs>
  <g id="Page-1" transform="translate(0 0)">
    <g id="_036---Not-Compatible-" data-name="036---Not-Compatible-" transform="translate(0 0)">
      <path id="Shape" d="M39.842,54H8.82a2.82,2.82,0,0,0,0,5.64H39.842a2.82,2.82,0,1,0,0-5.64Z" transform="translate(10.921 98.287)" fill="url(#linear-gradient)"/>
      <path id="Shape-2" data-name="Shape" d="M157.928,47.942H130.5a34.307,34.307,0,0,0,4.839-18.824,31.1,31.1,0,0,0-11.309-23.2A25.548,25.548,0,0,0,103.29.38,32.471,32.471,0,0,0,84.6,11.3,32.471,32.471,0,0,0,65.918.38,25.525,25.525,0,0,0,45.181,5.922,31.1,31.1,0,0,0,33.873,29.109a34.315,34.315,0,0,0,4.839,18.833H11.281A11.281,11.281,0,0,0,0,59.223v98.7a11.281,11.281,0,0,0,11.281,11.281H59.223A11.281,11.281,0,0,0,70.5,157.928V80.845q3.914,3.384,8.119,7.093a8.9,8.9,0,0,0,11.935.023c2.82-2.493,5.539-4.851,8.147-7.115v77.083a11.281,11.281,0,0,0,11.281,11.281h47.942a11.281,11.281,0,0,0,11.281-11.281v-98.7a11.281,11.281,0,0,0-11.281-11.281Zm-4.168,5.64-2.688,6.692a2.8,2.8,0,0,1-2.592,1.768H119.348a89.4,89.4,0,0,0,7.389-8.46Zm-103.9,8.46H20.728a2.82,2.82,0,0,1-2.6-1.782l-2.679-6.678H42.471A89.4,89.4,0,0,0,49.86,62.043Zm9.363,101.525H11.281a5.64,5.64,0,0,1-5.64-5.64v-98.7A5.64,5.64,0,0,1,9.5,53.9l3.384,8.46a8.5,8.5,0,0,0,7.843,5.324H49.775a8.322,8.322,0,0,0,4.453-1.356c3.24,3.068,6.8,6.244,10.635,9.588v82.012a5.64,5.64,0,0,1-5.64,5.64Zm14.4-87.486C51.975,57.263,38.907,45.906,39.5,29.315a25.48,25.48,0,0,1,9.222-19,20.24,20.24,0,0,1,12.8-4.673,19.67,19.67,0,0,1,3.412.3,27.572,27.572,0,0,1,16.847,10.9l.025,8.328-3.562,2.82a5.245,5.245,0,0,0,0,8.407l8.923,7.079-8.926,7.076a5.245,5.245,0,0,0,0,8.407l8.923,7.079-3.285,2.6a5.386,5.386,0,0,0-2.1,4.208V83.208c-2.82-2.487-5.556-4.865-8.161-7.126Zm13.8,7.132L87.4,73.061l3.559-2.82a5.245,5.245,0,0,0,0-8.41l-8.923-7.079,8.923-7.073a5.245,5.245,0,0,0,0-8.41l-8.923-7.079,3.283-2.6a5.372,5.372,0,0,0,2.1-4.208V16.833a27.567,27.567,0,0,1,16.848-10.9,19.992,19.992,0,0,1,16.207,4.377,25.48,25.48,0,0,1,9.222,19c.6,16.585-12.468,27.945-34.124,46.764q-3.892,3.387-8.153,7.132Zm76.144,74.714a5.64,5.64,0,0,1-5.64,5.64H109.985a5.64,5.64,0,0,1-5.64-5.64v-82c3.833-3.356,7.394-6.531,10.635-9.588a8.322,8.322,0,0,0,4.453,1.345H148.48a8.489,8.489,0,0,0,7.834-5.324L159.7,53.9a5.64,5.64,0,0,1,3.869,5.324Z" transform="translate(0 0)" fill="url(#linear-gradient)"/>
      <path id="Shape-3" data-name="Shape" d="M74.842,54H43.82a2.82,2.82,0,0,0,0,5.64H74.842a2.82,2.82,0,0,0,0-5.64Z" transform="translate(74.626 98.287)" fill="url(#linear-gradient)"/>
      <path id="Shape-4" data-name="Shape" d="M36.285,4.268A18.373,18.373,0,0,0,22.2,7.607C18.09,10.994,16,16.414,16,23.747a2.82,2.82,0,1,0,5.64,0c0-5.533,1.385-9.487,4.117-11.754A12.767,12.767,0,0,1,35.205,9.8a2.82,2.82,0,0,0,1.08-5.536Z" transform="translate(29.122 7.275)" fill="url(#linear-gradient)"/>
      <path id="Shape-5" data-name="Shape" d="M35.72,57.71a15.511,15.511,0,1,0-19.137,0A21.151,21.151,0,0,0,5,76.548v4.23a5.64,5.64,0,0,0,5.64,5.64H41.662a5.64,5.64,0,0,0,5.64-5.64v-4.23A21.151,21.151,0,0,0,35.72,57.71ZM16.281,45.527a9.87,9.87,0,1,1,9.87,9.87A9.87,9.87,0,0,1,16.281,45.527ZM41.662,80.778H10.64v-4.23a15.511,15.511,0,1,1,31.022,0Z" transform="translate(9.101 54.588)" fill="url(#linear-gradient)"/>
      <path id="Shape-6" data-name="Shape" d="M70.72,57.71a15.511,15.511,0,1,0-19.137,0A21.151,21.151,0,0,0,40,76.548v4.23a5.64,5.64,0,0,0,5.64,5.64H76.662a5.64,5.64,0,0,0,5.64-5.64v-4.23A21.151,21.151,0,0,0,70.72,57.71ZM51.281,45.527a9.87,9.87,0,1,1,9.87,9.87A9.87,9.87,0,0,1,51.281,45.527ZM76.662,80.778H45.64v-4.23a15.511,15.511,0,1,1,31.022,0Z" transform="translate(72.806 54.588)" fill="url(#linear-gradient)"/>
    </g>
  </g>
</svg>
